2, 20, 
[70, 31, 46, 73, 78, 36, 29, 49, 93, 58,
74, 56, 41, 100, 91, 26, 60, 52, 46, 66]
[[0, 28, 28, 38, 29, 31, 43, 38, 29, 44,
4503599627370494, 4503599627370494, 4503599627370494, 4503599627370494, 4503599627370494, 4503599627370494, 4503599627370494, 4503599627370494, 4503599627370494, 4503599627370494], [31, 0, 38, 33, 34, 31, 38, 25, 46, 40,
4503599627370494, 4503599627370494, 4503599627370494, 4503599627370494, 4503599627370494, 4503599627370494, 4503599627370494, 4503599627370494, 4503599627370494, 4503599627370494], [28, 27, 0, 43, 46, 39, 26, 43, 28, 48,
4503599627370494, 4503599627370494, 4503599627370494, 4503599627370494, 4503599627370494, 4503599627370494, 4503599627370494, 4503599627370494, 4503599627370494, 4503599627370494], [38, 29, 26, 0, 33, 40, 46, 25, 38, 45,
4503599627370494, 4503599627370494, 4503599627370494, 4503599627370494, 4503599627370494, 4503599627370494, 4503599627370494, 4503599627370494, 4503599627370494, 4503599627370494], [34, 28, 25, 26, 0, 45, 41, 27, 31, 45,
4503599627370494, 4503599627370494, 4503599627370494, 4503599627370494, 4503599627370494, 4503599627370494, 4503599627370494, 4503599627370494, 4503599627370494, 4503599627370494], [41, 28, 26, 40, 38, 0, 26, 35, 43, 41,
4503599627370494, 4503599627370494, 4503599627370494, 4503599627370494, 4503599627370494, 4503599627370494, 4503599627370494, 4503599627370494, 4503599627370494, 4503599627370494], [25, 34, 31, 26, 43, 26, 0, 37, 25, 45,
4503599627370494, 4503599627370494, 4503599627370494, 4503599627370494, 4503599627370494, 4503599627370494, 4503599627370494, 4503599627370494, 4503599627370494, 4503599627370494], [38, 37, 25, 46, 25, 25, 26, 0, 42, 25,
4503599627370494, 4503599627370494, 4503599627370494, 4503599627370494, 4503599627370494, 4503599627370494, 4503599627370494, 4503599627370494, 4503599627370494, 4503599627370494], [49, 36, 34, 41, 26, 34, 28, 36, 0, 45,
4503599627370494, 4503599627370494, 4503599627370494, 4503599627370494, 4503599627370494, 4503599627370494, 4503599627370494, 4503599627370494, 4503599627370494, 4503599627370494], [35, 32, 48, 40, 44, 25, 47, 49, 33, 0,
4503599627370494, 4503599627370494, 4503599627370494, 4503599627370494, 4503599627370494, 4503599627370494, 4503599627370494, 4503599627370494, 4503599627370494, 4503599627370494],
[4503599627370494, 4503599627370494, 4503599627370494, 4503599627370494, 4503599627370494, 4503599627370494, 4503599627370494, 4503599627370494, 4503599627370494, 4503599627370494,
0, 29, 27, 36, 33, 45, 28, 28, 30, 40], [4503599627370494, 4503599627370494, 4503599627370494, 4503599627370494, 4503599627370494, 4503599627370494, 4503599627370494, 4503599627370494, 4503599627370494, 4503599627370494,
50, 0, 44, 42, 43, 32, 39, 50, 41, 25], [4503599627370494, 4503599627370494, 4503599627370494, 4503599627370494, 4503599627370494, 4503599627370494, 4503599627370494, 4503599627370494, 4503599627370494, 4503599627370494,
49, 25, 0, 30, 31, 26, 30, 40, 35, 27], [4503599627370494, 4503599627370494, 4503599627370494, 4503599627370494, 4503599627370494, 4503599627370494, 4503599627370494, 4503599627370494, 4503599627370494, 4503599627370494,
28, 27, 33, 0, 33, 44, 46, 25, 26, 46], [4503599627370494, 4503599627370494, 4503599627370494, 4503599627370494, 4503599627370494, 4503599627370494, 4503599627370494, 4503599627370494, 4503599627370494, 4503599627370494,
31, 49, 46, 32, 0, 39, 41, 41, 30, 32], [4503599627370494, 4503599627370494, 4503599627370494, 4503599627370494, 4503599627370494, 4503599627370494, 4503599627370494, 4503599627370494, 4503599627370494, 4503599627370494,
25, 31, 49, 50, 45, 0, 28, 47, 29, 32], [4503599627370494, 4503599627370494, 4503599627370494, 4503599627370494, 4503599627370494, 4503599627370494, 4503599627370494, 4503599627370494, 4503599627370494, 4503599627370494,
39, 43, 28, 40, 35, 47, 0, 36, 34, 50], [4503599627370494, 4503599627370494, 4503599627370494, 4503599627370494, 4503599627370494, 4503599627370494, 4503599627370494, 4503599627370494, 4503599627370494, 4503599627370494,
39, 49, 46, 28, 27, 25, 29, 0, 49, 43], [4503599627370494, 4503599627370494, 4503599627370494, 4503599627370494, 4503599627370494, 4503599627370494, 4503599627370494, 4503599627370494, 4503599627370494, 4503599627370494,
40, 35, 28, 48, 50, 48, 29, 33, 0, 39], [4503599627370494, 4503599627370494, 4503599627370494, 4503599627370494, 4503599627370494, 4503599627370494, 4503599627370494, 4503599627370494, 4503599627370494, 4503599627370494,
49, 46, 44, 32, 33, 38, 45, 31, 48, 0]]
