5, 25, 
[70, 33, 31, 33, 46, 59, 73, 63, 78, 81,
36, 56, 29, 75, 49, 11, 93, 14, 58, 76,
74, 80, 56, 36, 41]
[[0, 28, 28, 38, 29, 4503599627370494, 4503599627370494, 4503599627370494, 4503599627370494, 4503599627370494,
4503599627370494, 4503599627370494, 4503599627370494, 4503599627370494, 4503599627370494, 4503599627370494, 4503599627370494, 4503599627370494, 4503599627370494, 4503599627370494,
4503599627370494, 4503599627370494, 4503599627370494, 4503599627370494, 4503599627370494], [43, 0, 38, 29, 44, 4503599627370494, 4503599627370494, 4503599627370494, 4503599627370494, 4503599627370494,
4503599627370494, 4503599627370494, 4503599627370494, 4503599627370494, 4503599627370494, 4503599627370494, 4503599627370494, 4503599627370494, 4503599627370494, 4503599627370494,
4503599627370494, 4503599627370494, 4503599627370494, 4503599627370494, 4503599627370494], [31, 38, 0, 33, 34, 4503599627370494, 4503599627370494, 4503599627370494, 4503599627370494, 4503599627370494,
4503599627370494, 4503599627370494, 4503599627370494, 4503599627370494, 4503599627370494, 4503599627370494, 4503599627370494, 4503599627370494, 4503599627370494, 4503599627370494,
4503599627370494, 4503599627370494, 4503599627370494, 4503599627370494, 4503599627370494], [38, 25, 46, 0, 40, 4503599627370494, 4503599627370494, 4503599627370494, 4503599627370494, 4503599627370494,
4503599627370494, 4503599627370494, 4503599627370494, 4503599627370494, 4503599627370494, 4503599627370494, 4503599627370494, 4503599627370494, 4503599627370494, 4503599627370494,
4503599627370494, 4503599627370494, 4503599627370494, 4503599627370494, 4503599627370494], [28, 27, 43, 46, 0, 4503599627370494, 4503599627370494, 4503599627370494, 4503599627370494, 4503599627370494,
4503599627370494, 4503599627370494, 4503599627370494, 4503599627370494, 4503599627370494, 4503599627370494, 4503599627370494, 4503599627370494, 4503599627370494, 4503599627370494,
4503599627370494, 4503599627370494, 4503599627370494, 4503599627370494, 4503599627370494], [4503599627370494, 4503599627370494, 4503599627370494, 4503599627370494, 4503599627370494, 0, 26, 43, 28, 48,
4503599627370494, 4503599627370494, 4503599627370494, 4503599627370494, 4503599627370494, 4503599627370494, 4503599627370494, 4503599627370494, 4503599627370494, 4503599627370494,
4503599627370494, 4503599627370494, 4503599627370494, 4503599627370494, 4503599627370494], [4503599627370494, 4503599627370494, 4503599627370494, 4503599627370494, 4503599627370494, 38, 0, 29, 26, 33,
4503599627370494, 4503599627370494, 4503599627370494, 4503599627370494, 4503599627370494, 4503599627370494, 4503599627370494, 4503599627370494, 4503599627370494, 4503599627370494,
4503599627370494, 4503599627370494, 4503599627370494, 4503599627370494, 4503599627370494], [4503599627370494, 4503599627370494, 4503599627370494, 4503599627370494, 4503599627370494, 46, 25, 0, 38, 45,
4503599627370494, 4503599627370494, 4503599627370494, 4503599627370494, 4503599627370494, 4503599627370494, 4503599627370494, 4503599627370494, 4503599627370494, 4503599627370494,
4503599627370494, 4503599627370494, 4503599627370494, 4503599627370494, 4503599627370494], [4503599627370494, 4503599627370494, 4503599627370494, 4503599627370494, 4503599627370494, 34, 28, 25, 0, 26,
4503599627370494, 4503599627370494, 4503599627370494, 4503599627370494, 4503599627370494, 4503599627370494, 4503599627370494, 4503599627370494, 4503599627370494, 4503599627370494,
4503599627370494, 4503599627370494, 4503599627370494, 4503599627370494, 4503599627370494], [4503599627370494, 4503599627370494, 4503599627370494, 4503599627370494, 4503599627370494, 41, 27, 31, 45, 0,
4503599627370494, 4503599627370494, 4503599627370494, 4503599627370494, 4503599627370494, 4503599627370494, 4503599627370494, 4503599627370494, 4503599627370494, 4503599627370494,
4503599627370494, 4503599627370494, 4503599627370494, 4503599627370494, 4503599627370494],
[4503599627370494, 4503599627370494, 4503599627370494, 4503599627370494, 4503599627370494, 4503599627370494, 4503599627370494, 4503599627370494, 4503599627370494, 4503599627370494,
0, 41, 28, 26, 40, 4503599627370494, 4503599627370494, 4503599627370494, 4503599627370494, 4503599627370494,
4503599627370494, 4503599627370494, 4503599627370494, 4503599627370494, 4503599627370494], [4503599627370494, 4503599627370494, 4503599627370494, 4503599627370494, 4503599627370494, 4503599627370494, 4503599627370494, 4503599627370494, 4503599627370494, 4503599627370494,
26, 0, 35, 43, 41, 4503599627370494, 4503599627370494, 4503599627370494, 4503599627370494, 4503599627370494,
4503599627370494, 4503599627370494, 4503599627370494, 4503599627370494, 4503599627370494], [4503599627370494, 4503599627370494, 4503599627370494, 4503599627370494, 4503599627370494, 4503599627370494, 4503599627370494, 4503599627370494, 4503599627370494, 4503599627370494,
25, 34, 0, 31, 26, 4503599627370494, 4503599627370494, 4503599627370494, 4503599627370494, 4503599627370494,
4503599627370494, 4503599627370494, 4503599627370494, 4503599627370494, 4503599627370494], [4503599627370494, 4503599627370494, 4503599627370494, 4503599627370494, 4503599627370494, 4503599627370494, 4503599627370494, 4503599627370494, 4503599627370494, 4503599627370494,
26, 37, 25, 0, 45, 4503599627370494, 4503599627370494, 4503599627370494, 4503599627370494, 4503599627370494,
4503599627370494, 4503599627370494, 4503599627370494, 4503599627370494, 4503599627370494], [4503599627370494, 4503599627370494, 4503599627370494, 4503599627370494, 4503599627370494, 4503599627370494, 4503599627370494, 4503599627370494, 4503599627370494, 4503599627370494,
38, 37, 25, 46, 0, 4503599627370494, 4503599627370494, 4503599627370494, 4503599627370494, 4503599627370494,
4503599627370494, 4503599627370494, 4503599627370494, 4503599627370494, 4503599627370494], [4503599627370494, 4503599627370494, 4503599627370494, 4503599627370494, 4503599627370494, 4503599627370494, 4503599627370494, 4503599627370494, 4503599627370494, 4503599627370494,
4503599627370494, 4503599627370494, 4503599627370494, 4503599627370494, 4503599627370494, 0, 25, 26, 42, 25,
4503599627370494, 4503599627370494, 4503599627370494, 4503599627370494, 4503599627370494], [4503599627370494, 4503599627370494, 4503599627370494, 4503599627370494, 4503599627370494, 4503599627370494, 4503599627370494, 4503599627370494, 4503599627370494, 4503599627370494,
4503599627370494, 4503599627370494, 4503599627370494, 4503599627370494, 4503599627370494, 49, 0, 36, 34, 41,
4503599627370494, 4503599627370494, 4503599627370494, 4503599627370494, 4503599627370494], [4503599627370494, 4503599627370494, 4503599627370494, 4503599627370494, 4503599627370494, 4503599627370494, 4503599627370494, 4503599627370494, 4503599627370494, 4503599627370494,
4503599627370494, 4503599627370494, 4503599627370494, 4503599627370494, 4503599627370494, 34, 28, 0, 36, 45,
4503599627370494, 4503599627370494, 4503599627370494, 4503599627370494, 4503599627370494], [4503599627370494, 4503599627370494, 4503599627370494, 4503599627370494, 4503599627370494, 4503599627370494, 4503599627370494, 4503599627370494, 4503599627370494, 4503599627370494,
4503599627370494, 4503599627370494, 4503599627370494, 4503599627370494, 4503599627370494, 35, 32, 48, 0, 40,
4503599627370494, 4503599627370494, 4503599627370494, 4503599627370494, 4503599627370494], [4503599627370494, 4503599627370494, 4503599627370494, 4503599627370494, 4503599627370494, 4503599627370494, 4503599627370494, 4503599627370494, 4503599627370494, 4503599627370494,
4503599627370494, 4503599627370494, 4503599627370494, 4503599627370494, 4503599627370494, 25, 47, 49, 33, 0,
4503599627370494, 4503599627370494, 4503599627370494, 4503599627370494, 4503599627370494],
[4503599627370494, 4503599627370494, 4503599627370494, 4503599627370494, 4503599627370494, 4503599627370494, 4503599627370494, 4503599627370494, 4503599627370494, 4503599627370494,
4503599627370494, 4503599627370494, 4503599627370494, 4503599627370494, 4503599627370494, 4503599627370494, 4503599627370494, 4503599627370494, 4503599627370494, 4503599627370494,
0, 29, 27, 36, 33], [4503599627370494, 4503599627370494, 4503599627370494, 4503599627370494, 4503599627370494, 4503599627370494, 4503599627370494, 4503599627370494, 4503599627370494, 4503599627370494,
4503599627370494, 4503599627370494, 4503599627370494, 4503599627370494, 4503599627370494, 4503599627370494, 4503599627370494, 4503599627370494, 4503599627370494, 4503599627370494,
28, 0, 28, 30, 40], [4503599627370494, 4503599627370494, 4503599627370494, 4503599627370494, 4503599627370494, 4503599627370494, 4503599627370494, 4503599627370494, 4503599627370494, 4503599627370494,
4503599627370494, 4503599627370494, 4503599627370494, 4503599627370494, 4503599627370494, 4503599627370494, 4503599627370494, 4503599627370494, 4503599627370494, 4503599627370494,
50, 44, 0, 42, 43], [4503599627370494, 4503599627370494, 4503599627370494, 4503599627370494, 4503599627370494, 4503599627370494, 4503599627370494, 4503599627370494, 4503599627370494, 4503599627370494,
4503599627370494, 4503599627370494, 4503599627370494, 4503599627370494, 4503599627370494, 4503599627370494, 4503599627370494, 4503599627370494, 4503599627370494, 4503599627370494,
39, 50, 41, 0, 25], [4503599627370494, 4503599627370494, 4503599627370494, 4503599627370494, 4503599627370494, 4503599627370494, 4503599627370494, 4503599627370494, 4503599627370494, 4503599627370494,
4503599627370494, 4503599627370494, 4503599627370494, 4503599627370494, 4503599627370494, 4503599627370494, 4503599627370494, 4503599627370494, 4503599627370494, 4503599627370494,
49, 25, 30, 31, 0]]
