10, 50, 
[70, 33, 31, 33, 46, 59, 73, 63, 78, 81,
36, 56, 29, 75, 49, 11, 93, 14, 58, 76,
74, 80, 56, 36, 41, 13, 100, 78, 91, 59,
26, 81, 60, 45, 52, 19, 46, 97, 66, 40,
70, 68, 80, 98, 55, 57, 62, 29, 90, 70]
[[0, 11, 10, 29, 12, 4503599627370494, 4503599627370494, 4503599627370494, 4503599627370494, 4503599627370494,
4503599627370494, 4503599627370494, 4503599627370494, 4503599627370494, 4503599627370494, 4503599627370494, 4503599627370494, 4503599627370494, 4503599627370494, 4503599627370494,
4503599627370494, 4503599627370494, 4503599627370494, 4503599627370494, 4503599627370494, 4503599627370494, 4503599627370494, 4503599627370494, 4503599627370494, 4503599627370494,
4503599627370494, 4503599627370494, 4503599627370494, 4503599627370494, 4503599627370494, 4503599627370494, 4503599627370494, 4503599627370494, 4503599627370494, 4503599627370494,
4503599627370494, 4503599627370494, 4503599627370494, 4503599627370494, 4503599627370494, 4503599627370494, 4503599627370494, 4503599627370494, 4503599627370494, 4503599627370494], [38, 0, 28, 12, 40, 4503599627370494, 4503599627370494, 4503599627370494, 4503599627370494, 4503599627370494,
4503599627370494, 4503599627370494, 4503599627370494, 4503599627370494, 4503599627370494, 4503599627370494, 4503599627370494, 4503599627370494, 4503599627370494, 4503599627370494,
4503599627370494, 4503599627370494, 4503599627370494, 4503599627370494, 4503599627370494, 4503599627370494, 4503599627370494, 4503599627370494, 4503599627370494, 4503599627370494,
4503599627370494, 4503599627370494, 4503599627370494, 4503599627370494, 4503599627370494, 4503599627370494, 4503599627370494, 4503599627370494, 4503599627370494, 4503599627370494,
4503599627370494, 4503599627370494, 4503599627370494, 4503599627370494, 4503599627370494, 4503599627370494, 4503599627370494, 4503599627370494, 4503599627370494, 4503599627370494], [16, 28, 0, 19, 22, 4503599627370494, 4503599627370494, 4503599627370494, 4503599627370494, 4503599627370494,
4503599627370494, 4503599627370494, 4503599627370494, 4503599627370494, 4503599627370494, 4503599627370494, 4503599627370494, 4503599627370494, 4503599627370494, 4503599627370494,
4503599627370494, 4503599627370494, 4503599627370494, 4503599627370494, 4503599627370494, 4503599627370494, 4503599627370494, 4503599627370494, 4503599627370494, 4503599627370494,
4503599627370494, 4503599627370494, 4503599627370494, 4503599627370494, 4503599627370494, 4503599627370494, 4503599627370494, 4503599627370494, 4503599627370494, 4503599627370494,
4503599627370494, 4503599627370494, 4503599627370494, 4503599627370494, 4503599627370494, 4503599627370494, 4503599627370494, 4503599627370494, 4503599627370494, 4503599627370494], [28, 6, 42, 0, 31, 4503599627370494, 4503599627370494, 4503599627370494, 4503599627370494, 4503599627370494,
4503599627370494, 4503599627370494, 4503599627370494, 4503599627370494, 4503599627370494, 4503599627370494, 4503599627370494, 4503599627370494, 4503599627370494, 4503599627370494,
4503599627370494, 4503599627370494, 4503599627370494, 4503599627370494, 4503599627370494, 4503599627370494, 4503599627370494, 4503599627370494, 4503599627370494, 4503599627370494,
4503599627370494, 4503599627370494, 4503599627370494, 4503599627370494, 4503599627370494, 4503599627370494, 4503599627370494, 4503599627370494, 4503599627370494, 4503599627370494,
4503599627370494, 4503599627370494, 4503599627370494, 4503599627370494, 4503599627370494, 4503599627370494, 4503599627370494, 4503599627370494, 4503599627370494, 4503599627370494], [12, 9, 37, 42, 0, 4503599627370494, 4503599627370494, 4503599627370494, 4503599627370494, 4503599627370494,
4503599627370494, 4503599627370494, 4503599627370494, 4503599627370494, 4503599627370494, 4503599627370494, 4503599627370494, 4503599627370494, 4503599627370494, 4503599627370494,
4503599627370494, 4503599627370494, 4503599627370494, 4503599627370494, 4503599627370494, 4503599627370494, 4503599627370494, 4503599627370494, 4503599627370494, 4503599627370494,
4503599627370494, 4503599627370494, 4503599627370494, 4503599627370494, 4503599627370494, 4503599627370494, 4503599627370494, 4503599627370494, 4503599627370494, 4503599627370494,
4503599627370494, 4503599627370494, 4503599627370494, 4503599627370494, 4503599627370494, 4503599627370494, 4503599627370494, 4503599627370494, 4503599627370494, 4503599627370494], [4503599627370494, 4503599627370494, 4503599627370494, 4503599627370494, 4503599627370494, 0, 7, 37, 11, 46,
4503599627370494, 4503599627370494, 4503599627370494, 4503599627370494, 4503599627370494, 4503599627370494, 4503599627370494, 4503599627370494, 4503599627370494, 4503599627370494,
4503599627370494, 4503599627370494, 4503599627370494, 4503599627370494, 4503599627370494, 4503599627370494, 4503599627370494, 4503599627370494, 4503599627370494, 4503599627370494,
4503599627370494, 4503599627370494, 4503599627370494, 4503599627370494, 4503599627370494, 4503599627370494, 4503599627370494, 4503599627370494, 4503599627370494, 4503599627370494,
4503599627370494, 4503599627370494, 4503599627370494, 4503599627370494, 4503599627370494, 4503599627370494, 4503599627370494, 4503599627370494, 4503599627370494, 4503599627370494], [4503599627370494, 4503599627370494, 4503599627370494, 4503599627370494, 4503599627370494, 28, 0, 13, 6, 19,
4503599627370494, 4503599627370494, 4503599627370494, 4503599627370494, 4503599627370494, 4503599627370494, 4503599627370494, 4503599627370494, 4503599627370494, 4503599627370494,
4503599627370494, 4503599627370494, 4503599627370494, 4503599627370494, 4503599627370494, 4503599627370494, 4503599627370494, 4503599627370494, 4503599627370494, 4503599627370494,
4503599627370494, 4503599627370494, 4503599627370494, 4503599627370494, 4503599627370494, 4503599627370494, 4503599627370494, 4503599627370494, 4503599627370494, 4503599627370494,
4503599627370494, 4503599627370494, 4503599627370494, 4503599627370494, 4503599627370494, 4503599627370494, 4503599627370494, 4503599627370494, 4503599627370494, 4503599627370494], [4503599627370494, 4503599627370494, 4503599627370494, 4503599627370494, 4503599627370494, 42, 5, 0, 29, 42,
4503599627370494, 4503599627370494, 4503599627370494, 4503599627370494, 4503599627370494, 4503599627370494, 4503599627370494, 4503599627370494, 4503599627370494, 4503599627370494,
4503599627370494, 4503599627370494, 4503599627370494, 4503599627370494, 4503599627370494, 4503599627370494, 4503599627370494, 4503599627370494, 4503599627370494, 4503599627370494,
4503599627370494, 4503599627370494, 4503599627370494, 4503599627370494, 4503599627370494, 4503599627370494, 4503599627370494, 4503599627370494, 4503599627370494, 4503599627370494,
4503599627370494, 4503599627370494, 4503599627370494, 4503599627370494, 4503599627370494, 4503599627370494, 4503599627370494, 4503599627370494, 4503599627370494, 4503599627370494], [4503599627370494, 4503599627370494, 4503599627370494, 4503599627370494, 4503599627370494, 22, 11, 6, 0, 7,
4503599627370494, 4503599627370494, 4503599627370494, 4503599627370494, 4503599627370494, 4503599627370494, 4503599627370494, 4503599627370494, 4503599627370494, 4503599627370494,
4503599627370494, 4503599627370494, 4503599627370494, 4503599627370494, 4503599627370494, 4503599627370494, 4503599627370494, 4503599627370494, 4503599627370494, 4503599627370494,
4503599627370494, 4503599627370494, 4503599627370494, 4503599627370494, 4503599627370494, 4503599627370494, 4503599627370494, 4503599627370494, 4503599627370494, 4503599627370494,
4503599627370494, 4503599627370494, 4503599627370494, 4503599627370494, 4503599627370494, 4503599627370494, 4503599627370494, 4503599627370494, 4503599627370494, 4503599627370494], [4503599627370494, 4503599627370494, 4503599627370494, 4503599627370494, 4503599627370494, 33, 10, 16, 40, 0,
4503599627370494, 4503599627370494, 4503599627370494, 4503599627370494, 4503599627370494, 4503599627370494, 4503599627370494, 4503599627370494, 4503599627370494, 4503599627370494,
4503599627370494, 4503599627370494, 4503599627370494, 4503599627370494, 4503599627370494, 4503599627370494, 4503599627370494, 4503599627370494, 4503599627370494, 4503599627370494,
4503599627370494, 4503599627370494, 4503599627370494, 4503599627370494, 4503599627370494, 4503599627370494, 4503599627370494, 4503599627370494, 4503599627370494, 4503599627370494,
4503599627370494, 4503599627370494, 4503599627370494, 4503599627370494, 4503599627370494, 4503599627370494, 4503599627370494, 4503599627370494, 4503599627370494, 4503599627370494],
[4503599627370494, 4503599627370494, 4503599627370494, 4503599627370494, 4503599627370494, 4503599627370494, 4503599627370494, 4503599627370494, 4503599627370494, 4503599627370494,
0, 34, 11, 7, 32, 4503599627370494, 4503599627370494, 4503599627370494, 4503599627370494, 4503599627370494,
4503599627370494, 4503599627370494, 4503599627370494, 4503599627370494, 4503599627370494, 4503599627370494, 4503599627370494, 4503599627370494, 4503599627370494, 4503599627370494,
4503599627370494, 4503599627370494, 4503599627370494, 4503599627370494, 4503599627370494, 4503599627370494, 4503599627370494, 4503599627370494, 4503599627370494, 4503599627370494,
4503599627370494, 4503599627370494, 4503599627370494, 4503599627370494, 4503599627370494, 4503599627370494, 4503599627370494, 4503599627370494, 4503599627370494, 4503599627370494], [4503599627370494, 4503599627370494, 4503599627370494, 4503599627370494, 4503599627370494, 4503599627370494, 4503599627370494, 4503599627370494, 4503599627370494, 4503599627370494,
7, 0, 24, 37, 33, 4503599627370494, 4503599627370494, 4503599627370494, 4503599627370494, 4503599627370494,
4503599627370494, 4503599627370494, 4503599627370494, 4503599627370494, 4503599627370494, 4503599627370494, 4503599627370494, 4503599627370494, 4503599627370494, 4503599627370494,
4503599627370494, 4503599627370494, 4503599627370494, 4503599627370494, 4503599627370494, 4503599627370494, 4503599627370494, 4503599627370494, 4503599627370494, 4503599627370494,
4503599627370494, 4503599627370494, 4503599627370494, 4503599627370494, 4503599627370494, 4503599627370494, 4503599627370494, 4503599627370494, 4503599627370494, 4503599627370494], [4503599627370494, 4503599627370494, 4503599627370494, 4503599627370494, 4503599627370494, 4503599627370494, 4503599627370494, 4503599627370494, 4503599627370494, 4503599627370494,
5, 21, 0, 17, 8, 4503599627370494, 4503599627370494, 4503599627370494, 4503599627370494, 4503599627370494,
4503599627370494, 4503599627370494, 4503599627370494, 4503599627370494, 4503599627370494, 4503599627370494, 4503599627370494, 4503599627370494, 4503599627370494, 4503599627370494,
4503599627370494, 4503599627370494, 4503599627370494, 4503599627370494, 4503599627370494, 4503599627370494, 4503599627370494, 4503599627370494, 4503599627370494, 4503599627370494,
4503599627370494, 4503599627370494, 4503599627370494, 4503599627370494, 4503599627370494, 4503599627370494, 4503599627370494, 4503599627370494, 4503599627370494, 4503599627370494], [4503599627370494, 4503599627370494, 4503599627370494, 4503599627370494, 4503599627370494, 4503599627370494, 4503599627370494, 4503599627370494, 4503599627370494, 4503599627370494,
8, 26, 5, 0, 41, 4503599627370494, 4503599627370494, 4503599627370494, 4503599627370494, 4503599627370494,
4503599627370494, 4503599627370494, 4503599627370494, 4503599627370494, 4503599627370494, 4503599627370494, 4503599627370494, 4503599627370494, 4503599627370494, 4503599627370494,
4503599627370494, 4503599627370494, 4503599627370494, 4503599627370494, 4503599627370494, 4503599627370494, 4503599627370494, 4503599627370494, 4503599627370494, 4503599627370494,
4503599627370494, 4503599627370494, 4503599627370494, 4503599627370494, 4503599627370494, 4503599627370494, 4503599627370494, 4503599627370494, 4503599627370494, 4503599627370494], [4503599627370494, 4503599627370494, 4503599627370494, 4503599627370494, 4503599627370494, 4503599627370494, 4503599627370494, 4503599627370494, 4503599627370494, 4503599627370494,
28, 27, 5, 43, 0, 4503599627370494, 4503599627370494, 4503599627370494, 4503599627370494, 4503599627370494,
4503599627370494, 4503599627370494, 4503599627370494, 4503599627370494, 4503599627370494, 4503599627370494, 4503599627370494, 4503599627370494, 4503599627370494, 4503599627370494,
4503599627370494, 4503599627370494, 4503599627370494, 4503599627370494, 4503599627370494, 4503599627370494, 4503599627370494, 4503599627370494, 4503599627370494, 4503599627370494,
4503599627370494, 4503599627370494, 4503599627370494, 4503599627370494, 4503599627370494, 4503599627370494, 4503599627370494, 4503599627370494, 4503599627370494, 4503599627370494], [4503599627370494, 4503599627370494, 4503599627370494, 4503599627370494, 4503599627370494, 4503599627370494, 4503599627370494, 4503599627370494, 4503599627370494, 4503599627370494,
4503599627370494, 4503599627370494, 4503599627370494, 4503599627370494, 4503599627370494, 0, 5, 7, 35, 6,
4503599627370494, 4503599627370494, 4503599627370494, 4503599627370494, 4503599627370494, 4503599627370494, 4503599627370494, 4503599627370494, 4503599627370494, 4503599627370494,
4503599627370494, 4503599627370494, 4503599627370494, 4503599627370494, 4503599627370494, 4503599627370494, 4503599627370494, 4503599627370494, 4503599627370494, 4503599627370494,
4503599627370494, 4503599627370494, 4503599627370494, 4503599627370494, 4503599627370494, 4503599627370494, 4503599627370494, 4503599627370494, 4503599627370494, 4503599627370494], [4503599627370494, 4503599627370494, 4503599627370494, 4503599627370494, 4503599627370494, 4503599627370494, 4503599627370494, 4503599627370494, 4503599627370494, 4503599627370494,
4503599627370494, 4503599627370494, 4503599627370494, 4503599627370494, 4503599627370494, 47, 0, 26, 22, 33,
4503599627370494, 4503599627370494, 4503599627370494, 4503599627370494, 4503599627370494, 4503599627370494, 4503599627370494, 4503599627370494, 4503599627370494, 4503599627370494,
4503599627370494, 4503599627370494, 4503599627370494, 4503599627370494, 4503599627370494, 4503599627370494, 4503599627370494, 4503599627370494, 4503599627370494, 4503599627370494,
4503599627370494, 4503599627370494, 4503599627370494, 4503599627370494, 4503599627370494, 4503599627370494, 4503599627370494, 4503599627370494, 4503599627370494, 4503599627370494], [4503599627370494, 4503599627370494, 4503599627370494, 4503599627370494, 4503599627370494, 4503599627370494, 4503599627370494, 4503599627370494, 4503599627370494, 4503599627370494,
4503599627370494, 4503599627370494, 4503599627370494, 4503599627370494, 4503599627370494, 22, 11, 0, 25, 41,
4503599627370494, 4503599627370494, 4503599627370494, 4503599627370494, 4503599627370494, 4503599627370494, 4503599627370494, 4503599627370494, 4503599627370494, 4503599627370494,
4503599627370494, 4503599627370494, 4503599627370494, 4503599627370494, 4503599627370494, 4503599627370494, 4503599627370494, 4503599627370494, 4503599627370494, 4503599627370494,
4503599627370494, 4503599627370494, 4503599627370494, 4503599627370494, 4503599627370494, 4503599627370494, 4503599627370494, 4503599627370494, 4503599627370494, 4503599627370494], [4503599627370494, 4503599627370494, 4503599627370494, 4503599627370494, 4503599627370494, 4503599627370494, 4503599627370494, 4503599627370494, 4503599627370494, 4503599627370494,
4503599627370494, 4503599627370494, 4503599627370494, 4503599627370494, 4503599627370494, 23, 18, 46, 0, 31,
4503599627370494, 4503599627370494, 4503599627370494, 4503599627370494, 4503599627370494, 4503599627370494, 4503599627370494, 4503599627370494, 4503599627370494, 4503599627370494,
4503599627370494, 4503599627370494, 4503599627370494, 4503599627370494, 4503599627370494, 4503599627370494, 4503599627370494, 4503599627370494, 4503599627370494, 4503599627370494,
4503599627370494, 4503599627370494, 4503599627370494, 4503599627370494, 4503599627370494, 4503599627370494, 4503599627370494, 4503599627370494, 4503599627370494, 4503599627370494], [4503599627370494, 4503599627370494, 4503599627370494, 4503599627370494, 4503599627370494, 4503599627370494, 4503599627370494, 4503599627370494, 4503599627370494, 4503599627370494,
4503599627370494, 4503599627370494, 4503599627370494, 4503599627370494, 4503599627370494, 5, 45, 49, 20, 0,
4503599627370494, 4503599627370494, 4503599627370494, 4503599627370494, 4503599627370494, 4503599627370494, 4503599627370494, 4503599627370494, 4503599627370494, 4503599627370494,
4503599627370494, 4503599627370494, 4503599627370494, 4503599627370494, 4503599627370494, 4503599627370494, 4503599627370494, 4503599627370494, 4503599627370494, 4503599627370494,
4503599627370494, 4503599627370494, 4503599627370494, 4503599627370494, 4503599627370494, 4503599627370494, 4503599627370494, 4503599627370494, 4503599627370494, 4503599627370494],
[4503599627370494, 4503599627370494, 4503599627370494, 4503599627370494, 4503599627370494, 4503599627370494, 4503599627370494, 4503599627370494, 4503599627370494, 4503599627370494,
4503599627370494, 4503599627370494, 4503599627370494, 4503599627370494, 4503599627370494, 4503599627370494, 4503599627370494, 4503599627370494, 4503599627370494, 4503599627370494,
0, 12, 9, 25, 20, 4503599627370494, 4503599627370494, 4503599627370494, 4503599627370494, 4503599627370494,
4503599627370494, 4503599627370494, 4503599627370494, 4503599627370494, 4503599627370494, 4503599627370494, 4503599627370494, 4503599627370494, 4503599627370494, 4503599627370494,
4503599627370494, 4503599627370494, 4503599627370494, 4503599627370494, 4503599627370494, 4503599627370494, 4503599627370494, 4503599627370494, 4503599627370494, 4503599627370494], [4503599627370494, 4503599627370494, 4503599627370494, 4503599627370494, 4503599627370494, 4503599627370494, 4503599627370494, 4503599627370494, 4503599627370494, 4503599627370494,
4503599627370494, 4503599627370494, 4503599627370494, 4503599627370494, 4503599627370494, 4503599627370494, 4503599627370494, 4503599627370494, 4503599627370494, 4503599627370494,
11, 0, 11, 14, 32, 4503599627370494, 4503599627370494, 4503599627370494, 4503599627370494, 4503599627370494,
4503599627370494, 4503599627370494, 4503599627370494, 4503599627370494, 4503599627370494, 4503599627370494, 4503599627370494, 4503599627370494, 4503599627370494, 4503599627370494,
4503599627370494, 4503599627370494, 4503599627370494, 4503599627370494, 4503599627370494, 4503599627370494, 4503599627370494, 4503599627370494, 4503599627370494, 4503599627370494], [4503599627370494, 4503599627370494, 4503599627370494, 4503599627370494, 4503599627370494, 4503599627370494, 4503599627370494, 4503599627370494, 4503599627370494, 4503599627370494,
4503599627370494, 4503599627370494, 4503599627370494, 4503599627370494, 4503599627370494, 4503599627370494, 4503599627370494, 4503599627370494, 4503599627370494, 4503599627370494,
50, 40, 0, 35, 37, 4503599627370494, 4503599627370494, 4503599627370494, 4503599627370494, 4503599627370494,
4503599627370494, 4503599627370494, 4503599627370494, 4503599627370494, 4503599627370494, 4503599627370494, 4503599627370494, 4503599627370494, 4503599627370494, 4503599627370494,
4503599627370494, 4503599627370494, 4503599627370494, 4503599627370494, 4503599627370494, 4503599627370494, 4503599627370494, 4503599627370494, 4503599627370494, 4503599627370494], [4503599627370494, 4503599627370494, 4503599627370494, 4503599627370494, 4503599627370494, 4503599627370494, 4503599627370494, 4503599627370494, 4503599627370494, 4503599627370494,
4503599627370494, 4503599627370494, 4503599627370494, 4503599627370494, 4503599627370494, 4503599627370494, 4503599627370494, 4503599627370494, 4503599627370494, 4503599627370494,
30, 50, 34, 0, 6, 4503599627370494, 4503599627370494, 4503599627370494, 4503599627370494, 4503599627370494,
4503599627370494, 4503599627370494, 4503599627370494, 4503599627370494, 4503599627370494, 4503599627370494, 4503599627370494, 4503599627370494, 4503599627370494, 4503599627370494,
4503599627370494, 4503599627370494, 4503599627370494, 4503599627370494, 4503599627370494, 4503599627370494, 4503599627370494, 4503599627370494, 4503599627370494, 4503599627370494], [4503599627370494, 4503599627370494, 4503599627370494, 4503599627370494, 4503599627370494, 4503599627370494, 4503599627370494, 4503599627370494, 4503599627370494, 4503599627370494,
4503599627370494, 4503599627370494, 4503599627370494, 4503599627370494, 4503599627370494, 4503599627370494, 4503599627370494, 4503599627370494, 4503599627370494, 4503599627370494,
47, 6, 15, 17, 0, 4503599627370494, 4503599627370494, 4503599627370494, 4503599627370494, 4503599627370494,
4503599627370494, 4503599627370494, 4503599627370494, 4503599627370494, 4503599627370494, 4503599627370494, 4503599627370494, 4503599627370494, 4503599627370494, 4503599627370494,
4503599627370494, 4503599627370494, 4503599627370494, 4503599627370494, 4503599627370494, 4503599627370494, 4503599627370494, 4503599627370494, 4503599627370494, 4503599627370494], [4503599627370494, 4503599627370494, 4503599627370494, 4503599627370494, 4503599627370494, 4503599627370494, 4503599627370494, 4503599627370494, 4503599627370494, 4503599627370494,
4503599627370494, 4503599627370494, 4503599627370494, 4503599627370494, 4503599627370494, 4503599627370494, 4503599627370494, 4503599627370494, 4503599627370494, 4503599627370494,
4503599627370494, 4503599627370494, 4503599627370494, 4503599627370494, 4503599627370494, 0, 14, 32, 24, 9,
4503599627370494, 4503599627370494, 4503599627370494, 4503599627370494, 4503599627370494, 4503599627370494, 4503599627370494, 4503599627370494, 4503599627370494, 4503599627370494,
4503599627370494, 4503599627370494, 4503599627370494, 4503599627370494, 4503599627370494, 4503599627370494, 4503599627370494, 4503599627370494, 4503599627370494, 4503599627370494], [4503599627370494, 4503599627370494, 4503599627370494, 4503599627370494, 4503599627370494, 4503599627370494, 4503599627370494, 4503599627370494, 4503599627370494, 4503599627370494,
4503599627370494, 4503599627370494, 4503599627370494, 4503599627370494, 4503599627370494, 4503599627370494, 4503599627370494, 4503599627370494, 4503599627370494, 4503599627370494,
4503599627370494, 4503599627370494, 4503599627370494, 4503599627370494, 4503599627370494, 10, 0, 9, 19, 19,
4503599627370494, 4503599627370494, 4503599627370494, 4503599627370494, 4503599627370494, 4503599627370494, 4503599627370494, 4503599627370494, 4503599627370494, 4503599627370494,
4503599627370494, 4503599627370494, 4503599627370494, 4503599627370494, 4503599627370494, 4503599627370494, 4503599627370494, 4503599627370494, 4503599627370494, 4503599627370494], [4503599627370494, 4503599627370494, 4503599627370494, 4503599627370494, 4503599627370494, 4503599627370494, 4503599627370494, 4503599627370494, 4503599627370494, 4503599627370494,
4503599627370494, 4503599627370494, 4503599627370494, 4503599627370494, 4503599627370494, 4503599627370494, 4503599627370494, 4503599627370494, 4503599627370494, 4503599627370494,
4503599627370494, 4503599627370494, 4503599627370494, 4503599627370494, 4503599627370494, 42, 5, 0, 6, 43,
4503599627370494, 4503599627370494, 4503599627370494, 4503599627370494, 4503599627370494, 4503599627370494, 4503599627370494, 4503599627370494, 4503599627370494, 4503599627370494,
4503599627370494, 4503599627370494, 4503599627370494, 4503599627370494, 4503599627370494, 4503599627370494, 4503599627370494, 4503599627370494, 4503599627370494, 4503599627370494], [4503599627370494, 4503599627370494, 4503599627370494, 4503599627370494, 4503599627370494, 4503599627370494, 4503599627370494, 4503599627370494, 4503599627370494, 4503599627370494,
4503599627370494, 4503599627370494, 4503599627370494, 4503599627370494, 4503599627370494, 4503599627370494, 4503599627370494, 4503599627370494, 4503599627370494, 4503599627370494,
4503599627370494, 4503599627370494, 4503599627370494, 4503599627370494, 4503599627370494, 15, 47, 43, 0, 17,
4503599627370494, 4503599627370494, 4503599627370494, 4503599627370494, 4503599627370494, 4503599627370494, 4503599627370494, 4503599627370494, 4503599627370494, 4503599627370494,
4503599627370494, 4503599627370494, 4503599627370494, 4503599627370494, 4503599627370494, 4503599627370494, 4503599627370494, 4503599627370494, 4503599627370494, 4503599627370494], [4503599627370494, 4503599627370494, 4503599627370494, 4503599627370494, 4503599627370494, 4503599627370494, 4503599627370494, 4503599627370494, 4503599627370494, 4503599627370494,
4503599627370494, 4503599627370494, 4503599627370494, 4503599627370494, 4503599627370494, 4503599627370494, 4503599627370494, 4503599627370494, 4503599627370494, 4503599627370494,
4503599627370494, 4503599627370494, 4503599627370494, 4503599627370494, 4503599627370494, 34, 33, 13, 18, 0,
4503599627370494, 4503599627370494, 4503599627370494, 4503599627370494, 4503599627370494, 4503599627370494, 4503599627370494, 4503599627370494, 4503599627370494, 4503599627370494,
4503599627370494, 4503599627370494, 4503599627370494, 4503599627370494, 4503599627370494, 4503599627370494, 4503599627370494, 4503599627370494, 4503599627370494, 4503599627370494],
[4503599627370494, 4503599627370494, 4503599627370494, 4503599627370494, 4503599627370494, 4503599627370494, 4503599627370494, 4503599627370494, 4503599627370494, 4503599627370494,
4503599627370494, 4503599627370494, 4503599627370494, 4503599627370494, 4503599627370494, 4503599627370494, 4503599627370494, 4503599627370494, 4503599627370494, 4503599627370494,
4503599627370494, 4503599627370494, 4503599627370494, 4503599627370494, 4503599627370494, 4503599627370494, 4503599627370494, 4503599627370494, 4503599627370494, 4503599627370494,
0, 6, 15, 47, 50, 4503599627370494, 4503599627370494, 4503599627370494, 4503599627370494, 4503599627370494,
4503599627370494, 4503599627370494, 4503599627370494, 4503599627370494, 4503599627370494, 4503599627370494, 4503599627370494, 4503599627370494, 4503599627370494, 4503599627370494], [4503599627370494, 4503599627370494, 4503599627370494, 4503599627370494, 4503599627370494, 4503599627370494, 4503599627370494, 4503599627370494, 4503599627370494, 4503599627370494,
4503599627370494, 4503599627370494, 4503599627370494, 4503599627370494, 4503599627370494, 4503599627370494, 4503599627370494, 4503599627370494, 4503599627370494, 4503599627370494,
4503599627370494, 4503599627370494, 4503599627370494, 4503599627370494, 4503599627370494, 4503599627370494, 4503599627370494, 4503599627370494, 4503599627370494, 4503599627370494,
11, 0, 45, 13, 18, 4503599627370494, 4503599627370494, 4503599627370494, 4503599627370494, 4503599627370494,
4503599627370494, 4503599627370494, 4503599627370494, 4503599627370494, 4503599627370494, 4503599627370494, 4503599627370494, 4503599627370494, 4503599627370494, 4503599627370494], [4503599627370494, 4503599627370494, 4503599627370494, 4503599627370494, 4503599627370494, 4503599627370494, 4503599627370494, 4503599627370494, 4503599627370494, 4503599627370494,
4503599627370494, 4503599627370494, 4503599627370494, 4503599627370494, 4503599627370494, 4503599627370494, 4503599627370494, 4503599627370494, 4503599627370494, 4503599627370494,
4503599627370494, 4503599627370494, 4503599627370494, 4503599627370494, 4503599627370494, 4503599627370494, 4503599627370494, 4503599627370494, 4503599627370494, 4503599627370494,
30, 37, 0, 10, 32, 4503599627370494, 4503599627370494, 4503599627370494, 4503599627370494, 4503599627370494,
4503599627370494, 4503599627370494, 4503599627370494, 4503599627370494, 4503599627370494, 4503599627370494, 4503599627370494, 4503599627370494, 4503599627370494, 4503599627370494], [4503599627370494, 4503599627370494, 4503599627370494, 4503599627370494, 4503599627370494, 4503599627370494, 4503599627370494, 4503599627370494, 4503599627370494, 4503599627370494,
4503599627370494, 4503599627370494, 4503599627370494, 4503599627370494, 4503599627370494, 4503599627370494, 4503599627370494, 4503599627370494, 4503599627370494, 4503599627370494,
4503599627370494, 4503599627370494, 4503599627370494, 4503599627370494, 4503599627370494, 4503599627370494, 4503599627370494, 4503599627370494, 4503599627370494, 4503599627370494,
45, 25, 21, 0, 49, 4503599627370494, 4503599627370494, 4503599627370494, 4503599627370494, 4503599627370494,
4503599627370494, 4503599627370494, 4503599627370494, 4503599627370494, 4503599627370494, 4503599627370494, 4503599627370494, 4503599627370494, 4503599627370494, 4503599627370494], [4503599627370494, 4503599627370494, 4503599627370494, 4503599627370494, 4503599627370494, 4503599627370494, 4503599627370494, 4503599627370494, 4503599627370494, 4503599627370494,
4503599627370494, 4503599627370494, 4503599627370494, 4503599627370494, 4503599627370494, 4503599627370494, 4503599627370494, 4503599627370494, 4503599627370494, 4503599627370494,
4503599627370494, 4503599627370494, 4503599627370494, 4503599627370494, 4503599627370494, 4503599627370494, 4503599627370494, 4503599627370494, 4503599627370494, 4503599627370494,
29, 48, 42, 10, 0, 4503599627370494, 4503599627370494, 4503599627370494, 4503599627370494, 4503599627370494,
4503599627370494, 4503599627370494, 4503599627370494, 4503599627370494, 4503599627370494, 4503599627370494, 4503599627370494, 4503599627370494, 4503599627370494, 4503599627370494], [4503599627370494, 4503599627370494, 4503599627370494, 4503599627370494, 4503599627370494, 4503599627370494, 4503599627370494, 4503599627370494, 4503599627370494, 4503599627370494,
4503599627370494, 4503599627370494, 4503599627370494, 4503599627370494, 4503599627370494, 4503599627370494, 4503599627370494, 4503599627370494, 4503599627370494, 4503599627370494,
4503599627370494, 4503599627370494, 4503599627370494, 4503599627370494, 4503599627370494, 4503599627370494, 4503599627370494, 4503599627370494, 4503599627370494, 4503599627370494,
4503599627370494, 4503599627370494, 4503599627370494, 4503599627370494, 4503599627370494, 0, 5, 13, 48, 38,
4503599627370494, 4503599627370494, 4503599627370494, 4503599627370494, 4503599627370494, 4503599627370494, 4503599627370494, 4503599627370494, 4503599627370494, 4503599627370494], [4503599627370494, 4503599627370494, 4503599627370494, 4503599627370494, 4503599627370494, 4503599627370494, 4503599627370494, 4503599627370494, 4503599627370494, 4503599627370494,
4503599627370494, 4503599627370494, 4503599627370494, 4503599627370494, 4503599627370494, 4503599627370494, 4503599627370494, 4503599627370494, 4503599627370494, 4503599627370494,
4503599627370494, 4503599627370494, 4503599627370494, 4503599627370494, 4503599627370494, 4503599627370494, 4503599627370494, 4503599627370494, 4503599627370494, 4503599627370494,
4503599627370494, 4503599627370494, 4503599627370494, 4503599627370494, 4503599627370494, 32, 0, 23, 10, 46,
4503599627370494, 4503599627370494, 4503599627370494, 4503599627370494, 4503599627370494, 4503599627370494, 4503599627370494, 4503599627370494, 4503599627370494, 4503599627370494], [4503599627370494, 4503599627370494, 4503599627370494, 4503599627370494, 4503599627370494, 4503599627370494, 4503599627370494, 4503599627370494, 4503599627370494, 4503599627370494,
4503599627370494, 4503599627370494, 4503599627370494, 4503599627370494, 4503599627370494, 4503599627370494, 4503599627370494, 4503599627370494, 4503599627370494, 4503599627370494,
4503599627370494, 4503599627370494, 4503599627370494, 4503599627370494, 4503599627370494, 4503599627370494, 4503599627370494, 4503599627370494, 4503599627370494, 4503599627370494,
4503599627370494, 4503599627370494, 4503599627370494, 4503599627370494, 4503599627370494, 45, 12, 0, 20, 29,
4503599627370494, 4503599627370494, 4503599627370494, 4503599627370494, 4503599627370494, 4503599627370494, 4503599627370494, 4503599627370494, 4503599627370494, 4503599627370494], [4503599627370494, 4503599627370494, 4503599627370494, 4503599627370494, 4503599627370494, 4503599627370494, 4503599627370494, 4503599627370494, 4503599627370494, 4503599627370494,
4503599627370494, 4503599627370494, 4503599627370494, 4503599627370494, 4503599627370494, 4503599627370494, 4503599627370494, 4503599627370494, 4503599627370494, 4503599627370494,
4503599627370494, 4503599627370494, 4503599627370494, 4503599627370494, 4503599627370494, 4503599627370494, 4503599627370494, 4503599627370494, 4503599627370494, 4503599627370494,
4503599627370494, 4503599627370494, 4503599627370494, 4503599627370494, 4503599627370494, 48, 42, 39, 0, 17,
4503599627370494, 4503599627370494, 4503599627370494, 4503599627370494, 4503599627370494, 4503599627370494, 4503599627370494, 4503599627370494, 4503599627370494, 4503599627370494], [4503599627370494, 4503599627370494, 4503599627370494, 4503599627370494, 4503599627370494, 4503599627370494, 4503599627370494, 4503599627370494, 4503599627370494, 4503599627370494,
4503599627370494, 4503599627370494, 4503599627370494, 4503599627370494, 4503599627370494, 4503599627370494, 4503599627370494, 4503599627370494, 4503599627370494, 4503599627370494,
4503599627370494, 4503599627370494, 4503599627370494, 4503599627370494, 4503599627370494, 4503599627370494, 4503599627370494, 4503599627370494, 4503599627370494, 4503599627370494,
4503599627370494, 4503599627370494, 4503599627370494, 4503599627370494, 4503599627370494, 29, 41, 16, 45, 0,
4503599627370494, 4503599627370494, 4503599627370494, 4503599627370494, 4503599627370494, 4503599627370494, 4503599627370494, 4503599627370494, 4503599627370494, 4503599627370494],
[4503599627370494, 4503599627370494, 4503599627370494, 4503599627370494, 4503599627370494, 4503599627370494, 4503599627370494, 4503599627370494, 4503599627370494, 4503599627370494,
4503599627370494, 4503599627370494, 4503599627370494, 4503599627370494, 4503599627370494, 4503599627370494, 4503599627370494, 4503599627370494, 4503599627370494, 4503599627370494,
4503599627370494, 4503599627370494, 4503599627370494, 4503599627370494, 4503599627370494, 4503599627370494, 4503599627370494, 4503599627370494, 4503599627370494, 4503599627370494,
4503599627370494, 4503599627370494, 4503599627370494, 4503599627370494, 4503599627370494, 4503599627370494, 4503599627370494, 4503599627370494, 4503599627370494, 4503599627370494,
0, 13, 17, 15, 43, 4503599627370494, 4503599627370494, 4503599627370494, 4503599627370494, 4503599627370494], [4503599627370494, 4503599627370494, 4503599627370494, 4503599627370494, 4503599627370494, 4503599627370494, 4503599627370494, 4503599627370494, 4503599627370494, 4503599627370494,
4503599627370494, 4503599627370494, 4503599627370494, 4503599627370494, 4503599627370494, 4503599627370494, 4503599627370494, 4503599627370494, 4503599627370494, 4503599627370494,
4503599627370494, 4503599627370494, 4503599627370494, 4503599627370494, 4503599627370494, 4503599627370494, 4503599627370494, 4503599627370494, 4503599627370494, 4503599627370494,
4503599627370494, 4503599627370494, 4503599627370494, 4503599627370494, 4503599627370494, 4503599627370494, 4503599627370494, 4503599627370494, 4503599627370494, 4503599627370494,
8, 0, 24, 42, 45, 4503599627370494, 4503599627370494, 4503599627370494, 4503599627370494, 4503599627370494], [4503599627370494, 4503599627370494, 4503599627370494, 4503599627370494, 4503599627370494, 4503599627370494, 4503599627370494, 4503599627370494, 4503599627370494, 4503599627370494,
4503599627370494, 4503599627370494, 4503599627370494, 4503599627370494, 4503599627370494, 4503599627370494, 4503599627370494, 4503599627370494, 4503599627370494, 4503599627370494,
4503599627370494, 4503599627370494, 4503599627370494, 4503599627370494, 4503599627370494, 4503599627370494, 4503599627370494, 4503599627370494, 4503599627370494, 4503599627370494,
4503599627370494, 4503599627370494, 4503599627370494, 4503599627370494, 4503599627370494, 4503599627370494, 4503599627370494, 4503599627370494, 4503599627370494, 4503599627370494,
48, 48, 0, 26, 45, 4503599627370494, 4503599627370494, 4503599627370494, 4503599627370494, 4503599627370494], [4503599627370494, 4503599627370494, 4503599627370494, 4503599627370494, 4503599627370494, 4503599627370494, 4503599627370494, 4503599627370494, 4503599627370494, 4503599627370494,
4503599627370494, 4503599627370494, 4503599627370494, 4503599627370494, 4503599627370494, 4503599627370494, 4503599627370494, 4503599627370494, 4503599627370494, 4503599627370494,
4503599627370494, 4503599627370494, 4503599627370494, 4503599627370494, 4503599627370494, 4503599627370494, 4503599627370494, 4503599627370494, 4503599627370494, 4503599627370494,
4503599627370494, 4503599627370494, 4503599627370494, 4503599627370494, 4503599627370494, 4503599627370494, 4503599627370494, 4503599627370494, 4503599627370494, 4503599627370494,
12, 32, 14, 0, 34, 4503599627370494, 4503599627370494, 4503599627370494, 4503599627370494, 4503599627370494], [4503599627370494, 4503599627370494, 4503599627370494, 4503599627370494, 4503599627370494, 4503599627370494, 4503599627370494, 4503599627370494, 4503599627370494, 4503599627370494,
4503599627370494, 4503599627370494, 4503599627370494, 4503599627370494, 4503599627370494, 4503599627370494, 4503599627370494, 4503599627370494, 4503599627370494, 4503599627370494,
4503599627370494, 4503599627370494, 4503599627370494, 4503599627370494, 4503599627370494, 4503599627370494, 4503599627370494, 4503599627370494, 4503599627370494, 4503599627370494,
4503599627370494, 4503599627370494, 4503599627370494, 4503599627370494, 4503599627370494, 4503599627370494, 4503599627370494, 4503599627370494, 4503599627370494, 4503599627370494,
37, 10, 42, 21, 0, 4503599627370494, 4503599627370494, 4503599627370494, 4503599627370494, 4503599627370494], [4503599627370494, 4503599627370494, 4503599627370494, 4503599627370494, 4503599627370494, 4503599627370494, 4503599627370494, 4503599627370494, 4503599627370494, 4503599627370494,
4503599627370494, 4503599627370494, 4503599627370494, 4503599627370494, 4503599627370494, 4503599627370494, 4503599627370494, 4503599627370494, 4503599627370494, 4503599627370494,
4503599627370494, 4503599627370494, 4503599627370494, 4503599627370494, 4503599627370494, 4503599627370494, 4503599627370494, 4503599627370494, 4503599627370494, 4503599627370494,
4503599627370494, 4503599627370494, 4503599627370494, 4503599627370494, 4503599627370494, 4503599627370494, 4503599627370494, 4503599627370494, 4503599627370494, 4503599627370494,
4503599627370494, 4503599627370494, 4503599627370494, 4503599627370494, 4503599627370494, 0, 38, 14, 29, 41], [4503599627370494, 4503599627370494, 4503599627370494, 4503599627370494, 4503599627370494, 4503599627370494, 4503599627370494, 4503599627370494, 4503599627370494, 4503599627370494,
4503599627370494, 4503599627370494, 4503599627370494, 4503599627370494, 4503599627370494, 4503599627370494, 4503599627370494, 4503599627370494, 4503599627370494, 4503599627370494,
4503599627370494, 4503599627370494, 4503599627370494, 4503599627370494, 4503599627370494, 4503599627370494, 4503599627370494, 4503599627370494, 4503599627370494, 4503599627370494,
4503599627370494, 4503599627370494, 4503599627370494, 4503599627370494, 4503599627370494, 4503599627370494, 4503599627370494, 4503599627370494, 4503599627370494, 4503599627370494,
4503599627370494, 4503599627370494, 4503599627370494, 4503599627370494, 4503599627370494, 14, 0, 47, 7, 7], [4503599627370494, 4503599627370494, 4503599627370494, 4503599627370494, 4503599627370494, 4503599627370494, 4503599627370494, 4503599627370494, 4503599627370494, 4503599627370494,
4503599627370494, 4503599627370494, 4503599627370494, 4503599627370494, 4503599627370494, 4503599627370494, 4503599627370494, 4503599627370494, 4503599627370494, 4503599627370494,
4503599627370494, 4503599627370494, 4503599627370494, 4503599627370494, 4503599627370494, 4503599627370494, 4503599627370494, 4503599627370494, 4503599627370494, 4503599627370494,
4503599627370494, 4503599627370494, 4503599627370494, 4503599627370494, 4503599627370494, 4503599627370494, 4503599627370494, 4503599627370494, 4503599627370494, 4503599627370494,
4503599627370494, 4503599627370494, 4503599627370494, 4503599627370494, 4503599627370494, 19, 12, 0, 18, 17], [4503599627370494, 4503599627370494, 4503599627370494, 4503599627370494, 4503599627370494, 4503599627370494, 4503599627370494, 4503599627370494, 4503599627370494, 4503599627370494,
4503599627370494, 4503599627370494, 4503599627370494, 4503599627370494, 4503599627370494, 4503599627370494, 4503599627370494, 4503599627370494, 4503599627370494, 4503599627370494,
4503599627370494, 4503599627370494, 4503599627370494, 4503599627370494, 4503599627370494, 4503599627370494, 4503599627370494, 4503599627370494, 4503599627370494, 4503599627370494,
4503599627370494, 4503599627370494, 4503599627370494, 4503599627370494, 4503599627370494, 4503599627370494, 4503599627370494, 4503599627370494, 4503599627370494, 4503599627370494,
4503599627370494, 4503599627370494, 4503599627370494, 4503599627370494, 4503599627370494, 26, 21, 25, 0, 40], [4503599627370494, 4503599627370494, 4503599627370494, 4503599627370494, 4503599627370494, 4503599627370494, 4503599627370494, 4503599627370494, 4503599627370494, 4503599627370494,
4503599627370494, 4503599627370494, 4503599627370494, 4503599627370494, 4503599627370494, 4503599627370494, 4503599627370494, 4503599627370494, 4503599627370494, 4503599627370494,
4503599627370494, 4503599627370494, 4503599627370494, 4503599627370494, 4503599627370494, 4503599627370494, 4503599627370494, 4503599627370494, 4503599627370494, 4503599627370494,
4503599627370494, 4503599627370494, 4503599627370494, 4503599627370494, 4503599627370494, 4503599627370494, 4503599627370494, 4503599627370494, 4503599627370494, 4503599627370494,
4503599627370494, 4503599627370494, 4503599627370494, 4503599627370494, 4503599627370494, 50, 21, 44, 19, 0]]
