Machines, Tasks, Workers
7 70 1
M, T, St, Se, P 
0 34 0 0 50
0 37 58 6 50
0 60 116 5 53
0 23 176 5 73
0 13 254 6 61
0 67 324 14 96
0 17 435 6 84
0 53 525 11 42
0 55 578 9 49
1 25 0 0 99
1 47 105 6 22
1 64 138 5 36
1 2 181 5 38
1 8 225 6 45
1 65 276 9 60
1 68 350 8 72
1 48 430 5 39
1 3 474 8 81
1 50 565 5 59
2 26 0 0 43
2 5 43 5 34
2 22 82 8 41
2 21 132 6 49
2 29 187 10 13
2 58 210 10 18
2 18 238 9 69
2 4 316 8 68
2 14 397 5 92
2 7 494 9 48
2 16 551 8 60
2 36 619 5 10
3 20 0 0 92
3 63 92 5 74
3 43 171 5 71
3 56 247 6 33
3 49 286 5 49
3 19 340 5 41
3 66 386 6 31
3 11 423 6 80
3 51 509 5 56
3 38 570 6 64
4 24 0 0 99
4 57 99 6 60
4 41 165 5 87
4 40 260 7 95
4 59 362 13 16
4 12 392 5 51
4 35 448 8 97
4 9 559 6 74
5 15 0 0 53
5 54 53 5 53
5 52 111 5 11
5 28 127 5 88
5 33 220 5 44
5 31 269 5 26
5 45 300 5 71
5 0 376 6 32
5 61 414 7 98
5 1 519 5 82
5 69 606 7 27
6 27 0 0 74
6 6 74 5 64
6 32 143 6 72
6 39 231 5 64
6 42 305 7 24
6 44 345 5 59
6 62 409 5 43
6 10 457 5 20
6 46 482 8 95
6 30 587 5 48
640 3600111