Machines, Tasks globally, Workers, Criterium value, Runtime ms
6 20 1 205 3600026
6 20 1 210 3600007
6 20 1 225 3599995
6 20 1 186 3600000
6 20 1 192 3600005
6 20 1 212 3600005
6 20 1 186 3600003
6 20 1 189 3600004
6 20 1 211 3599997
6 30 1 278 3600013
6 30 1 288 3600005
6 30 1 316 3600013
6 30 1 274 3600007
6 30 1 282 3600014
6 30 1 307 3600014
6 30 1 279 3600008
6 30 1 282 3600008
6 30 1 309 3600011
6 40 1 370 3600024
6 40 1 380 3600022
6 40 1 413 3600025
6 40 1 366 3600024
6 40 1 375 3600022
6 40 1 403 3600026
6 40 1 373 3600027
6 40 1 377 3600018
6 40 1 408 3600027
Global opt value: 7896; global runtime in ms: 97200350
