Machines, Tasks globally, Workers, Criterium value, Runtime ms
6 20 1 205 3600078
6 20 1 213 3600071
6 20 1 225 367678
6 20 1 190 3600078
6 20 1 193 3600079
6 20 1 212 3600082
6 20 1 190 3600082
6 20 1 193 3600077
6 20 1 213 3600078
6 30 1 284 3600207
6 30 1 291 3600206
6 30 1 322 3600204
6 30 1 278 3600168
6 30 1 291 3600208
6 30 1 314 3600221
6 30 1 285 3600209
6 30 1 293 3600204
6 30 1 324 3600201
6 40 1 382 3600551
6 40 1 390 3600546
6 40 1 420 3600529
6 40 1 375 3600524
6 40 1 383 3600551
6 40 1 415 3600435
6 40 1 381 3600441
6 40 1 387 3600575
6 40 1 421 3600440
Global opt value: 8070; global runtime in ms: 93974723
