Machines, Tasks, Workers
3 18 1
M, T, St, Se, P 
0 17 0 0 53
0 16 53 12 89
0 14 154 10 42
0 15 206 5 87
0 13 298 9 96
0 12 403 10 19
1 5 0 0 60
1 2 65 5 39
1 4 109 18 82
1 0 211 12 32
1 1 255 10 42
1 3 307 34 74
2 9 0 0 45
2 8 45 8 32
2 10 85 20 68
2 6 173 7 88
2 7 268 7 72
2 11 347 26 59
432 1576