Machines, Tasks, Workers
2 12 1
M, T, St, Se, P 
0 11 0 0 59
0 10 59 9 68
0 9 136 6 45
0 8 187 6 32
0 6 225 12 88
0 7 325 6 72
1 2 0 0 39
1 5 39 17 60
1 1 116 19 42
1 4 177 5 82
1 0 264 8 32
1 3 304 21 74
403 698