Machines, Tasks, Workers
6 26 1
M, T, St, Se, P 
0 21 0 0 0
0 2 13 3 50
0 4 66 4 52
0 15 122 4 52
1 20 0 0 0
1 7 10 3 55
1 5 74 3 49
1 9 130 4 52
2 24 0 0 0
2 17 16 3 51
2 18 70 4 52
2 14 126 4 52
3 23 0 0 0
3 13 7 3 55
3 3 77 3 53
3 19 134 4 52
4 25 0 0 0
4 1 0 3 46
4 16 49 4 48
4 0 101 4 47
4 12 152 4 48
5 22 0 0 0
5 6 3 4 48
5 11 55 4 47
5 8 106 4 46
5 10 156 4 45
205 60026