Machines, Tasks, Workers
6 36 1
M, T, St, Se, P 
0 34 0 0 0
0 27 10 2 40
0 20 52 5 73
0 15 130 6 58
0 16 194 6 39
0 11 239 7 37
1 33 0 0 0
1 18 0 3 60
1 17 63 4 56
1 8 123 5 30
1 19 158 4 60
1 9 222 5 57
2 32 0 0 0
2 25 5 2 33
2 5 40 6 47
2 23 93 6 44
2 4 143 7 58
2 28 208 7 66
3 35 0 0 0
3 10 7 3 26
3 13 36 4 75
3 12 115 6 41
3 6 162 7 43
3 24 215 4 65
4 30 0 0 0
4 7 12 2 73
4 14 87 4 59
4 22 150 4 33
4 0 187 5 37
4 2 229 6 48
5 31 0 0 0
5 3 3 2 64
5 21 69 3 29
5 26 101 7 65
5 29 173 4 70
5 1 247 6 30
284 60017