Machines, Tasks, Workers
6 46 1
M, T, St, Se, P 
0 44 0 0 0
0 22 0 7 46
0 8 53 7 46
0 14 106 7 52
0 21 165 7 46
0 20 218 8 55
0 30 281 8 51
0 13 340 8 55
1 42 0 0 0
1 9 28 7 52
1 19 87 7 52
1 2 146 8 50
1 24 204 7 53
1 3 264 7 53
1 29 324 8 54
2 40 0 0 0
2 34 14 7 55
2 31 80 7 52
2 11 139 7 47
2 18 193 8 52
2 6 253 8 48
2 37 309 8 45
2 10 362 8 45
3 43 0 0 0
3 4 35 7 52
3 26 94 8 53
3 27 155 7 48
3 7 211 7 55
3 32 273 7 52
3 35 332 8 53
4 41 0 0 0
4 25 7 7 46
4 17 60 7 51
4 23 118 7 49
4 0 174 7 47
4 28 228 8 54
4 16 290 8 48
4 36 348 7 54
5 45 0 0 0
5 33 21 7 45
5 12 73 7 48
5 39 128 7 50
5 1 185 8 46
5 38 239 8 50
5 5 298 8 49
5 15 355 7 52
415 60037