Machines, Tasks, Workers
6 46 1
M, T, St, Se, P 
0 42 0 0 0
0 11 9 5 37
0 9 53 7 57
0 7 121 8 73
0 31 202 5 61
0 36 270 7 68
0 30 347 11 53
1 44 0 0 0
1 1 26 12 30
1 34 74 7 75
1 35 156 12 66
1 14 234 7 59
1 38 300 12 51
1 16 363 12 39
2 40 0 0 0
2 12 19 7 41
2 27 68 6 40
2 3 114 7 64
2 5 185 10 47
2 13 242 10 75
2 28 329 12 66
3 41 0 0 0
3 33 14 5 25
3 0 47 6 37
3 20 90 9 73
3 10 173 8 26
3 6 207 10 43
3 2 260 10 48
3 29 318 11 70
4 45 0 0 0
4 22 4 5 33
4 15 42 5 58
4 25 105 6 33
4 26 144 8 65
4 19 217 8 60
4 18 285 12 60
4 39 358 5 51
5 43 0 0 0
5 32 0 4 60
5 24 64 4 65
5 8 133 6 30
5 17 169 4 56
5 23 229 5 44
5 4 278 7 58
5 21 343 4 29
5 37 376 10 28
414 60042