Machines, Tasks, Workers
20 400 2
M, T, St, Se, P 
0 0 0 0 23
0 55 23 1 26
0 36 50 1 36
0 257 87 1 30
0 232 118 1 12
0 192 131 1 46
0 237 178 1 41
0 214 220 1 46
0 95 267 1 47
0 277 315 1 14
0 207 330 1 3
0 287 334 2 48
0 324 384 1 28
0 338 413 2 13
0 345 428 1 20
0 332 449 1 6
0 267 456 1 23
0 291 483 2 27
1 1 0 0 15
1 42 15 1 7
1 30 23 1 20
1 119 44 1 29
1 90 74 1 1
1 59 76 1 24
1 188 101 1 2
1 132 104 1 45
1 112 150 1 28
1 229 179 1 35
1 305 215 1 8
1 259 224 1 30
1 335 255 1 34
1 51 290 1 21
1 341 312 1 46
1 243 359 1 39
1 319 399 1 11
1 264 411 1 8
1 314 420 1 28
1 221 450 1 34
1 397 485 2 4
1 354 516 13 19
2 2 0 0 27
2 57 27 1 4
2 162 32 1 30
2 46 63 1 50
2 143 114 1 26
2 118 142 1 4
2 140 147 1 16
2 65 164 1 36
2 220 201 1 18
2 27 221 1 1
2 113 223 1 29
2 213 253 1 24
2 114 278 1 3
2 211 282 1 46
2 329 329 1 12
2 281 342 1 49
2 322 392 1 13
2 298 406 2 21
2 268 429 1 39
2 380 471 1 24
2 381 498 2 36
3 3 0 0 22
3 31 22 1 33
3 26 56 1 21
3 173 78 1 39
3 102 118 1 22
3 278 141 1 10
3 155 152 1 26
3 248 179 1 41
3 105 221 1 47
3 215 269 1 34
3 171 304 1 9
3 231 314 1 42
3 274 358 2 6
3 371 366 1 2
3 265 369 1 30
3 321 400 2 14
3 353 416 1 14
3 385 431 1 47
3 398 487 6 5
3 373 498 1 11
3 317 511 3 12
4 4 0 0 30
4 172 30 1 46
4 111 77 1 37
4 68 115 1 28
4 133 144 1 27
4 29 172 1 14
4 154 187 1 35
4 191 223 1 45
4 161 270 1 45
4 352 316 1 29
4 88 346 1 23
4 296 370 1 1
4 284 372 1 49
4 386 422 1 40
4 392 468 3 42
4 399 514 9 15
5 5 0 0 12
5 47 12 1 36
5 61 49 1 11
5 169 61 1 12
5 121 74 1 4
5 78 79 1 48
5 168 128 1 15
5 138 144 1 27
5 79 173 1 11
5 120 185 1 22
5 240 208 1 3
5 307 212 1 35
5 60 248 1 49
5 148 298 1 48
5 200 347 1 4
5 93 352 1 12
5 297 365 1 44
5 328 410 1 48
5 285 459 2 44
5 309 511 5 24
6 6 0 0 4
6 58 4 1 1
6 34 6 1 46
6 84 53 1 21
6 117 75 1 17
6 41 93 1 8
6 43 102 1 27
6 82 130 1 31
6 216 162 1 24
6 92 187 1 39
6 158 227 1 22
6 160 250 1 12
6 174 263 1 3
6 228 268 1 15
6 233 284 1 43
6 222 328 1 24
6 206 353 1 48
6 330 402 1 6
6 360 409 2 39
6 359 450 1 10
6 271 461 8 25
6 152 495 3 27
7 7 0 0 42
7 141 43 1 19
7 50 63 1 27
7 144 91 1 42
7 184 134 1 29
7 193 164 1 12
7 40 177 1 1
7 245 180 1 38
7 203 219 1 47
7 164 267 1 50
7 290 318 1 18
7 295 337 1 43
7 313 381 1 10
7 293 392 1 16
7 369 409 1 49
7 389 459 1 32
7 261 494 1 21
8 8 0 0 48
8 96 48 1 4
8 76 53 1 15
8 48 69 1 42
8 100 112 1 38
8 170 151 1 36
8 81 188 1 12
8 325 201 1 14
8 156 216 1 32
8 224 249 1 26
8 235 276 1 11
8 333 289 3 20
8 289 312 1 6
8 230 319 2 20
8 311 341 2 14
8 363 357 1 25
8 378 383 1 31
8 308 415 1 7
8 219 423 1 15
8 269 439 2 1
8 375 442 1 15
8 356 458 1 20
8 393 479 3 48
9 9 0 0 36
9 64 36 1 14
9 23 51 1 35
9 94 87 1 49
9 286 137 1 2
9 101 140 1 33
9 20 174 1 27
9 145 202 1 1
9 122 204 1 39
9 294 244 1 43
9 250 288 1 36
9 180 325 1 22
9 256 348 1 42
9 339 391 1 47
9 302 439 1 8
9 275 451 3 34
9 262 490 8 36
10 10 0 0 45
10 73 45 1 1
10 115 47 1 29
10 24 77 1 37
10 52 115 1 27
10 80 143 1 30
10 247 174 1 9
10 239 184 1 10
10 210 195 1 47
10 226 243 1 35
10 202 279 1 38
10 253 318 1 35
10 97 354 1 5
10 266 360 1 9
10 99 371 1 2
10 227 374 1 12
10 236 387 1 50
10 318 438 1 4
10 166 443 1 25
10 252 470 1 13
10 196 484 2 8
10 337 499 4 32
11 11 0 0 18
11 91 18 1 23
11 62 42 1 48
11 103 91 1 43
11 150 135 1 48
11 272 184 1 6
11 45 191 1 33
11 395 225 1 17
11 181 243 1 42
11 131 286 2 4
11 204 292 1 22
11 165 315 1 20
11 331 336 1 43
11 349 380 1 45
11 348 426 2 19
11 387 447 3 23
11 249 473 3 17
11 270 493 1 19
12 12 0 0 7
12 124 7 1 11
12 49 19 1 18
12 66 38 1 37
12 72 76 1 17
12 33 94 1 46
12 134 141 1 42
12 142 185 1 13
12 238 199 1 20
12 244 220 1 8
12 69 229 1 18
12 74 248 1 42
12 255 291 1 10
12 209 302 1 47
12 283 350 1 40
12 301 391 1 32
12 280 424 1 13
12 342 438 1 41
12 391 482 1 23
12 334 506 3 38
13 13 0 0 9
13 28 9 1 25
13 106 35 1 22
13 21 58 1 33
13 234 92 1 41
13 201 134 1 23
13 75 158 1 49
13 135 208 1 22
13 292 231 1 23
13 186 255 1 28
13 306 284 1 1
13 87 286 1 11
13 185 298 2 30
13 258 330 1 23
13 326 354 1 34
13 282 389 1 11
13 127 401 1 3
13 246 405 1 35
13 396 441 1 36
13 368 478 1 18
13 374 500 11 34
14 14 0 0 39
14 37 39 1 27
14 38 67 1 17
14 163 85 1 28
14 242 116 1 20
14 89 137 1 21
14 198 159 1 17
14 195 177 1 31
14 251 209 1 14
14 312 224 1 22
14 128 247 1 6
14 35 254 1 14
14 190 269 1 35
14 205 305 1 37
14 303 343 1 1
14 336 345 1 35
14 367 382 1 33
14 310 416 3 9
14 364 428 1 11
14 366 440 2 23
14 384 465 3 43
15 15 0 0 21
15 56 21 1 23
15 70 45 1 14
15 159 60 1 39
15 116 100 1 9
15 85 110 1 3
15 107 114 1 24
15 123 139 1 49
15 175 189 1 12
15 177 202 1 46
15 316 249 1 46
15 260 296 1 9
15 157 306 1 14
15 288 321 1 19
15 212 341 1 28
15 320 370 1 17
15 390 388 2 27
15 344 417 1 42
15 372 460 1 47
15 355 509 2 36
16 16 0 0 33
16 71 33 1 17
16 53 51 1 4
16 32 56 1 2
16 225 59 1 13
16 104 73 1 24
16 130 98 1 21
16 153 120 1 46
16 98 167 1 49
16 183 217 1 17
16 197 235 1 43
16 167 279 2 7
16 179 288 1 23
16 218 313 1 49
16 279 363 1 7
16 194 371 1 9
16 379 381 1 9
16 383 393 1 37
16 370 431 1 37
16 376 469 1 31
16 343 503 3 41
17 17 0 0 9
17 44 9 1 32
17 25 42 1 22
17 67 65 1 31
17 54 97 1 24
17 139 122 1 45
17 77 168 1 15
17 151 186 1 22
17 199 209 1 25
17 300 235 1 37
17 223 273 1 37
17 189 311 1 34
17 187 346 1 38
17 358 385 1 39
17 350 425 1 4
17 365 430 1 22
17 357 453 1 1
17 327 455 2 28
17 347 486 4 34
17 340 524 2 10
18 18 0 0 17
18 109 17 1 36
18 83 54 1 11
18 129 66 1 17
18 136 84 1 43
18 254 128 1 27
18 63 156 1 35
18 39 192 1 29
18 147 222 1 18
18 304 241 1 26
18 217 268 1 47
18 178 317 1 13
18 362 331 1 26
18 323 358 1 1
18 377 360 1 13
18 273 374 1 17
18 263 393 1 36
18 382 430 1 2
18 299 433 1 44
18 388 479 5 23
19 19 0 0 3
19 22 3 1 12
19 110 16 1 38
19 137 55 1 25
19 108 81 1 18
19 126 100 1 19
19 208 120 1 6
19 125 127 1 21
19 86 149 1 22
19 182 172 1 46
19 146 219 1 45
19 241 265 1 50
19 276 316 1 38
19 351 355 1 1
19 176 357 1 50
19 394 408 1 9
19 361 418 1 29
19 149 448 1 12
19 315 461 4 10
19 346 475 4 39
546 2