Machines, Tasks, Workers
18 270 5
M, T, St, Se, P 
0 4 0 0 49
0 123 49 1 16
0 118 66 1 20
0 110 87 1 6
0 126 94 1 23
0 149 118 1 38
0 191 157 1 2
0 121 160 1 22
0 142 183 1 35
0 200 219 1 22
0 220 242 1 1
0 207 244 2 16
0 261 262 1 42
0 241 305 1 30
0 201 336 8 6
0 260 350 14 17
1 0 0 0 23
1 55 23 1 5
1 21 29 1 22
1 79 52 1 47
1 96 100 1 39
1 111 140 1 48
1 165 189 1 45
1 134 235 1 41
1 132 277 2 20
1 179 299 1 28
1 225 328 1 3
1 210 332 2 15
1 253 349 8 14
2 1 0 0 7
2 35 7 1 26
2 89 34 1 37
2 87 72 1 18
2 97 91 1 8
2 81 100 1 4
2 31 105 1 24
2 264 130 1 25
2 49 156 2 25
2 104 183 1 11
2 78 195 1 31
2 247 227 1 49
2 258 277 1 48
2 129 326 3 26
3 2 0 0 35
3 29 35 1 5
3 73 41 1 39
3 166 81 1 5
3 90 87 1 12
3 25 100 1 31
3 146 132 1 34
3 127 167 1 43
3 84 211 1 41
3 222 253 2 4
3 199 259 3 44
3 245 306 1 17
3 268 324 1 20
3 242 345 3 30
4 3 0 0 48
4 34 48 1 27
4 57 76 1 4
4 54 81 1 31
4 86 113 1 15
4 52 129 1 35
4 150 165 1 22
4 176 188 1 44
4 170 233 1 36
4 256 270 2 25
4 182 297 1 2
4 229 300 3 36
4 208 339 4 30
5 5 0 0 50
5 156 50 1 36
5 94 87 1 44
5 157 132 1 17
5 181 150 1 23
5 69 174 1 41
5 141 216 1 14
5 161 231 1 13
5 131 245 1 20
5 187 266 5 7
5 257 278 2 45
5 193 325 1 5
5 190 331 7 48
6 6 0 0 22
6 27 22 1 50
6 18 73 1 9
6 64 83 1 29
6 211 113 1 6
6 67 120 1 44
6 215 165 1 38
6 148 204 1 3
6 159 208 1 17
6 216 226 1 25
6 139 252 1 27
6 203 280 2 2
6 122 284 2 12
6 178 298 1 4
6 266 303 3 30
6 209 336 6 13
6 196 355 7 40
7 7 0 0 45
7 83 45 1 26
7 59 72 1 33
7 70 106 1 46
7 51 153 1 19
7 105 173 1 1
7 168 175 1 6
7 180 182 1 48
7 163 231 1 45
7 265 277 1 7
7 217 285 1 33
7 269 319 3 4
7 151 326 3 15
7 218 344 4 39
8 8 0 0 24
8 117 24 1 29
8 47 54 1 11
8 71 66 1 37
8 130 104 1 11
8 205 116 1 2
8 137 119 1 18
8 160 138 1 18
8 109 157 1 39
8 115 197 1 29
8 235 227 1 21
8 267 249 1 6
8 227 256 1 50
8 228 307 1 44
9 9 0 0 41
9 32 41 1 30
9 42 72 1 14
9 22 87 1 19
9 116 107 1 18
9 50 126 1 19
9 184 146 1 48
9 175 195 1 23
9 66 219 2 22
9 243 243 1 17
9 143 261 1 23
9 174 285 1 24
9 155 310 1 35
9 212 346 3 30
10 10 0 0 11
10 28 11 1 3
10 62 15 1 40
10 91 56 1 33
10 26 90 1 48
10 106 139 1 25
10 183 165 1 37
10 119 203 1 17
10 239 221 2 29
10 221 252 1 27
10 185 280 1 33
10 251 314 1 27
10 240 342 4 30
11 11 0 0 1
11 60 1 1 13
11 36 15 1 13
11 19 29 1 13
11 98 43 1 2
11 30 46 1 5
11 24 52 1 41
11 80 94 1 24
11 102 119 1 43
11 120 163 1 12
11 128 176 2 28
11 232 206 1 36
11 61 243 1 4
11 124 248 1 6
11 230 255 1 5
11 147 261 1 43
11 246 305 1 28
11 204 334 8 33
12 12 0 0 6
12 56 6 1 48
12 63 55 1 24
12 95 80 1 4
12 101 85 1 10
12 103 96 1 35
12 45 132 1 49
12 88 182 2 31
12 177 215 1 22
12 133 238 1 1
12 158 240 1 42
12 140 283 2 8
12 82 293 7 32
12 234 332 17 33
13 13 0 0 6
13 46 6 1 24
13 197 31 1 21
13 39 53 1 49
13 43 103 1 8
13 144 112 1 2
13 76 115 1 34
13 53 150 1 2
13 136 153 1 34
13 206 188 1 1
13 192 190 1 24
13 85 215 1 8
13 145 224 1 1
13 233 226 1 28
13 172 255 2 37
13 38 294 4 19
13 224 317 2 10
13 226 329 6 30
14 14 0 0 3
14 33 3 1 1
14 107 5 1 36
14 125 42 1 31
14 75 74 1 11
14 93 86 2 14
14 112 102 1 49
14 108 152 1 2
14 58 155 1 23
14 167 179 1 35
14 252 215 1 22
14 186 238 1 23
14 213 262 1 38
14 259 301 1 19
14 202 321 1 32
15 15 0 0 47
15 23 47 1 12
15 77 60 1 22
15 48 83 1 21
15 65 105 1 11
15 114 117 1 25
15 44 143 1 17
15 135 161 1 13
15 173 175 1 43
15 20 219 1 20
15 237 240 1 24
15 238 265 1 4
15 249 270 1 5
15 223 276 1 18
15 244 295 1 20
15 194 316 1 36
15 198 353 9 3
16 16 0 0 10
16 171 10 1 25
16 99 36 1 2
16 40 39 1 1
16 113 41 1 46
16 219 88 1 7
16 41 96 1 39
16 236 136 1 4
16 152 141 1 3
16 37 145 1 20
16 100 166 1 23
16 188 190 1 35
16 231 226 1 1
16 254 228 1 16
16 195 245 1 6
16 263 252 1 20
16 255 273 1 49
16 248 323 3 3
16 250 329 2 25
17 17 0 0 43
17 92 43 1 29
17 74 73 1 25
17 164 99 1 18
17 189 118 1 43
17 68 162 1 21
17 72 184 1 19
17 154 204 1 26
17 138 231 1 27
17 162 259 1 10
17 153 270 1 31
17 214 302 2 6
17 169 310 2 28
17 262 342 5 38
402 1