Machines, Tasks, Workers
14 210 5
M, T, St, Se, P 
0 37 0 0 17
0 133 17 1 40
0 39 58 1 32
0 65 91 1 41
0 58 133 1 49
0 82 183 1 33
0 61 217 1 19
0 131 237 2 38
0 140 277 1 3
0 208 281 1 5
0 179 287 3 29
0 205 319 2 8
0 199 329 1 38
0 186 368 9 10
1 129 0 0 38
1 97 38 1 28
1 50 67 1 41
1 73 109 1 4
1 43 114 1 49
1 40 164 1 33
1 67 198 1 42
1 86 241 1 41
1 26 283 4 45
1 204 332 1 35
1 114 368 7 29
2 0 0 0 23
2 55 23 1 39
2 53 63 1 37
2 176 101 1 24
2 48 126 1 5
2 47 132 1 30
2 69 163 1 7
2 167 171 1 38
2 201 210 1 19
2 87 230 1 35
2 162 266 1 23
2 148 290 1 48
2 183 339 3 11
2 163 353 2 6
2 144 361 1 49
3 1 0 0 40
3 15 40 1 14
3 66 55 1 37
3 115 93 1 10
3 103 104 1 23
3 27 128 1 22
3 79 151 1 29
3 126 181 1 2
3 121 184 1 25
3 24 210 1 25
3 145 236 1 29
3 102 266 1 6
3 84 273 1 26
3 196 300 1 49
3 189 350 1 43
4 2 0 0 9
4 22 9 1 36
4 110 46 1 37
4 96 84 1 7
4 76 92 1 49
4 112 142 1 31
4 134 174 1 10
4 38 185 1 35
4 104 221 1 7
4 169 229 1 20
4 181 250 4 39
4 108 293 3 41
4 191 337 5 4
4 59 346 1 28
4 158 375 15 41
5 3 0 0 11
5 100 11 1 12
5 71 24 1 22
5 32 47 1 19
5 14 67 1 15
5 30 83 1 24
5 49 108 1 22
5 101 131 1 24
5 123 156 1 22
5 20 179 1 26
5 130 206 1 25
5 137 232 1 18
5 177 251 2 13
5 194 266 1 10
5 117 277 2 33
5 180 312 1 8
5 120 321 1 35
5 202 357 2 24
6 4 0 0 36
6 17 36 1 44
6 172 81 1 39
6 154 121 1 18
6 72 140 1 48
6 68 189 1 38
6 166 228 1 20
6 173 249 1 11
6 207 261 2 13
6 203 276 2 33
6 200 311 1 47
6 111 359 2 44
7 5 0 0 3
7 153 3 1 17
7 116 21 1 28
7 44 50 1 2
7 54 53 1 14
7 160 68 1 21
7 109 90 1 19
7 195 110 1 5
7 127 116 1 28
7 125 145 1 20
7 21 166 1 35
7 34 202 2 33
7 188 237 1 20
7 119 258 2 24
7 105 284 2 18
7 170 304 2 7
7 118 313 1 16
7 135 330 1 1
7 168 332 1 24
7 206 357 5 15
7 209 377 27 7
8 6 0 0 7
8 78 7 1 47
8 197 55 1 42
8 178 98 1 41
8 41 140 1 16
8 45 157 2 26
8 89 185 1 8
8 171 194 1 1
8 88 196 1 17
8 64 214 1 44
8 29 259 1 10
8 95 270 1 35
8 198 306 1 26
8 138 333 1 5
8 164 339 4 14
8 99 357 3 22
8 182 382 8 38
9 7 0 0 9
9 36 9 1 3
9 62 13 1 49
9 124 63 1 2
9 23 66 1 3
9 94 70 1 27
9 25 98 1 26
9 132 125 1 44
9 136 170 1 46
9 155 217 1 42
9 175 260 1 29
9 35 290 1 42
9 157 333 5 15
9 91 353 11 39
10 8 0 0 17
10 92 17 1 22
10 18 40 1 3
10 33 44 1 25
10 13 70 1 4
10 28 75 1 38
10 56 114 1 37
10 12 152 1 47
10 165 200 1 49
10 141 250 1 21
10 106 272 1 35
10 185 308 1 32
10 159 341 5 18
10 187 364 12 44
11 9 0 0 45
11 83 45 1 29
11 90 75 1 46
11 42 122 1 1
11 98 124 1 22
11 161 147 1 50
11 85 198 1 43
11 107 242 2 1
11 113 245 1 19
11 57 265 1 16
11 149 282 1 18
11 143 301 3 17
11 192 321 1 12
11 193 334 5 8
11 122 347 5 30
11 93 382 20 32
12 10 0 0 41
12 75 41 1 28
12 77 70 1 10
12 74 81 1 26
12 31 108 1 17
12 63 126 1 25
12 52 152 1 35
12 19 188 1 44
12 146 233 1 18
12 128 252 1 48
12 142 301 1 5
12 174 307 1 4
12 147 312 2 29
12 139 343 3 33
13 11 0 0 42
13 60 42 1 44
13 16 87 1 18
13 81 106 1 24
13 70 131 1 32
13 46 164 1 10
13 80 175 1 7
13 152 183 1 23
13 156 207 1 26
13 51 234 1 42
13 190 277 5 15
13 150 297 2 27
13 184 326 1 5
13 151 332 1 49
434 0