Machines, Tasks, Workers
12 240 2
M, T, St, Se, P 
0 126 0 0 49
0 108 49 1 39
0 90 89 1 24
0 57 114 1 9
0 28 124 1 19
0 14 144 1 18
0 81 163 1 19
0 154 183 1 24
0 48 208 1 16
0 234 225 1 30
0 179 256 1 13
0 186 270 1 40
0 132 311 1 16
0 60 328 2 36
0 125 366 4 49
0 219 419 2 15
0 133 436 3 23
0 196 477 10 43
1 149 0 0 25
1 37 25 1 44
1 29 70 1 29
1 130 100 1 48
1 84 149 1 7
1 162 157 2 2
1 34 161 1 28
1 128 190 1 30
1 68 221 1 46
1 123 268 1 20
1 24 289 1 11
1 144 301 1 28
1 189 330 1 6
1 218 337 2 13
1 188 352 1 30
1 237 383 2 33
1 200 418 1 22
1 129 441 2 3
1 224 446 2 12
1 214 460 1 14
1 167 514 13 10
2 201 0 0 1
2 56 1 1 44
2 9 46 1 24
2 15 71 1 36
2 142 108 1 29
2 88 138 1 11
2 18 150 1 10
2 171 161 1 3
2 166 165 1 7
2 95 173 1 4
2 102 178 2 32
2 100 212 1 49
2 118 262 1 42
2 134 305 1 49
2 185 355 1 37
2 212 393 2 13
2 197 408 1 14
2 159 423 2 1
2 221 426 2 43
2 176 471 6 50
3 0 0 0 23
3 55 23 1 46
3 83 70 1 33
3 17 104 1 38
3 19 143 1 13
3 122 157 1 7
3 38 165 1 22
3 174 188 1 5
3 27 194 1 41
3 36 236 1 30
3 42 267 1 5
3 140 273 1 21
3 116 295 1 48
3 54 344 2 21
3 184 368 1 22
3 207 391 2 48
3 205 441 2 49
3 193 511 1 3
3 182 527 11 5
4 1 0 0 26
4 21 26 1 25
4 145 52 1 11
4 103 64 1 43
4 51 108 1 11
4 187 120 1 1
4 148 122 1 43
4 46 166 2 25
4 50 193 2 20
4 119 215 1 46
4 79 262 1 28
4 233 291 1 37
4 230 329 1 27
4 114 357 1 13
4 74 371 2 4
4 93 377 1 18
4 150 396 1 1
4 236 398 1 7
4 120 406 1 17
4 147 424 2 24
4 136 450 1 27
4 172 478 1 7
4 232 496 15 31
5 2 0 0 14
5 11 14 1 22
5 32 37 1 5
5 26 43 1 38
5 47 82 1 25
5 25 109 1 21
5 16 131 1 21
5 45 153 1 1
5 113 155 1 28
5 67 184 1 22
5 157 207 1 34
5 206 242 1 10
5 89 253 1 4
5 91 258 1 7
5 169 266 1 25
5 115 292 1 18
5 73 311 1 1
5 183 313 1 32
5 217 346 1 16
5 143 363 1 42
5 178 407 1 1
5 203 409 1 10
5 220 421 1 45
5 229 479 7 23
6 3 0 0 30
6 10 30 1 4
6 13 35 1 8
6 96 44 1 49
6 44 94 1 48
6 22 143 1 24
6 97 168 1 25
6 86 195 1 7
6 101 203 1 15
6 77 219 1 17
6 105 237 1 35
6 235 273 1 19
6 194 293 1 34
6 170 328 1 22
6 227 351 2 23
6 231 376 1 20
6 164 397 2 49
6 204 448 2 11
6 191 470 6 3
6 213 514 14 15
7 4 0 0 12
7 31 12 1 28
7 33 41 1 48
7 75 90 1 33
7 62 124 1 14
7 63 139 1 48
7 69 188 1 34
7 156 223 1 20
7 153 244 1 34
7 238 279 1 42
7 198 322 1 44
7 226 367 1 17
7 195 385 2 17
7 209 404 2 13
7 202 419 2 29
7 82 450 3 36
7 239 489 25 16
8 5 0 0 22
8 49 22 1 37
8 12 60 1 22
8 61 83 1 49
8 107 133 1 6
8 70 140 1 7
8 152 148 1 44
8 106 193 1 41
8 35 235 1 33
8 99 269 2 31
8 177 302 1 36
8 173 339 3 38
8 199 380 1 25
8 163 406 1 37
8 104 444 2 47
8 138 493 3 47
9 6 0 0 13
9 66 13 1 33
9 160 47 1 4
9 76 52 1 22
9 64 75 1 12
9 85 88 1 21
9 20 110 1 7
9 124 118 1 1
9 65 120 1 29
9 39 150 1 5
9 23 156 1 23
9 117 180 1 11
9 78 192 1 42
9 141 235 1 4
9 222 240 1 20
9 43 261 1 36
9 137 298 2 27
9 135 327 1 12
9 127 340 2 39
9 228 381 3 33
9 216 417 1 24
9 190 443 5 3
9 112 451 4 48
10 7 0 0 17
10 92 17 1 43
10 30 61 1 17
10 109 79 1 14
10 59 94 1 24
10 98 119 1 31
10 41 151 1 32
10 80 184 1 42
10 139 227 1 26
10 72 254 1 29
10 211 284 1 40
10 165 325 1 2
10 168 330 1 12
10 181 343 2 40
10 161 385 1 5
10 151 391 1 10
10 223 402 1 35
10 158 438 2 23
10 208 463 2 42
11 8 0 0 29
11 53 29 1 3
11 40 33 1 37
11 52 71 1 20
11 111 92 1 45
11 131 138 1 34
11 110 173 1 37
11 71 211 1 32
11 87 244 1 1
11 192 246 1 20
11 146 267 1 34
11 155 302 1 12
11 94 315 1 26
11 175 342 1 47
11 215 390 1 17
11 180 408 1 18
11 225 427 1 22
11 58 453 4 6
11 210 465 5 19
11 121 528 13 9
543 0