Machines, Tasks, Workers
12 240 2
M, T, St, Se, P 
0 67 0 0 22
0 129 22 2 3
0 200 27 3 22
0 14 52 1 18
0 196 71 1 43
0 105 115 2 35
0 81 152 5 19
0 194 176 2 34
0 99 212 3 31
0 27 246 1 41
0 147 288 4 24
0 24 316 1 11
0 184 328 14 22
0 30 364 7 17
0 125 388 6 49
0 214 443 7 14
0 40 464 10 37
1 0 0 0 23
1 120 23 1 17
1 219 41 2 15
1 111 58 1 45
1 158 104 2 23
1 208 129 2 42
1 170 173 2 22
1 57 197 2 9
1 28 208 1 19
1 176 228 1 50
1 191 279 1 3
1 221 283 1 43
1 7 327 2 17
1 112 346 2 48
1 225 396 2 22
1 49 420 1 37
1 102 464 4 32
2 44 0 0 48
2 117 48 2 11
2 202 61 1 29
2 133 91 1 23
2 156 115 1 20
2 55 136 4 46
2 83 186 1 33
2 224 220 1 12
2 72 233 1 29
2 8 263 2 29
2 127 294 1 39
2 79 334 2 28
2 36 364 3 30
2 42 397 1 5
2 92 403 2 43
2 136 448 1 27
2 58 476 2 6
2 70 484 1 7
2 52 492 6 20
3 90 0 0 24
3 6 24 1 13
3 207 38 1 48
3 5 87 2 22
3 31 111 1 28
3 35 140 2 33
3 234 175 1 30
3 39 206 1 5
3 93 212 1 18
3 60 231 1 36
3 66 268 1 33
3 232 302 1 31
3 46 336 1 25
3 108 362 2 39
3 144 403 1 28
3 97 432 1 25
3 37 458 1 44
3 4 503 2 12
4 181 0 0 40
4 161 40 1 5
4 151 46 1 10
4 34 57 1 28
4 164 88 2 49
4 160 139 1 4
4 199 144 1 25
4 163 170 1 37
4 29 208 1 29
4 230 238 3 27
4 134 268 1 49
4 185 318 1 37
4 212 356 2 13
4 131 371 1 34
4 173 407 3 38
4 222 450 1 20
4 43 471 1 36
5 218 0 0 13
5 146 13 1 34
5 22 48 2 24
5 140 74 1 21
5 116 96 1 48
5 130 145 1 48
5 101 196 2 15
5 149 213 2 25
5 239 240 1 16
5 126 257 2 49
5 209 308 1 13
5 110 322 1 37
5 182 360 1 5
5 3 367 1 30
5 10 398 1 4
5 203 404 1 10
5 220 415 1 45
5 211 461 3 40
5 141 506 1 4
5 150 511 2 1
6 167 0 0 10
6 89 10 1 4
6 145 15 1 11
6 103 27 1 43
6 183 71 1 32
6 217 104 1 16
6 143 121 1 42
6 69 164 1 34
6 33 199 1 48
6 75 248 1 33
6 154 282 1 24
6 48 307 1 16
6 84 324 1 7
6 76 332 1 22
6 205 355 1 49
6 193 405 1 3
6 165 409 1 2
6 152 412 1 44
6 106 457 1 41
6 18 499 5 10
7 82 0 0 36
7 86 36 1 7
7 175 44 1 47
7 215 92 1 17
7 91 110 1 7
7 238 118 1 42
7 25 161 1 21
7 78 183 1 42
7 223 226 1 35
7 17 262 1 38
7 88 301 1 11
7 113 313 1 28
7 114 342 1 13
7 128 356 1 30
7 104 387 1 47
7 21 435 1 25
7 188 462 1 30
7 51 493 1 11
8 53 0 0 3
8 186 3 1 40
8 227 44 1 23
8 231 68 1 20
8 179 89 1 13
8 195 103 1 17
8 153 121 1 34
8 65 156 1 29
8 139 186 1 26
8 177 215 1 36
8 123 252 1 20
8 236 273 1 7
8 15 281 1 36
8 142 318 1 29
8 26 348 1 38
8 56 387 2 44
8 119 433 1 46
8 204 480 1 11
8 197 492 1 14
8 178 507 2 1
9 213 0 0 15
9 159 15 1 1
9 216 17 1 24
9 85 42 1 21
9 20 64 1 7
9 169 72 1 25
9 124 98 1 1
9 94 100 1 26
9 95 127 1 4
9 162 132 1 2
9 16 135 1 21
9 233 157 1 37
9 68 195 1 46
9 23 242 1 23
9 237 266 1 33
9 157 300 1 34
9 206 337 1 10
9 228 348 1 33
9 11 382 1 22
9 118 405 1 42
9 45 449 1 1
9 138 451 1 47
9 155 504 2 12
10 226 0 0 17
10 132 17 1 16
10 137 34 1 27
10 135 62 1 12
10 12 75 1 22
10 61 98 1 49
10 198 148 1 44
10 192 193 1 20
10 189 215 1 6
10 9 222 1 24
10 210 247 1 19
10 168 267 1 12
10 19 280 2 13
10 63 295 1 48
10 62 344 1 14
10 47 359 1 25
10 50 385 1 20
10 71 406 1 32
10 64 439 1 12
10 190 452 1 3
10 74 456 1 4
10 180 461 1 18
10 109 480 1 14
10 172 495 6 7
10 73 508 1 1
11 166 0 0 7
11 148 7 1 43
11 13 51 1 8
11 187 60 1 1
11 59 62 1 24
11 98 87 1 31
11 41 119 1 32
11 80 152 1 42
11 100 195 1 49
11 32 245 1 5
11 2 251 1 14
11 121 266 1 9
11 107 276 1 6
11 229 283 1 23
11 96 307 1 49
11 54 357 1 21
11 1 379 1 26
11 122 406 1 7
11 38 414 1 22
11 174 437 1 5
11 235 443 1 19
11 115 463 1 18
11 77 482 1 17
11 87 501 2 1
11 201 505 3 1
11 171 509 4 3
518 9941