Machines, Tasks, Workers
20 500 5
M, T, St, Se, P 
0 0 0 0 23
1 1 0 0 3
2 2 0 0 13
3 3 0 0 8
4 4 0 0 12
5 5 0 0 1
6 6 0 0 20
7 7 0 0 28
8 8 0 0 45
9 9 0 0 4
10 10 0 0 5
11 11 0 0 6
12 12 0 0 21
13 13 0 0 33
14 14 0 0 33
15 15 0 0 14
16 16 0 0 27
17 17 0 0 15
18 18 0 0 10
19 19 0 0 49
0 55 23 1 46
0 120 70 1 48
0 127 119 1 35
0 217 155 1 8
0 250 164 1 40
0 185 205 1 35
0 305 241 1 50
0 221 292 1 40
0 251 333 1 49
0 322 383 1 24
0 418 408 1 15
0 264 424 1 6
0 406 431 1 33
0 377 465 1 30
0 228 496 1 44
0 388 541 1 16
0 439 558 3 35
0 470 596 1 1
0 409 598 3 14
0 423 615 1 20
0 471 639 28 31
1 69 3 1 18
1 82 22 1 34
1 77 57 1 49
1 53 107 1 41
1 141 149 1 28
1 263 178 1 33
1 302 212 1 8
1 244 221 1 8
1 198 230 1 6
1 180 237 1 13
1 164 251 1 37
1 303 289 1 28
1 38 318 1 13
1 193 332 1 15
1 390 348 1 25
1 249 374 1 33
1 429 408 1 47
1 384 456 1 6
1 350 463 1 48
1 367 512 1 48
1 382 561 2 10
1 359 573 1 19
1 246 593 1 7
1 473 601 1 8
1 478 610 2 3
1 492 615 2 23
2 27 13 1 19
2 184 33 1 20
2 287 54 1 44
2 95 99 1 46
2 131 146 1 20
2 212 167 1 30
2 31 198 1 17
2 140 216 1 12
2 144 229 1 22
2 110 252 1 10
2 280 263 1 4
2 288 268 1 39
2 307 308 1 36
2 437 345 1 21
2 279 367 1 3
2 320 371 1 44
2 336 416 1 26
2 268 443 2 34
2 369 479 1 33
2 411 513 1 44
2 420 558 1 26
2 458 585 1 20
2 446 606 2 50
3 28 8 1 14
3 156 23 1 31
3 138 55 1 36
3 122 92 1 33
3 148 126 1 30
3 258 157 1 11
3 199 169 1 24
3 136 194 1 36
3 102 231 1 42
3 98 274 1 33
3 100 308 1 21
3 274 330 1 35
3 190 366 1 40
3 430 407 1 34
3 289 442 1 22
3 469 465 1 25
3 259 491 1 37
3 453 529 3 49
3 481 581 1 30
3 450 612 1 24
3 488 641 37 34
4 47 12 1 7
4 20 20 1 22
4 67 43 1 6
4 36 50 1 33
4 85 84 1 37
4 70 122 1 26
4 49 149 1 12
4 133 162 1 2
4 109 165 1 39
4 211 205 1 6
4 150 212 1 40
4 318 253 1 23
4 209 277 1 4
4 283 282 1 24
4 68 307 1 3
4 286 311 1 32
4 106 344 1 49
4 278 394 1 9
4 257 404 1 10
4 183 415 1 11
4 405 427 1 26
4 396 454 1 22
4 152 477 1 35
4 373 513 1 16
4 210 530 1 13
4 363 544 2 1
4 402 547 1 15
4 375 563 1 2
4 474 566 1 46
4 447 613 2 36
5 32 1 1 1
5 26 3 1 8
5 24 12 1 20
5 71 33 1 30
5 33 64 1 21
5 216 86 1 19
5 201 106 1 33
5 125 140 1 19
5 155 160 1 29
5 105 190 1 18
5 145 209 1 19
5 445 229 1 25
5 175 255 1 48
5 295 304 1 45
5 239 350 1 21
5 425 372 1 24
5 267 397 1 23
5 467 421 1 13
5 361 435 2 12
5 346 449 1 47
5 344 497 1 30
5 276 528 1 20
5 462 549 1 36
5 424 586 1 1
5 489 588 2 8
5 381 598 1 24
5 348 623 6 28
6 30 20 1 22
6 74 43 1 10
6 22 54 1 46
6 29 101 1 32
6 166 134 1 37
6 326 172 1 2
6 132 175 1 20
6 115 196 1 34
6 269 231 1 18
6 310 250 1 6
6 149 257 1 35
6 206 293 1 46
6 284 340 1 36
6 304 377 1 24
6 340 402 1 18
6 339 421 1 39
6 465 461 1 25
6 351 487 1 10
6 427 498 1 49
6 408 548 1 20
6 468 569 2 7
6 378 578 2 42
6 397 622 1 42
7 78 28 1 11
7 54 40 1 23
7 21 64 1 41
7 300 106 1 15
7 86 122 1 39
7 113 162 1 13
7 261 176 1 18
7 160 195 1 4
7 93 200 1 22
7 231 223 1 29
7 208 253 1 9
7 121 263 1 49
7 146 313 1 49
7 334 363 1 23
7 205 387 1 36
7 242 424 1 33
7 343 458 1 25
7 372 484 1 17
7 386 502 1 23
7 374 526 2 27
7 410 555 1 26
7 483 582 1 45
7 404 628 11 23
8 73 45 1 13
8 87 59 1 4
8 101 64 1 40
8 61 105 1 18
8 52 124 1 36
8 41 161 1 14
8 241 176 1 7
8 88 184 1 38
8 275 223 1 48
8 219 272 1 7
8 298 280 1 1
8 335 282 1 18
8 256 301 1 17
8 323 319 1 28
8 92 348 1 29
8 227 378 1 2
8 498 381 1 36
8 293 418 1 18
8 376 437 2 11
8 383 450 1 11
8 312 462 1 27
8 464 490 1 14
8 356 505 1 18
8 422 524 1 33
8 448 558 2 31
8 452 591 1 40
8 394 634 8 43
9 123 4 1 19
9 139 24 1 1
9 83 26 1 32
9 48 59 1 49
9 118 109 1 43
9 103 153 1 32
9 192 186 1 3
9 129 190 1 25
9 252 216 1 10
9 89 227 1 18
9 273 246 1 21
9 191 268 1 33
9 311 302 1 41
9 178 344 1 28
9 161 373 1 48
9 240 422 2 37
9 234 461 1 36
9 317 498 2 15
9 413 515 3 11
9 436 529 1 45
9 496 575 3 37
9 463 615 1 21
9 456 641 6 50
10 35 5 1 25
10 58 31 1 31
10 112 63 1 16
10 65 80 1 24
10 225 105 1 4
10 126 110 1 37
10 186 148 1 10
10 167 159 1 49
10 80 209 1 38
10 170 248 1 40
10 189 289 1 40
10 218 330 1 28
10 306 359 1 10
10 233 370 1 34
10 362 405 1 28
10 365 434 1 4
10 301 439 1 17
10 438 457 1 50
10 428 508 1 27
10 321 536 3 47
10 272 586 2 10
10 497 598 1 42
11 42 6 1 12
11 72 19 1 1
11 59 21 1 21
11 44 43 1 26
11 111 70 1 19
11 116 90 1 1
11 169 92 1 9
11 229 102 1 22
11 223 125 1 23
11 200 149 1 36
11 147 186 1 37
11 142 224 1 11
11 266 236 1 50
11 277 287 1 31
11 328 319 1 34
11 75 354 1 3
11 172 358 1 34
11 493 393 1 39
11 400 433 1 4
11 414 438 1 18
11 281 457 1 33
11 387 491 1 5
11 479 497 1 23
11 330 521 1 20
11 480 542 1 6
11 238 549 1 33
11 475 583 4 34
11 457 621 1 6
11 490 628 13 17
12 56 21 1 14
12 96 36 1 22
12 46 59 1 39
12 197 99 1 49
12 203 149 1 46
12 163 196 1 13
12 215 210 1 14
12 99 225 1 33
12 179 259 1 33
12 271 293 1 43
12 403 337 1 12
12 291 350 1 9
12 159 360 1 1
12 62 362 1 28
12 285 391 1 32
12 353 424 1 14
12 360 439 1 40
12 392 480 1 20
12 333 501 1 49
12 399 551 1 13
12 407 565 1 50
12 417 616 2 10
12 466 629 5 36
13 60 33 1 49
13 119 83 1 27
13 23 111 1 1
13 104 113 1 21
13 153 135 1 20
13 97 156 1 42
13 114 199 1 14
13 57 214 1 28
13 188 243 1 11
13 151 255 2 45
13 347 302 1 19
13 270 322 1 43
13 482 366 1 49
13 290 416 1 18
13 243 435 1 6
13 332 442 1 17
13 162 460 1 47
13 389 508 1 9
13 325 518 1 33
13 476 552 2 39
13 431 593 6 24
13 401 623 1 6
13 494 630 9 4
14 90 33 1 30
14 51 64 1 37
14 124 102 1 26
14 248 129 1 9
14 182 139 1 48
14 247 188 1 14
14 79 203 1 42
14 253 246 1 48
14 213 295 1 1
14 236 297 1 43
14 313 341 1 27
14 181 369 1 22
14 265 392 1 16
14 371 409 1 36
14 352 446 1 35
14 495 482 1 29
14 455 512 1 8
14 357 521 4 10
14 442 535 1 15
14 461 551 1 39
14 433 591 1 36
14 460 628 13 18
15 63 14 1 27
15 50 42 1 50
15 222 93 1 42
15 154 136 1 36
15 64 173 1 30
15 117 204 1 26
15 187 231 1 20
15 380 252 1 45
15 297 298 1 11
15 165 310 1 35
15 230 346 1 46
15 282 393 1 31
15 296 425 1 37
15 391 463 1 16
15 432 480 1 27
15 292 508 1 22
15 358 531 1 43
15 451 575 1 2
15 440 578 1 5
15 354 584 1 21
15 434 606 4 46
16 84 27 1 47
16 76 75 1 47
16 157 123 1 15
16 66 139 1 45
16 329 185 1 2
16 108 188 1 22
16 220 211 1 34
16 255 246 1 3
16 177 250 1 14
16 260 265 1 14
16 235 280 1 41
16 194 322 1 19
16 315 342 1 14
16 316 357 1 17
16 341 375 1 42
16 393 418 1 42
16 398 461 1 1
16 415 463 1 39
16 449 503 1 44
16 459 548 1 15
16 385 564 1 45
16 349 610 9 36
17 134 15 1 36
17 137 52 1 20
17 130 73 1 50
17 309 124 1 40
17 224 165 1 13
17 25 179 1 7
17 91 187 1 12
17 168 200 1 47
17 226 248 1 45
17 207 294 1 35
17 435 330 1 39
17 368 370 1 14
17 395 385 1 49
17 421 435 1 9
17 366 445 1 5
17 299 451 1 46
17 443 498 1 39
17 364 538 2 18
17 419 558 6 8
17 202 572 1 39
17 491 612 1 33
18 34 10 1 10
18 81 21 1 22
18 176 44 1 18
18 173 63 1 25
18 232 89 1 18
18 143 108 1 22
18 135 131 1 25
18 308 157 1 47
18 171 205 1 3
18 128 209 1 12
18 174 222 1 44
18 245 267 1 28
18 254 296 1 17
18 324 314 1 30
18 370 345 1 12
18 214 358 1 20
18 195 379 1 10
18 294 390 1 10
18 355 401 1 4
18 319 406 1 13
18 345 420 1 17
18 342 438 2 15
18 337 455 1 30
18 499 486 1 42
18 444 529 1 9
18 454 539 1 46
18 412 586 1 38
18 379 625 4 21
19 39 49 1 5
19 94 55 1 5
19 107 61 1 28
19 37 90 1 42
19 43 133 1 18
19 158 152 1 42
19 262 195 1 38
19 45 234 1 29
19 204 264 1 10
19 40 275 1 27
19 237 303 1 18
19 477 322 1 20
19 486 343 1 47
19 196 391 1 38
19 416 430 1 32
19 314 463 1 18
19 331 482 1 12
19 327 495 1 6
19 484 502 1 3
19 338 506 1 3
19 426 510 1 19
19 441 530 1 26
19 487 557 2 35
19 472 594 1 42
19 485 639 34 42
715 3