Machines, Tasks, Workers
12 240 5
M, T, St, Se, P 
0 126 0 0 49
1 149 0 0 25
2 201 0 0 1
3 0 0 0 23
4 1 0 0 26
5 2 0 0 14
6 3 0 0 30
7 4 0 0 12
8 5 0 0 22
9 6 0 0 13
10 7 0 0 17
11 8 0 0 29
0 108 49 1 39
0 90 89 1 24
0 57 114 1 9
0 28 124 1 19
0 176 144 1 50
0 42 195 1 5
0 140 201 1 21
0 134 223 1 49
0 86 273 1 7
0 101 281 1 15
0 95 297 1 4
0 162 302 1 2
0 16 305 1 21
0 153 327 1 34
0 106 362 1 41
0 184 404 1 22
0 114 427 1 13
0 137 441 2 27
0 51 470 4 11
1 58 25 1 6
1 54 32 1 21
1 65 54 1 29
1 147 84 1 24
1 136 109 1 27
1 172 137 1 7
1 207 145 1 48
1 175 194 1 47
1 215 242 1 17
1 180 260 1 18
1 225 279 1 22
1 163 302 3 37
1 236 342 1 7
1 99 350 2 31
1 102 383 1 32
1 171 416 2 3
1 142 421 1 29
1 186 451 3 40
2 56 1 1 44
2 119 46 1 46
2 79 93 1 28
2 118 122 1 42
2 23 165 1 23
2 85 189 1 21
2 20 211 1 7
2 169 219 1 25
2 115 245 1 18
2 67 264 1 22
2 157 287 1 34
2 25 322 1 21
2 78 344 1 42
2 50 387 1 20
2 238 408 2 42
2 200 452 2 22
2 63 476 1 48
3 120 23 1 17
3 13 41 1 8
3 96 50 1 49
3 209 100 1 13
3 38 114 1 22
3 117 137 1 11
3 121 149 1 9
3 71 159 1 32
3 87 192 1 1
3 69 194 2 34
3 156 230 1 20
3 233 251 1 37
3 77 289 1 17
3 105 307 1 35
3 39 343 1 5
3 93 349 1 18
3 47 368 2 25
3 83 395 1 33
3 224 429 1 12
3 222 442 1 20
3 193 463 6 3
3 191 472 2 3
3 183 477 1 32
4 202 26 1 29
4 74 56 1 4
4 60 61 1 36
4 45 98 1 1
4 229 100 1 23
4 104 124 1 47
4 21 172 1 25
4 145 198 1 11
4 125 210 1 49
4 135 260 1 12
4 12 273 1 22
4 150 296 1 1
4 230 298 1 27
4 182 326 1 5
4 214 332 1 14
4 129 347 1 3
4 161 351 1 5
4 151 357 1 10
4 35 368 4 33
4 88 405 5 11
4 18 421 1 10
4 239 432 6 16
4 205 454 1 49
5 11 14 1 22
5 32 37 1 5
5 223 43 1 35
5 17 79 1 38
5 19 118 1 13
5 122 132 1 7
5 34 140 1 28
5 128 169 1 30
5 68 200 1 46
5 123 247 1 20
5 189 268 1 6
5 52 275 1 20
5 155 296 1 12
5 94 309 1 26
5 26 336 1 38
5 220 375 6 45
5 237 426 1 33
5 177 460 1 36
6 10 30 1 4
6 203 35 1 10
6 43 46 1 36
6 24 83 1 11
6 144 95 1 28
6 48 124 1 16
6 234 141 1 30
6 14 172 1 18
6 218 191 1 13
6 61 205 1 49
6 154 255 1 24
6 190 280 1 3
6 211 284 1 40
6 141 325 1 4
6 55 330 1 46
6 204 377 1 11
6 197 389 1 14
6 206 404 1 10
6 112 415 1 48
6 131 464 3 34
7 31 12 1 28
7 33 41 1 48
7 75 90 1 33
7 62 124 1 14
7 82 139 1 36
7 36 176 1 30
7 188 207 1 30
7 124 238 1 1
7 133 240 1 23
7 103 264 1 43
7 138 308 1 47
7 221 356 3 43
7 53 402 1 3
7 40 406 1 37
7 196 444 1 43
7 185 488 9 37
8 49 22 1 37
8 164 60 1 49
8 22 110 1 24
8 97 135 1 25
8 158 161 1 23
8 198 185 1 44
8 170 230 1 22
8 227 253 2 23
8 231 278 1 20
8 179 299 1 13
8 232 313 1 31
8 46 345 1 25
8 159 371 2 1
8 195 374 1 17
8 73 392 1 1
8 37 394 1 44
8 29 439 1 29
8 166 469 1 7
8 217 477 10 16
9 66 13 1 33
9 160 47 1 4
9 76 52 1 22
9 192 75 1 20
9 146 96 1 34
9 84 131 1 7
9 130 139 1 48
9 168 188 1 12
9 100 201 1 49
9 148 251 1 43
9 219 295 2 15
9 111 312 1 45
9 226 358 1 17
9 107 376 1 6
9 70 383 1 7
9 152 391 1 44
9 208 436 2 42
9 165 480 10 2
10 92 17 1 43
10 30 61 1 17
10 109 79 1 14
10 59 94 1 24
10 167 119 1 10
10 89 130 1 4
10 91 135 1 7
10 81 143 1 19
10 228 163 1 33
10 116 197 1 48
10 174 246 1 5
10 235 252 1 19
10 194 272 1 34
10 173 307 1 38
10 199 346 1 25
10 212 372 1 13
10 113 386 1 28
10 213 415 1 15
10 27 431 1 41
10 216 473 1 24
11 127 29 1 39
11 9 69 1 24
11 15 94 1 36
11 64 131 1 12
11 98 144 1 31
11 41 176 1 32
11 80 209 1 42
11 139 252 1 26
11 72 279 1 29
11 143 309 2 42
11 178 353 1 1
11 110 355 1 37
11 210 393 2 19
11 181 414 2 40
11 132 456 4 16
11 187 476 1 1
11 44 478 16 48
542 65