Machines, Tasks, Workers
14 280 2
M, T, St, Se, P 
0 158 0 0 20
1 0 0 0 23
2 1 0 0 7
3 2 0 0 49
4 3 0 0 36
5 4 0 0 27
6 5 0 0 11
7 6 0 0 17
8 7 0 0 40
9 8 0 0 6
10 9 0 0 47
11 10 0 0 42
12 11 0 0 14
13 12 0 0 18
0 34 20 1 5
0 18 26 1 25
0 145 52 1 43
0 75 96 1 12
0 71 109 1 23
0 87 133 1 28
0 221 162 1 40
0 88 203 2 49
0 110 254 1 15
0 151 270 1 39
0 241 310 1 1
0 242 312 1 48
0 194 361 1 25
0 247 388 2 19
0 246 409 1 25
0 86 435 1 14
0 35 450 3 24
0 267 477 1 9
0 248 487 8 6
0 167 501 1 31
0 271 557 34 21
1 55 23 1 9
1 44 33 1 3
1 107 37 1 33
1 29 71 1 21
1 135 93 1 8
1 85 102 1 3
1 61 106 1 24
1 70 131 1 18
1 65 150 1 27
1 195 178 1 34
1 53 213 1 34
1 103 248 1 21
1 175 271 1 33
1 157 305 1 1
1 224 307 2 42
1 227 351 1 34
1 169 386 2 14
1 257 403 1 22
1 237 426 2 33
1 217 462 1 24
1 102 492 2 46
2 25 7 1 33
2 90 41 1 35
2 21 77 1 38
2 56 116 1 6
2 59 123 1 34
2 196 158 1 5
2 129 164 1 39
2 94 204 1 6
2 218 211 1 24
2 160 236 1 28
2 139 265 1 32
2 225 298 1 37
2 185 336 1 32
2 159 369 1 19
2 253 389 1 45
2 84 435 1 31
2 268 468 1 43
2 231 519 16 23
3 41 49 1 27
3 19 77 1 36
3 57 114 1 49
3 39 165 1 35
3 179 201 1 28
3 80 230 1 23
3 183 254 1 34
3 250 289 1 12
3 33 302 1 2
3 54 305 1 48
3 115 354 1 46
3 234 401 1 5
3 233 407 1 47
3 232 455 2 49
3 229 506 2 26
4 104 36 1 19
4 79 56 1 4
4 26 61 1 19
4 48 81 1 44
4 119 126 1 48
4 112 175 1 24
4 191 200 1 45
4 72 246 1 7
4 77 255 1 6
4 96 262 1 48
4 215 311 1 19
4 178 331 1 26
4 118 358 1 24
4 269 384 1 18
4 206 403 1 18
4 189 422 1 40
4 260 465 3 46
4 124 528 12 44
5 83 27 1 14
5 27 42 1 3
5 62 46 1 10
5 131 57 1 28
5 105 86 1 3
5 208 90 1 14
5 36 105 1 5
5 143 111 1 46
5 78 158 1 7
5 76 166 1 15
5 45 182 1 44
5 16 227 1 30
5 202 258 1 22
5 200 281 1 16
5 150 298 1 47
5 219 346 1 32
5 197 379 1 2
5 98 382 2 29
5 210 413 1 18
5 58 432 3 30
5 205 466 4 13
5 186 483 9 16
5 128 510 3 9
5 259 535 4 50
6 106 11 1 27
6 28 39 1 8
6 63 48 1 26
6 117 75 1 26
6 32 102 1 46
6 74 149 1 17
6 20 167 1 39
6 149 207 1 50
6 251 258 1 16
6 134 275 1 24
6 51 300 1 38
6 15 339 1 26
6 181 366 2 25
6 207 393 4 3
6 122 400 1 18
6 126 419 1 24
6 228 444 1 14
6 168 459 4 43
6 277 508 2 13
6 243 539 18 22
7 92 17 1 27
7 140 45 1 49
7 156 95 1 5
7 214 101 1 18
7 99 120 1 44
7 66 165 1 17
7 64 183 1 50
7 165 234 1 35
7 138 270 1 5
7 213 276 1 46
7 50 323 1 14
7 258 338 1 20
7 192 359 1 12
7 223 372 1 14
7 262 387 1 26
7 256 414 1 46
7 239 461 1 15
7 265 477 1 48
7 261 540 13 22
8 13 40 1 17
8 24 58 1 19
8 14 78 1 19
8 73 98 1 23
8 111 122 1 48
8 42 171 1 37
8 146 209 1 24
8 198 234 1 20
8 47 255 1 41
8 174 297 1 10
8 220 308 1 35
8 275 344 1 36
8 266 381 3 8
8 161 392 1 21
8 137 415 1 45
8 279 463 3 17
8 132 483 4 24
8 226 514 14 45
9 37 6 1 42
9 30 49 1 33
9 67 83 1 42
9 101 126 1 25
9 69 152 1 22
9 274 175 1 38
9 147 214 1 49
9 22 264 1 4
9 127 269 1 34
9 238 304 1 44
9 240 349 1 15
9 254 365 1 48
9 211 415 1 38
9 199 454 1 37
9 278 495 1 10
9 204 506 3 42
10 152 47 1 21
10 43 69 1 5
10 82 75 1 8
10 125 84 1 26
10 49 111 1 21
10 155 133 1 46
10 201 180 1 31
10 170 212 1 29
10 162 242 1 6
10 52 249 1 5
10 97 256 1 49
10 173 306 1 13
10 38 320 1 31
10 273 352 1 49
10 121 402 1 9
10 136 412 2 2
10 272 416 7 34
10 212 457 1 39
10 249 497 3 34
11 141 42 1 20
11 40 63 1 25
11 109 89 1 45
11 209 135 1 27
11 120 163 1 21
11 116 185 1 37
11 245 223 1 24
11 60 248 1 7
11 184 257 1 30
11 216 288 1 10
11 114 299 1 23
11 133 323 1 22
11 182 346 1 43
11 188 390 1 16
11 163 407 2 45
11 263 455 1 34
11 236 494 1 31
11 270 553 8 34
12 17 14 1 33
12 164 48 1 43
12 93 92 1 2
12 180 95 1 19
12 91 115 1 20
12 144 136 1 12
12 100 149 1 14
12 95 164 1 26
12 171 191 1 20
12 68 212 1 2
12 153 215 1 35
12 154 251 1 41
12 190 293 1 27
12 130 321 1 23
12 187 345 1 10
12 244 356 1 44
12 108 401 2 49
12 172 452 3 23
12 276 478 2 11
12 193 495 3 11
12 230 513 6 45
13 81 18 1 41
13 23 60 1 44
13 31 105 1 18
13 148 124 1 5
13 46 130 1 5
13 264 136 1 42
13 123 179 1 14
13 142 194 1 34
13 176 229 1 14
13 113 244 1 10
13 177 256 1 46
13 89 303 1 37
13 203 341 2 37
13 222 380 1 18
13 255 399 1 14
13 235 414 1 48
13 252 463 2 42
13 166 509 5 22
612 0