Machines, Tasks, Workers
20 300 5
M, T, St, Se, P 
0 89 0 0 16
1 192 0 0 42
2 0 0 0 23
3 1 0 0 38
4 2 0 0 44
5 3 0 0 29
6 4 0 0 22
7 5 0 0 8
8 6 0 0 31
9 7 0 0 41
10 8 0 0 4
11 9 0 0 11
12 10 0 0 20
13 11 0 0 49
14 12 0 0 36
15 13 0 0 27
16 14 0 0 26
17 15 0 0 4
18 16 0 0 7
19 17 0 0 42
0 70 16 1 12
0 72 29 1 24
0 57 54 1 43
0 42 98 1 44
0 203 143 1 2
0 248 146 1 28
0 117 175 1 11
0 205 187 1 19
0 291 207 1 40
0 178 248 1 11
0 198 260 1 1
0 208 262 2 32
0 27 296 1 5
0 222 302 1 29
0 280 332 1 47
0 284 380 17 24
1 66 42 1 35
1 76 78 1 4
1 162 83 1 48
1 99 132 1 6
1 155 139 1 22
1 79 162 1 30
1 237 193 1 28
1 165 222 1 33
1 149 256 1 16
1 258 273 2 40
1 228 315 2 9
1 231 326 1 40
1 273 367 1 2
1 254 370 2 35
2 55 23 1 21
2 77 45 1 37
2 97 83 1 36
2 215 120 1 25
2 88 146 1 37
2 61 184 1 12
2 209 197 1 20
2 247 218 1 47
2 204 266 1 46
2 201 313 1 49
2 299 363 1 13
2 270 377 7 47
3 62 38 1 12
3 100 51 1 49
3 18 101 1 20
3 20 122 1 21
3 78 144 1 20
3 104 165 1 48
3 168 214 1 19
3 169 234 1 47
3 139 282 1 17
3 271 300 1 50
3 38 351 1 31
3 234 390 10 17
4 130 44 1 11
4 54 56 1 13
4 36 70 1 1
4 113 72 1 11
4 47 84 1 3
4 56 88 1 7
4 152 96 1 3
4 74 100 1 17
4 119 118 1 7
4 110 126 1 45
4 160 172 2 22
4 240 196 1 22
4 232 219 1 3
4 80 223 1 49
4 148 273 1 37
4 285 311 1 3
4 183 315 1 25
4 164 341 1 49
5 44 29 1 46
5 134 76 1 36
5 116 113 1 11
5 126 125 1 8
5 120 134 1 1
5 59 136 1 35
5 65 172 1 5
5 166 178 1 47
5 143 226 1 3
5 213 230 1 39
5 274 270 1 39
5 102 310 1 9
5 225 320 1 25
5 221 346 1 14
5 196 361 1 18
5 298 383 26 14
6 31 22 1 32
6 84 55 1 35
6 39 91 1 5
6 115 97 1 18
6 108 116 1 12
6 33 129 1 12
6 167 142 1 27
6 98 170 1 3
6 131 174 1 42
6 82 217 1 2
6 172 220 1 17
6 135 238 1 22
6 185 261 1 19
6 227 281 1 29
6 288 311 2 24
6 191 337 2 29
6 239 368 3 42
7 28 8 1 33
7 67 42 1 48
7 43 91 1 45
7 125 137 1 3
7 71 141 1 50
7 151 192 1 29
7 41 222 1 49
7 112 272 2 21
7 193 295 1 15
7 269 311 1 25
7 266 337 2 35
7 294 374 1 41
8 173 31 1 19
8 46 51 1 39
8 93 91 1 21
8 69 113 1 35
8 40 149 1 20
8 122 170 1 15
8 186 186 1 35
8 189 222 1 15
8 235 238 1 28
8 263 267 1 25
8 279 293 2 36
8 216 331 1 30
8 257 362 1 14
8 265 377 6 1
8 174 394 6 32
9 75 41 1 29
9 83 71 1 21
9 50 93 1 22
9 118 116 1 12
9 95 129 1 28
9 140 158 1 47
9 219 206 1 43
9 87 250 1 18
9 229 269 1 25
9 233 295 1 24
9 277 320 1 25
9 281 346 2 35
9 260 384 10 31
10 58 4 1 22
10 91 27 1 25
10 32 53 1 37
10 52 91 1 29
10 92 121 1 18
10 105 140 1 27
10 220 168 1 20
10 137 189 2 36
10 106 227 1 4
10 253 232 1 39
10 287 272 1 50
10 199 323 2 27
10 290 352 2 44
11 241 11 1 47
11 132 59 1 2
11 153 62 1 36
11 150 99 1 30
11 147 130 1 24
11 175 155 1 18
11 111 174 1 38
11 133 213 1 15
11 244 229 1 17
11 29 247 1 15
11 210 263 1 37
11 268 301 1 23
11 272 325 1 22
11 226 348 9 9
11 251 366 5 20
12 30 20 1 10
12 34 31 1 9
12 19 41 1 11
12 49 53 1 32
12 94 86 1 28
12 81 115 1 12
12 35 128 1 41
12 177 170 2 8
12 129 180 1 35
12 197 216 1 6
12 179 223 1 22
12 275 246 1 35
12 159 282 2 42
12 249 326 1 25
12 276 352 2 3
12 293 357 2 27
12 252 397 23 34
13 141 49 1 45
13 121 95 1 24
13 163 120 1 16
13 194 137 1 13
13 53 151 1 21
13 127 173 1 19
13 255 193 1 20
13 250 214 3 40
13 157 257 1 28
13 217 286 2 13
13 283 301 3 10
13 289 314 1 3
13 187 318 1 32
13 295 351 7 14
13 259 372 1 42
14 64 36 1 42
14 101 79 1 20
14 48 100 1 36
14 45 137 1 19
14 184 157 1 27
14 114 185 1 44
14 195 230 1 26
14 264 257 1 17
14 214 275 2 23
14 223 300 1 14
14 243 315 4 13
14 230 332 1 36
14 286 369 5 14
15 23 27 1 21
15 26 49 1 45
15 103 95 1 12
15 107 108 1 37
15 245 146 1 37
15 142 184 1 18
15 207 203 1 5
15 218 209 1 35
15 176 245 1 45
15 238 291 1 14
15 202 306 2 47
15 296 355 1 24
15 297 380 10 2
16 22 26 1 30
16 60 57 1 33
16 154 91 1 35
16 138 127 1 46
16 86 174 1 39
16 211 214 1 44
16 200 259 2 48
16 96 309 1 17
16 212 327 5 39
16 242 371 9 15
17 123 4 1 35
17 25 40 1 14
17 63 55 1 46
17 51 102 1 37
17 145 140 1 4
17 136 145 1 22
17 278 168 1 45
17 180 214 1 22
17 292 237 1 15
17 146 253 1 41
17 181 295 2 45
17 267 342 2 36
17 261 380 23 24
18 124 7 1 12
18 73 20 1 48
18 21 69 1 24
18 171 94 1 48
18 190 143 1 14
18 37 158 1 49
18 206 208 1 8
18 156 217 1 17
18 182 235 1 34
18 170 270 1 42
18 236 313 1 46
18 282 360 4 25
19 85 42 1 37
19 161 80 1 22
19 68 103 1 21
19 144 125 1 18
19 109 144 1 13
19 24 158 1 17
19 128 176 1 4
19 158 181 1 42
19 224 224 1 15
19 90 240 1 23
19 188 264 1 19
19 256 284 1 46
19 262 331 1 40
19 246 372 4 14
454 1