Machines, Tasks, Workers
20 300 5
M, T, St, Se, P 
0 89 0 0 16
1 192 0 0 42
2 0 0 0 23
3 1 0 0 38
4 2 0 0 44
5 3 0 0 29
6 4 0 0 22
7 5 0 0 8
8 6 0 0 31
9 7 0 0 41
10 8 0 0 4
11 9 0 0 11
12 10 0 0 20
13 11 0 0 49
14 12 0 0 36
15 13 0 0 27
16 14 0 0 26
17 15 0 0 4
18 16 0 0 7
19 17 0 0 42
0 96 16 1 17
0 33 34 1 12
0 39 47 1 5
0 54 53 1 13
0 86 67 1 39
0 281 107 1 35
0 90 143 1 23
0 53 167 1 21
0 238 189 1 14
0 161 204 1 22
0 82 227 1 2
0 150 230 1 30
0 172 261 1 17
0 135 279 1 22
0 176 302 1 45
0 237 348 1 28
0 265 377 5 1
1 259 42 1 42
1 279 85 1 36
1 35 122 1 41
1 73 164 1 48
1 247 213 1 47
1 72 261 1 24
1 297 286 1 2
1 289 289 1 3
1 187 293 1 32
1 145 326 1 4
1 184 331 1 27
1 181 359 1 45
2 102 23 1 9
2 129 33 1 35
2 197 69 1 6
2 32 76 1 37
2 188 114 1 19
2 55 134 1 21
2 77 156 1 37
2 97 194 1 36
2 266 231 1 35
2 294 267 1 41
2 174 309 1 32
2 267 342 1 36
2 287 379 5 50
3 191 38 1 29
3 18 68 1 20
3 20 89 1 21
3 78 111 1 20
3 104 132 1 48
3 168 181 1 19
3 169 201 1 47
3 105 249 1 27
3 220 277 1 20
3 115 298 1 18
3 292 317 1 15
3 195 333 4 26
3 280 363 6 47
4 136 44 1 22
4 278 67 1 45
4 101 113 1 20
4 48 134 1 36
4 137 171 1 36
4 106 208 1 4
4 253 213 1 39
4 204 253 1 46
4 201 300 1 49
4 277 350 1 25
4 225 376 1 25
5 44 29 1 46
5 134 76 1 36
5 221 113 1 14
5 117 128 1 11
5 94 140 1 28
5 81 169 1 12
5 269 182 1 25
5 65 208 1 5
5 166 214 1 47
5 143 262 1 3
5 255 266 1 20
5 61 287 1 12
5 245 300 1 37
5 215 338 1 25
5 283 364 1 10
5 231 375 9 40
6 31 22 1 32
6 84 55 1 35
6 21 91 1 24
6 171 116 1 48
6 216 165 1 30
6 257 196 1 14
6 246 211 1 14
6 243 226 1 13
6 284 240 1 24
6 190 265 1 14
6 57 280 1 43
6 76 324 1 4
6 285 329 1 3
6 178 333 1 11
6 198 345 1 1
6 175 347 2 18
6 286 367 13 14
7 28 8 1 33
7 67 42 1 48
7 43 91 1 45
7 62 137 1 12
7 151 150 1 29
7 41 180 1 49
7 127 230 1 19
7 276 250 1 3
7 209 254 1 20
7 196 275 2 18
7 112 295 1 21
7 180 317 1 22
7 264 340 4 17
7 252 361 5 34
8 173 31 1 19
8 46 51 1 39
8 93 91 1 21
8 69 113 1 35
8 40 149 1 20
8 122 170 1 15
8 22 186 1 30
8 298 217 1 14
8 242 232 1 15
8 120 248 2 1
8 59 251 1 35
8 291 287 2 40
8 295 329 1 14
8 270 344 1 47
9 75 41 1 29
9 83 71 1 21
9 50 93 1 22
9 189 116 1 15
9 60 132 1 33
9 85 166 1 37
9 271 204 1 50
9 38 255 1 31
9 110 287 1 45
9 177 333 2 8
9 193 343 1 15
9 182 359 1 34
10 58 4 1 22
10 91 27 1 25
10 222 53 1 29
10 51 83 1 37
10 272 121 1 22
10 114 144 1 44
10 142 189 1 18
10 207 208 1 5
10 249 214 1 25
10 179 240 1 22
10 275 263 1 35
10 108 299 2 12
10 213 313 2 39
10 244 354 7 17
10 158 378 2 42
11 241 11 1 47
11 212 59 1 39
11 116 99 1 11
11 103 111 1 12
11 234 124 1 17
11 36 142 1 1
11 229 144 1 25
11 233 170 1 24
11 232 195 1 3
11 80 199 1 49
11 118 249 1 12
11 95 262 1 28
11 140 291 1 47
11 288 339 1 24
11 185 364 1 19
12 30 20 1 10
12 34 31 1 9
12 19 41 1 11
12 49 53 1 32
12 228 86 1 9
12 261 96 1 24
12 47 121 1 3
12 274 125 1 39
12 248 165 1 28
12 132 194 3 2
12 153 199 1 36
12 113 236 1 11
12 162 248 1 48
12 218 297 2 35
12 235 334 1 28
12 263 363 1 25
13 141 49 1 45
13 121 95 1 24
13 163 120 1 16
13 200 137 1 48
13 126 186 1 8
13 159 195 1 42
13 99 238 1 6
13 290 245 1 44
13 37 290 1 49
13 230 340 1 36
14 64 36 1 42
14 100 79 1 49
14 250 129 1 40
14 157 170 1 28
14 45 199 2 19
14 194 220 1 13
14 260 234 1 31
14 236 266 1 46
14 183 313 1 25
14 154 339 2 35
14 138 376 1 46
15 268 27 1 23
15 214 51 1 23
15 223 75 1 14
15 23 90 1 21
15 26 112 1 45
15 217 158 1 13
15 208 172 1 32
15 224 205 1 15
15 254 221 1 35
15 42 257 1 44
15 203 302 1 2
15 293 305 1 27
15 273 333 1 2
15 149 336 1 16
15 211 353 1 44
16 27 26 1 5
16 24 32 1 17
16 109 50 1 13
16 92 64 1 18
16 146 83 1 41
16 160 125 1 22
16 240 148 1 22
16 256 171 1 46
16 262 218 1 40
16 66 259 1 35
16 167 295 1 27
16 98 323 1 3
16 131 327 1 42
16 165 370 4 33
17 123 4 1 35
17 25 40 1 14
17 63 55 1 46
17 239 102 1 42
17 130 145 1 11
17 148 157 1 37
17 68 195 1 21
17 144 217 1 18
17 125 236 1 3
17 71 240 1 50
17 170 291 1 42
17 147 334 1 24
17 88 359 7 37
18 124 7 1 12
18 164 20 1 49
18 56 70 1 7
18 152 78 1 3
18 74 82 1 17
18 119 100 1 7
18 202 108 1 47
18 296 156 1 24
18 206 181 1 8
18 156 190 1 17
18 186 208 1 35
18 52 244 1 29
18 227 274 1 29
18 111 304 1 38
18 133 343 1 15
18 219 359 1 43
19 282 42 1 25
19 128 68 1 4
19 199 73 1 27
19 155 101 1 22
19 79 124 1 30
19 251 155 1 20
19 226 176 1 9
19 258 186 1 40
19 205 227 1 19
19 299 247 1 13
19 70 261 1 12
19 139 274 1 17
19 29 292 1 15
19 210 308 1 37
19 87 346 1 18
19 107 365 2 37
434 126