Machines, Tasks, Workers
14 210 5
M, T, St, Se, P 
0 37 0 0 17
1 129 0 0 38
2 0 0 0 23
3 1 0 0 40
4 2 0 0 9
5 3 0 0 11
6 4 0 0 36
7 5 0 0 3
8 6 0 0 7
9 7 0 0 9
10 8 0 0 17
11 9 0 0 45
12 10 0 0 41
13 11 0 0 42
0 182 17 1 38
0 155 56 1 42
0 28 99 2 38
0 137 139 1 18
0 63 158 1 25
0 52 184 1 35
0 19 220 1 44
0 173 265 1 11
0 207 277 2 13
0 131 292 1 38
0 150 331 1 27
0 40 359 4 33
1 144 38 1 49
1 108 88 1 41
1 56 130 1 37
1 12 168 1 47
1 165 216 1 49
1 98 266 1 22
1 161 289 1 50
1 96 340 8 7
1 20 355 4 26
1 181 385 2 39
2 102 23 1 6
2 57 30 1 16
2 44 47 1 2
2 54 50 1 14
2 170 65 1 7
2 118 73 1 16
2 171 90 1 1
2 88 92 1 17
2 64 110 1 44
2 29 155 1 10
2 95 166 1 35
2 198 202 1 26
2 189 229 1 43
2 38 273 2 35
2 164 310 1 14
2 65 325 1 41
2 141 367 18 21
3 15 40 1 14
3 66 55 1 37
3 158 93 1 41
3 73 135 2 4
3 206 141 1 15
3 49 157 1 22
3 101 180 1 24
3 123 205 1 22
3 122 228 1 30
3 151 259 1 49
3 113 309 1 19
3 133 329 2 40
3 99 371 4 22
4 193 9 1 8
4 154 18 1 18
4 93 37 1 32
4 138 70 1 5
4 175 76 1 29
4 35 106 1 42
4 84 149 1 26
4 196 176 1 49
4 22 226 1 36
4 135 263 1 1
4 168 265 1 24
4 130 290 4 25
4 32 319 1 19
4 178 339 1 41
5 100 11 1 12
5 71 24 1 22
5 51 47 1 42
5 203 90 1 33
5 200 124 1 47
5 76 172 1 49
5 39 222 1 32
5 132 255 1 44
5 41 300 1 16
5 72 317 1 48
5 106 366 11 35
6 187 36 1 44
6 112 81 1 31
6 134 113 1 10
6 18 124 1 3
6 114 128 1 29
6 34 158 1 33
6 169 192 1 20
6 17 213 1 44
6 13 258 1 4
6 14 263 3 15
6 30 281 1 24
6 58 306 4 49
6 176 359 2 24
7 153 3 1 17
7 116 21 1 28
7 209 50 1 7
7 25 58 1 26
7 127 85 1 28
7 125 114 1 20
7 21 135 1 35
7 140 171 2 3
7 208 176 1 5
7 104 182 1 7
7 61 190 1 19
7 152 210 1 23
7 103 234 1 23
7 27 258 1 22
7 45 281 2 26
7 156 309 2 26
7 159 337 1 18
7 42 356 1 1
7 119 358 2 24
7 105 384 2 18
8 78 7 1 47
8 197 55 1 42
8 16 98 1 18
8 81 117 1 24
8 70 142 1 32
8 172 175 1 39
8 94 215 1 27
8 136 243 1 46
8 202 290 2 24
8 183 316 1 11
8 60 328 3 44
8 110 375 3 37
9 36 9 1 3
9 62 13 1 49
9 124 63 1 2
9 23 66 1 3
9 139 70 1 33
9 128 104 1 48
9 142 153 1 5
9 174 159 1 4
9 46 164 1 10
9 80 175 1 7
9 184 183 1 5
9 143 189 1 17
9 192 207 1 12
9 188 220 1 20
9 67 241 1 42
9 120 284 1 35
9 205 320 4 8
9 199 332 1 38
9 149 371 16 18
10 92 17 1 22
10 91 40 1 39
10 191 80 1 4
10 59 85 1 28
10 201 114 1 19
10 87 134 1 35
10 162 170 1 23
10 86 194 1 41
10 48 236 3 5
10 47 244 1 30
10 69 275 1 7
10 167 283 1 38
10 180 322 2 8
10 85 332 1 43
10 107 376 2 1
10 146 379 3 18
11 83 45 1 29
11 97 75 1 28
11 50 104 1 41
11 177 146 2 13
11 194 161 1 10
11 117 172 2 33
11 26 207 1 45
11 145 253 1 29
11 68 283 3 38
11 166 324 1 20
11 43 345 1 49
12 75 41 1 28
12 77 70 1 10
12 74 81 1 26
12 31 108 1 17
12 147 126 1 29
12 160 156 1 21
12 109 178 1 19
12 195 198 1 5
12 126 204 2 2
12 121 208 1 25
12 24 234 1 25
12 79 260 2 29
12 163 291 1 6
12 111 298 1 44
12 157 343 1 15
12 185 359 11 32
13 148 42 1 48
13 53 91 1 37
13 179 129 1 29
13 115 159 1 10
13 186 170 1 10
13 89 181 1 8
13 55 190 1 39
13 204 230 1 35
13 82 266 1 33
13 33 300 3 25
13 190 328 6 15
13 90 349 2 46
426 42