Machines, Tasks, Workers
20 300 2
M, T, St, Se, P 
0 89 0 0 16
1 192 0 0 42
2 0 0 0 23
3 1 0 0 38
4 2 0 0 44
5 3 0 0 29
6 4 0 0 22
7 5 0 0 8
8 6 0 0 31
9 7 0 0 41
10 8 0 0 4
11 9 0 0 11
12 10 0 0 20
13 11 0 0 49
14 12 0 0 36
15 13 0 0 27
16 14 0 0 26
17 15 0 0 4
18 16 0 0 7
19 17 0 0 42
0 96 16 1 17
0 33 34 1 12
0 39 47 1 5
0 54 53 1 13
0 86 67 1 39
0 281 107 1 35
0 90 143 1 23
0 53 167 1 21
0 238 189 1 14
0 161 205 1 22
0 68 228 1 21
0 144 250 1 18
0 245 270 1 37
0 293 308 1 27
0 127 336 1 19
0 276 356 1 3
0 209 360 1 20
0 237 381 2 28
0 231 415 1 40
1 259 42 1 42
1 279 85 1 36
1 35 122 1 41
1 73 164 1 48
1 178 219 1 11
1 218 233 1 35
1 176 269 1 45
1 112 315 1 21
1 140 337 1 47
1 242 385 5 15
2 102 23 1 9
2 129 33 1 35
2 197 69 1 6
2 32 76 1 37
2 188 114 1 19
2 55 134 1 21
2 77 157 1 37
2 97 199 1 36
2 215 237 1 25
2 252 263 1 34
2 106 298 1 4
2 253 303 1 39
2 287 343 1 50
2 286 430 3 14
3 191 38 1 29
3 18 68 1 20
3 20 89 1 21
3 78 111 1 20
3 104 132 1 48
3 168 181 1 19
3 169 204 1 47
3 139 252 1 17
3 294 270 24 41
3 174 335 1 32
3 267 368 1 36
4 136 44 1 22
4 278 67 1 45
4 101 113 1 20
4 48 134 1 36
4 45 171 1 19
4 194 191 1 13
4 76 208 1 4
4 162 218 1 48
4 95 267 1 28
4 195 296 1 26
4 186 323 1 35
4 158 360 3 42
5 44 29 1 46
5 134 76 1 36
5 221 113 1 14
5 117 128 1 11
5 94 140 1 28
5 81 169 1 12
5 269 182 1 25
5 29 211 3 15
5 52 229 2 29
5 167 260 2 27
5 98 293 1 3
5 131 297 1 42
5 219 340 3 43
5 87 390 1 18
6 31 22 1 32
6 84 55 1 35
6 21 91 1 24
6 171 116 1 48
6 216 165 1 30
6 99 200 1 6
6 290 209 1 44
6 285 254 1 3
6 183 258 1 25
6 154 286 2 35
6 170 324 1 42
6 280 367 1 47
7 28 8 1 33
7 67 42 1 48
7 43 91 1 45
7 62 137 1 12
7 151 150 1 29
7 41 180 1 49
7 72 231 2 24
7 297 257 1 2
7 118 260 1 12
7 59 275 5 35
7 257 315 2 14
7 246 331 1 14
7 243 346 1 13
7 284 361 1 24
7 107 390 2 37
8 173 31 1 19
8 46 51 1 39
8 93 92 1 21
8 69 114 1 35
8 40 150 1 20
8 122 172 1 15
8 22 188 1 30
8 57 221 1 43
8 42 265 1 44
8 235 311 2 28
8 263 341 1 25
8 225 367 9 25
9 75 41 1 29
9 83 71 1 21
9 50 93 1 22
9 189 116 1 15
9 60 132 1 33
9 85 166 1 37
9 251 206 1 20
9 226 227 1 9
9 258 238 1 40
9 247 280 1 47
9 204 328 1 46
9 201 380 1 49
10 58 4 1 22
10 91 27 1 25
10 222 53 1 29
10 51 83 1 37
10 272 121 1 22
10 114 144 1 44
10 142 189 1 18
10 207 215 1 5
10 147 222 1 24
10 175 247 1 18
10 203 266 1 2
10 260 269 1 31
10 264 301 1 17
10 149 319 2 16
10 211 337 1 44
10 277 385 5 25
11 241 11 1 47
11 212 59 1 39
11 116 99 1 11
11 103 111 1 12
11 234 124 1 17
11 36 142 1 1
11 229 144 1 25
11 233 170 1 24
11 232 195 1 3
11 80 201 1 49
11 254 252 1 35
11 172 292 1 17
11 181 310 1 45
11 288 356 2 24
11 190 383 2 14
11 180 433 2 22
12 30 20 1 10
12 34 31 1 9
12 19 41 1 11
12 49 54 1 32
12 228 87 1 9
12 261 97 1 24
12 47 122 1 3
12 274 126 1 39
12 248 166 1 28
12 137 195 3 36
12 37 235 2 49
12 115 288 4 18
12 38 310 3 31
12 198 344 4 1
12 255 349 3 20
12 135 376 4 22
13 141 49 1 45
13 121 95 1 24
13 163 120 1 16
13 200 137 1 48
13 126 186 1 8
13 159 198 1 42
13 249 241 1 25
13 179 267 1 22
13 166 294 1 47
13 143 343 1 3
13 213 347 1 39
13 230 392 23 36
14 64 36 1 42
14 100 79 1 49
14 250 129 1 40
14 157 170 1 28
14 105 202 2 27
14 125 234 1 3
14 71 238 1 50
14 82 294 2 2
14 70 298 2 12
14 185 313 1 19
14 177 333 1 8
14 193 342 1 15
14 299 359 1 13
14 271 378 1 50
15 268 27 1 23
15 214 51 1 23
15 223 75 1 14
15 23 90 1 21
15 26 112 1 45
15 217 158 1 13
15 208 172 1 32
15 224 207 1 15
15 138 223 1 46
15 110 271 4 45
15 275 320 2 35
15 108 357 2 12
15 298 371 7 14
15 273 393 37 2
16 27 26 1 5
16 24 32 1 17
16 109 50 1 13
16 92 64 1 18
16 146 83 1 41
16 160 125 1 22
16 240 148 1 22
16 256 171 1 46
16 262 220 1 40
16 66 261 1 35
16 205 297 1 19
16 291 317 1 40
16 295 358 1 14
16 210 379 1 37
17 123 4 1 35
17 25 40 1 14
17 63 55 1 46
17 239 102 1 42
17 130 145 1 11
17 148 157 1 37
17 283 196 42 10
17 132 248 1 2
17 227 251 1 29
17 65 281 4 5
17 266 296 1 35
17 292 332 1 15
17 111 348 1 38
17 133 392 1 15
18 124 7 1 12
18 164 20 1 49
18 56 70 1 7
18 152 78 1 3
18 74 82 1 17
18 119 100 1 7
18 202 108 1 47
18 296 156 1 24
18 206 181 1 8
18 156 190 1 17
18 153 214 1 36
18 113 251 1 11
18 289 263 2 3
18 270 268 1 47
18 244 316 1 17
18 196 334 1 18
18 220 353 1 20
18 120 380 5 1
18 236 391 1 46
19 282 43 1 25
19 128 69 1 4
19 199 74 1 27
19 155 102 1 22
19 79 125 1 30
19 88 156 1 37
19 61 194 1 12
19 265 210 1 1
19 150 216 2 30
19 187 248 1 32
19 145 285 1 4
19 184 295 1 27
19 182 323 1 34
19 165 359 1 33
457 121