Machines, Tasks, Workers
18 360 5
M, T, St, Se, P 
0 0 0 0 23
1 1 0 0 35
2 2 0 0 30
3 3 0 0 49
4 4 0 0 13
5 5 0 0 31
6 6 0 0 24
7 7 0 0 47
8 8 0 0 22
9 9 0 0 6
10 10 0 0 36
11 11 0 0 5
12 12 0 0 10
13 13 0 0 18
14 14 0 0 25
15 15 0 0 20
16 16 0 0 11
17 17 0 0 19
0 55 23 1 35
0 76 59 1 13
0 107 73 1 7
0 206 81 1 32
0 97 114 1 34
0 130 149 1 17
0 73 167 1 2
0 182 170 1 5
0 114 176 1 3
0 143 180 1 50
0 35 231 1 44
0 161 276 1 3
0 239 280 1 15
0 246 296 1 18
0 199 315 1 43
0 167 359 1 38
0 255 398 1 18
0 259 417 1 46
0 350 464 13 10
0 263 487 27 8
1 82 35 1 20
1 88 56 1 16
1 39 73 1 35
1 150 109 1 22
1 49 132 1 26
1 125 159 1 30
1 51 190 1 21
1 72 212 1 39
1 122 252 1 32
1 217 285 1 17
1 181 303 1 18
1 268 322 2 32
1 322 356 1 21
1 223 378 1 16
1 287 395 1 27
1 212 423 1 47
1 358 471 4 49
2 65 30 1 20
2 40 51 1 36
2 46 88 1 34
2 193 123 1 5
2 75 129 1 23
2 95 153 1 44
2 142 198 1 15
2 166 214 1 36
2 252 251 1 25
2 175 277 1 37
2 87 315 1 18
2 301 334 1 11
2 221 346 3 12
2 277 361 1 2
2 149 364 1 19
2 343 384 1 17
2 349 402 1 3
2 311 406 1 4
2 262 411 1 18
2 248 430 3 19
2 204 452 2 23
2 312 477 4 3
2 324 523 10 4
3 123 49 1 18
3 189 68 1 22
3 115 91 1 46
3 86 138 1 3
3 69 142 1 29
3 111 172 1 3
3 159 176 1 30
3 172 207 1 21
3 328 229 1 25
3 219 255 1 7
3 102 263 2 34
3 289 299 1 29
3 197 329 1 8
3 346 338 1 9
3 202 348 1 7
3 225 356 1 47
3 321 404 2 38
3 270 444 2 39
3 292 485 2 2
4 66 13 1 31
4 27 45 1 13
4 19 59 1 32
4 58 92 1 1
4 192 94 1 25
4 156 120 1 30
4 180 151 1 30
4 22 182 1 48
4 164 231 1 48
4 135 280 1 48
4 99 329 1 20
4 158 350 1 33
4 157 384 1 37
4 241 422 1 24
4 272 447 3 21
4 325 471 4 36
5 173 31 1 5
5 37 37 1 48
5 84 86 1 49
5 250 136 1 13
5 104 150 1 20
5 132 171 1 44
5 52 216 1 42
5 141 259 1 35
5 243 295 1 3
5 267 299 1 36
5 233 336 1 44
5 120 381 1 18
5 286 400 3 21
5 290 424 1 21
5 319 446 3 1
5 283 450 1 36
5 347 487 36 27
6 117 24 1 36
6 94 61 1 4
6 26 66 1 5
6 93 72 1 6
6 230 79 1 3
6 209 83 1 14
6 92 98 1 47
6 305 146 1 47
6 170 194 1 46
6 98 241 1 24
6 137 266 1 14
6 210 281 1 34
6 247 316 1 34
6 188 351 1 27
6 275 379 1 6
6 226 386 1 21
6 355 408 1 42
6 341 451 2 4
6 356 457 3 34
7 83 47 1 12
7 29 60 1 40
7 133 101 1 20
7 43 122 1 18
7 70 141 1 35
7 235 177 1 25
7 89 203 2 48
7 207 253 1 7
7 335 261 1 47
7 213 309 1 13
7 357 323 1 32
7 269 356 1 31
7 300 388 1 19
7 203 408 1 22
7 317 431 1 50
7 249 482 1 6
8 61 22 1 38
8 48 61 1 29
8 240 91 1 24
8 105 116 1 8
8 121 125 1 45
8 124 171 1 40
8 138 212 1 48
8 238 261 1 29
8 228 291 1 19
8 222 311 1 47
8 201 359 1 20
8 264 380 2 30
8 329 412 2 25
8 306 439 1 22
8 271 462 8 2
8 348 472 2 31
9 56 6 1 7
9 77 14 1 44
9 41 59 1 37
9 112 97 1 12
9 100 110 1 1
9 59 112 1 48
9 186 161 1 3
9 176 165 1 1
9 91 167 1 26
9 256 194 1 47
9 126 242 1 6
9 308 249 1 43
9 127 293 1 40
9 183 334 1 20
9 236 355 1 29
9 261 385 1 48
9 342 434 5 10
9 298 449 5 45
10 64 36 1 49
10 44 86 1 33
10 160 120 1 42
10 169 163 1 3
10 163 167 1 24
10 174 192 1 36
10 185 229 1 29
10 280 259 1 13
10 148 273 1 20
10 258 294 1 18
10 288 313 1 27
10 345 341 1 40
10 242 382 1 11
10 359 394 1 29
10 336 424 1 8
10 315 433 2 20
10 313 455 2 13
10 229 470 1 7
10 304 478 7 38
11 33 5 1 17
11 25 23 1 10
11 34 34 1 11
11 21 46 1 3
11 62 50 1 18
11 60 69 1 24
11 57 94 1 34
11 53 129 1 29
11 220 159 1 17
11 195 177 1 17
11 215 195 1 40
11 205 236 1 14
11 244 251 1 30
11 334 282 1 44
11 196 327 1 42
11 151 370 1 44
11 294 415 1 6
11 278 422 1 14
11 330 437 1 44
11 352 482 13 44
12 171 10 1 44
12 78 55 1 11
12 79 67 1 38
12 200 106 1 22
12 110 129 1 2
12 153 132 1 33
12 234 166 1 3
12 68 170 1 32
12 101 203 1 5
12 103 209 1 26
12 96 236 1 28
12 232 265 1 23
12 254 289 1 11
12 284 301 2 41
12 297 344 2 36
12 353 382 1 39
12 323 422 3 21
12 320 446 2 19
12 274 467 3 13
12 208 483 16 1
13 50 18 1 33
13 63 52 1 41
13 54 94 1 19
13 154 114 1 20
13 47 135 1 40
13 31 176 1 18
13 146 195 1 15
13 106 211 1 1
13 216 213 1 21
13 118 235 1 36
13 327 272 1 9
13 136 282 1 11
13 198 294 1 25
13 282 320 1 17
13 316 338 1 21
13 237 360 1 23
13 309 384 1 21
13 296 406 1 40
13 344 447 2 11
13 179 460 5 36
14 145 25 1 32
14 23 58 1 16
14 187 75 1 9
14 18 85 1 41
14 80 127 1 17
14 74 145 1 45
14 131 191 1 34
14 326 226 1 45
14 168 272 1 10
14 307 283 1 9
14 331 293 1 14
14 333 308 1 41
14 281 350 1 35
14 251 386 1 6
14 260 393 1 41
14 162 435 1 25
14 257 461 3 16
14 285 480 1 46
15 20 20 1 17
15 109 38 1 39
15 116 78 1 5
15 211 84 1 31
15 227 116 1 20
15 38 137 1 9
15 28 147 1 5
15 140 153 1 19
15 32 173 1 16
15 253 190 1 31
15 279 222 1 43
15 155 266 1 35
15 266 302 1 15
15 318 318 1 10
15 81 329 1 2
15 299 332 2 13
15 177 347 1 4
15 152 352 1 33
15 218 386 1 49
15 139 436 2 17
15 337 455 1 17
15 351 473 5 45
16 144 11 1 24
16 85 36 1 9
16 129 46 1 37
16 45 84 1 13
16 36 98 1 21
16 184 120 1 16
16 90 137 1 12
16 67 150 1 39
16 134 190 1 1
16 128 192 1 20
16 190 213 1 9
16 231 223 1 40
16 165 264 1 1
16 291 266 1 39
16 224 306 1 13
16 108 320 1 2
16 265 323 1 20
16 71 344 2 49
16 191 395 1 3
16 339 399 3 49
16 303 451 1 6
16 302 458 1 25
16 332 484 11 15
17 24 19 1 30
17 42 50 1 48
17 30 99 1 1
17 113 101 1 43
17 178 145 2 4
17 147 151 1 40
17 310 192 1 7
17 194 200 1 21
17 293 222 1 34
17 214 257 1 34
17 245 292 1 41
17 295 334 1 27
17 119 362 1 35
17 273 398 1 14
17 340 413 2 1
17 354 416 1 7
17 314 424 1 3
17 276 428 2 49
17 338 479 1 32
550 2