Machines, Tasks, Workers
16 240 5
M, T, St, Se, P 
0 126 0 0 49
1 149 0 0 25
2 201 0 0 1
3 0 0 0 23
4 1 0 0 26
5 2 0 0 14
6 3 0 0 30
7 4 0 0 12
8 5 0 0 22
9 6 0 0 13
10 7 0 0 17
11 8 0 0 29
12 9 0 0 24
13 10 0 0 4
14 11 0 0 22
15 12 0 0 22
0 108 49 1 39
0 90 89 1 24
0 102 114 1 32
0 100 147 1 49
0 118 197 1 42
0 161 240 2 5
0 143 247 1 42
0 74 290 1 4
0 180 295 1 18
0 225 314 1 22
0 212 337 3 13
0 122 353 1 7
0 216 361 3 24
1 37 25 1 44
1 38 70 1 22
1 19 93 1 13
1 63 107 1 48
1 176 156 1 50
1 182 207 1 5
1 104 213 1 47
1 136 261 2 27
1 172 290 1 7
1 207 298 1 48
1 202 347 10 29
2 56 1 1 44
2 29 46 1 29
2 130 76 1 48
2 84 125 1 7
2 162 133 2 2
2 34 137 1 28
2 107 166 1 6
2 220 173 1 45
2 237 219 1 33
2 157 253 1 34
2 223 288 2 35
2 221 325 1 43
2 228 369 4 33
3 55 23 1 46
3 83 70 1 33
3 17 104 1 38
3 147 143 1 24
3 24 168 1 11
3 144 180 1 28
3 232 209 1 31
3 132 241 1 16
3 60 258 2 36
3 58 296 5 6
3 236 307 1 7
3 120 315 1 17
3 183 333 5 32
4 21 26 1 25
4 145 52 1 11
4 103 64 1 43
4 51 108 1 11
4 187 120 1 1
4 148 122 1 43
4 46 166 2 25
4 159 193 2 1
4 116 196 1 48
4 54 245 2 21
4 184 268 1 22
4 199 291 2 25
4 163 318 1 37
4 129 373 14 3
5 89 14 1 4
5 65 19 1 29
5 39 49 1 5
5 23 55 1 23
5 117 79 1 11
5 78 91 1 42
5 50 134 1 20
5 71 155 1 32
5 87 188 1 1
5 192 190 1 20
5 146 211 1 34
5 231 246 1 20
5 175 267 1 47
5 215 315 1 17
5 224 333 2 12
5 214 347 1 14
5 190 362 3 3
5 200 368 4 22
6 16 30 1 21
6 45 52 1 1
6 113 54 1 28
6 67 83 1 22
6 57 106 1 9
6 195 116 1 17
6 41 134 1 32
6 80 167 1 42
6 139 210 1 26
6 72 237 1 29
6 211 267 1 40
6 141 308 1 4
6 150 313 2 1
6 177 316 1 36
6 213 353 5 15
7 31 12 1 28
7 33 41 1 48
7 75 90 1 33
7 62 124 1 14
7 82 139 1 36
7 36 176 1 30
7 123 207 1 20
7 197 228 1 14
7 218 243 2 13
7 188 258 1 30
7 222 289 1 20
7 167 310 7 10
7 226 327 4 17
7 121 348 12 9
8 49 22 1 37
8 70 60 1 7
8 152 68 1 44
8 169 113 1 25
8 115 139 1 18
8 77 158 1 17
8 105 176 1 35
8 235 212 1 19
8 194 232 1 34
8 173 267 1 38
8 210 306 1 19
8 91 326 1 7
8 196 334 7 43
9 66 13 1 33
9 160 47 1 4
9 76 52 1 22
9 155 75 1 12
9 73 88 1 1
9 106 90 1 41
9 35 132 1 33
9 234 166 1 30
9 42 197 2 5
9 140 204 1 21
9 134 226 1 49
9 185 276 1 37
9 68 314 1 46
9 191 361 17 3
10 92 17 1 43
10 30 61 1 17
10 109 79 1 14
10 59 94 1 24
10 98 119 1 31
10 69 151 1 34
10 156 186 1 20
10 153 207 1 34
10 238 242 1 42
10 208 285 1 42
10 166 328 1 7
10 229 336 6 23
10 204 365 13 11
11 53 29 1 3
11 40 33 1 37
11 52 71 1 20
11 111 92 1 45
11 131 138 1 34
11 110 173 1 37
11 138 211 1 47
11 209 259 1 13
11 217 273 1 16
11 193 290 1 3
11 239 294 1 16
11 205 311 1 49
11 203 361 4 10
12 15 24 1 36
12 64 61 1 12
12 85 74 1 21
12 20 96 1 7
12 124 104 1 1
12 94 106 1 26
12 95 133 1 4
12 178 138 2 1
12 86 141 1 7
12 101 149 1 15
12 165 165 1 2
12 168 168 1 12
12 189 181 1 6
12 179 188 1 13
12 186 202 1 40
12 137 243 1 27
12 135 271 1 12
12 127 284 2 39
12 181 325 3 40
12 230 368 10 27
13 13 4 1 8
13 96 13 1 49
13 44 63 1 48
13 22 112 1 24
13 97 137 1 25
13 158 163 1 23
13 198 187 1 44
13 170 232 1 22
13 227 255 2 23
13 114 280 2 13
13 128 295 1 30
13 151 326 5 10
13 99 341 1 31
14 32 22 1 5
14 26 28 1 38
14 47 67 1 25
14 28 93 1 19
14 14 113 1 18
14 81 132 1 19
14 154 152 1 24
14 48 177 1 16
14 119 194 2 46
14 79 242 1 28
14 233 271 1 37
14 43 309 1 36
14 164 346 2 49
15 61 22 1 49
15 25 72 1 21
15 18 94 1 10
15 171 105 1 3
15 142 109 1 29
15 88 139 1 11
15 206 151 1 10
15 112 162 1 48
15 174 211 1 5
15 27 217 1 41
15 93 259 1 18
15 125 278 1 49
15 219 328 2 15
15 133 345 3 23
406 1