Machines, Tasks, Workers
18 450 2
M, T, St, Se, P 
0 0 0 0 23
1 1 0 0 21
2 2 0 0 29
3 3 0 0 50
4 4 0 0 31
5 5 0 0 30
6 6 0 0 11
7 7 0 0 14
8 8 0 0 36
9 9 0 0 47
10 10 0 0 4
11 11 0 0 3
12 12 0 0 20
13 13 0 0 25
14 14 0 0 24
15 15 0 0 31
16 16 0 0 17
17 17 0 0 31
0 85 23 1 46
0 105 70 1 23
0 236 94 1 27
0 119 122 1 34
0 47 157 1 12
0 157 170 1 32
0 143 203 1 18
0 22 223 1 12
0 287 236 1 29
0 232 266 1 21
0 132 288 1 1
0 291 290 1 42
0 150 333 1 25
0 308 359 1 37
0 247 397 1 3
0 342 401 1 47
0 160 449 1 22
0 256 472 1 19
0 316 492 1 26
0 311 520 2 9
0 436 531 2 23
0 412 556 1 12
0 405 569 1 31
0 379 601 1 24
0 346 665 2 5
1 41 21 1 50
1 93 72 1 35
1 121 108 1 5
1 204 114 1 18
1 259 133 1 36
1 95 170 1 28
1 117 199 1 6
1 126 206 1 15
1 209 222 1 14
1 79 237 1 21
1 248 259 1 7
1 257 267 1 27
1 191 295 2 33
1 222 330 1 4
1 264 335 1 44
1 241 380 1 17
1 369 398 1 32
1 303 431 1 42
1 361 474 1 14
1 437 489 2 39
1 417 530 1 35
1 403 566 1 36
1 198 610 6 2
1 373 628 3 9
1 441 654 11 16
2 44 29 1 35
2 76 65 1 44
2 140 110 1 37
2 186 148 1 36
2 182 185 1 2
2 185 188 1 13
2 217 202 1 17
2 196 220 1 41
2 142 262 1 39
2 274 302 1 29
2 176 332 1 17
2 300 350 1 43
2 313 394 1 21
2 260 416 1 36
2 335 453 3 8
2 323 464 1 38
2 371 503 1 15
2 392 519 1 16
2 406 536 3 50
2 161 589 2 28
2 434 651 3 20
3 156 50 1 17
3 36 68 1 13
3 45 82 1 11
3 39 94 1 11
3 114 106 1 48
3 190 155 1 3
3 149 159 1 22
3 102 182 1 36
3 151 219 1 37
3 107 257 1 30
3 219 288 1 44
3 246 333 1 4
3 294 338 1 42
3 338 381 1 31
3 322 413 1 17
3 304 431 1 41
3 278 473 1 37
3 242 511 1 30
3 348 542 1 28
3 377 571 3 12
3 410 586 2 33
3 446 648 3 22
4 173 32 1 24
4 128 57 1 42
4 169 100 1 2
4 136 103 1 46
4 98 150 1 24
4 175 175 1 11
4 197 187 1 32
4 60 220 1 23
4 188 244 1 25
4 413 270 1 35
4 266 306 1 38
4 396 345 1 42
4 221 389 1 2
4 407 392 1 31
4 298 424 1 1
4 358 429 1 31
4 354 461 1 38
4 200 500 1 13
4 334 514 1 24
4 357 539 1 29
4 393 569 1 18
4 363 591 2 46
5 27 30 1 49
5 112 80 1 19
5 32 100 1 36
5 137 137 1 44
5 225 182 1 30
5 48 213 1 24
5 58 238 1 18
5 172 257 1 40
5 206 298 1 35
5 207 334 1 24
5 243 359 1 27
5 270 387 1 6
5 332 394 1 22
5 251 417 1 23
5 195 441 1 40
5 424 482 1 36
5 356 519 1 40
5 283 560 1 19
5 449 580 1 35
5 321 622 9 50
6 28 11 1 44
6 35 56 1 28
6 77 85 1 49
6 99 135 1 45
6 228 181 1 46
6 138 228 1 5
6 249 234 1 45
6 292 280 1 29
6 402 310 1 29
6 378 340 1 48
6 239 389 1 37
6 250 427 1 4
6 286 432 1 50
6 329 483 1 33
6 388 517 1 22
6 384 540 1 24
6 418 565 3 7
6 273 575 2 37
6 419 614 3 50
7 66 14 1 6
7 55 21 1 1
7 21 23 1 26
7 89 51 1 16
7 68 69 1 9
7 129 79 1 38
7 72 118 1 12
7 67 131 1 8
7 100 140 1 30
7 51 171 1 8
7 135 180 1 3
7 146 184 1 43
7 275 228 1 7
7 78 236 1 11
7 205 248 1 5
7 215 254 2 29
7 234 285 1 30
7 282 316 1 5
7 226 322 1 11
7 280 336 1 10
7 237 347 1 20
7 174 368 1 24
7 269 393 1 39
7 293 433 1 17
7 440 451 1 22
7 307 474 1 49
7 366 524 1 15
7 448 540 1 35
7 352 577 2 36
7 432 671 2 4
7 442 677 4 19
8 64 36 1 17
8 75 54 1 31
8 29 86 1 30
8 94 117 1 45
8 122 163 1 25
8 165 189 1 32
8 324 222 1 19
8 258 242 1 7
8 194 250 1 40
8 279 291 1 22
8 110 314 1 33
8 349 348 1 39
8 299 388 1 21
8 97 410 1 14
8 244 425 1 47
8 289 473 1 49
8 415 523 1 50
8 423 574 5 10
8 253 589 1 7
8 382 597 1 5
8 362 617 9 45
9 23 47 1 5
9 223 53 1 36
9 88 90 1 2
9 153 93 1 49
9 82 143 1 35
9 57 179 1 4
9 101 184 1 7
9 218 192 1 5
9 268 198 1 47
9 193 246 1 46
9 254 293 1 27
9 262 321 1 35
9 327 357 1 27
9 326 385 1 4
9 380 390 1 15
9 170 406 1 20
9 368 427 1 13
9 317 442 1 48
9 202 491 1 17
9 296 509 3 20
9 399 532 3 16
9 261 551 1 44
9 364 596 2 3
9 395 643 3 25
10 123 4 1 2
10 31 7 1 22
10 24 30 1 1
10 113 33 1 13
10 141 47 1 21
10 26 70 1 5
10 73 76 1 22
10 166 99 1 25
10 171 125 1 50
10 111 176 1 33
10 214 210 1 20
10 167 231 1 41
10 168 273 1 34
10 130 308 1 26
10 213 335 1 39
10 301 375 1 4
10 271 380 1 45
10 310 426 1 3
10 375 430 1 4
10 285 436 1 4
10 386 441 1 44
10 276 486 1 40
10 400 527 3 40
10 428 570 1 36
10 447 646 2 23
11 19 3 1 28
11 84 32 1 8
11 86 41 1 35
11 53 77 1 49
11 87 127 1 1
11 30 129 1 19
11 184 149 1 3
11 210 153 1 40
11 133 194 1 10
11 162 205 1 13
11 116 219 1 32
11 309 252 1 21
11 18 274 1 5
11 155 280 1 13
11 159 294 1 7
11 272 302 1 1
11 189 304 1 10
11 90 315 1 22
11 227 338 2 38
11 277 378 1 29
11 341 408 1 26
11 360 435 1 30
11 288 466 1 28
11 426 495 1 14
11 404 510 1 5
11 290 516 1 18
11 394 535 1 49
11 367 585 3 11
11 421 599 8 14
11 416 621 1 6
11 397 631 40 49
12 20 20 1 10
12 34 31 1 37
12 63 69 1 1
12 104 71 1 17
12 154 89 1 40
12 106 130 1 42
12 224 173 1 13
12 148 187 1 29
12 211 217 1 38
12 120 256 1 22
12 220 279 1 6
12 180 286 1 47
12 144 334 1 30
12 208 365 1 41
12 115 407 1 18
12 347 426 1 2
12 81 429 1 13
12 336 443 1 31
12 281 475 2 20
12 263 497 1 46
12 355 544 1 28
12 370 573 1 49
12 383 631 10 36
13 54 25 1 12
13 25 38 1 35
13 56 74 1 35
13 235 110 1 26
13 163 137 1 9
13 139 147 1 16
13 152 164 1 9
13 231 174 1 35
13 124 210 1 35
13 164 246 1 14
13 145 261 1 42
13 192 304 1 24
13 108 329 1 48
13 340 378 1 10
13 38 390 2 43
13 391 435 1 33
13 337 469 1 47
13 312 517 2 1
13 376 520 1 8
13 351 529 1 6
13 390 536 2 10
13 427 548 1 41
13 389 590 2 13
13 408 607 3 47
14 49 24 1 18
14 80 43 1 1
14 59 45 1 4
14 91 50 1 5
14 233 56 1 11
14 134 68 1 49
14 52 118 1 20
14 131 139 1 13
14 65 153 1 20
14 69 174 1 29
14 318 204 1 20
14 345 225 1 11
14 255 237 1 12
14 267 250 1 49
14 118 300 1 8
14 438 309 1 20
14 216 330 1 39
14 238 370 1 5
14 240 376 1 19
14 203 396 1 4
14 183 401 1 18
14 96 420 1 18
14 401 439 1 27
14 445 467 1 11
14 359 479 1 25
14 372 505 1 44
14 409 550 1 5
14 430 556 2 5
14 387 563 2 18
14 420 583 3 42
14 422 667 22 4
15 46 31 1 35
15 40 67 1 33
15 305 101 1 33
15 71 135 1 33
15 74 169 1 38
15 125 208 1 45
15 201 254 1 50
15 315 305 1 2
15 353 308 1 39
15 245 348 1 19
15 328 368 1 49
15 297 418 1 14
15 229 433 1 45
15 429 479 2 46
15 398 527 1 43
15 439 571 2 38
15 414 626 2 38
16 109 17 1 21
16 43 39 1 21
16 62 61 1 21
16 70 83 1 27
16 50 111 1 29
16 83 141 1 23
16 147 165 1 17
16 181 183 1 45
16 265 229 1 10
16 177 240 1 19
16 187 260 1 4
16 158 265 1 28
16 230 294 2 35
16 435 331 1 25
16 314 357 1 25
16 284 383 1 42
16 344 428 1 23
16 350 452 1 14
16 325 467 1 25
16 443 493 1 36
16 431 530 1 7
16 381 538 1 22
16 331 561 1 13
16 385 579 1 30
16 343 616 1 25
17 33 33 1 5
17 61 39 1 34
17 37 74 1 39
17 103 114 1 3
17 42 119 1 46
17 178 166 1 36
17 127 203 1 18
17 179 223 1 17
17 199 241 1 16
17 92 258 1 46
17 319 305 1 11
17 333 317 1 28
17 295 346 1 23
17 365 370 1 17
17 320 388 1 39
17 306 428 1 5
17 212 434 1 20
17 411 455 1 7
17 339 463 1 4
17 252 468 1 20
17 330 489 3 11
17 374 503 1 11
17 302 515 1 37
17 433 553 1 45
17 444 599 1 6
17 425 641 2 30
720 4