Machines, Tasks, Workers
16 320 2
M, T, St, Se, P 
0 0 0 0 23
1 1 0 0 34
2 2 0 0 33
3 3 0 0 12
4 4 0 0 39
5 5 0 0 30
6 6 0 0 29
7 7 0 0 6
8 8 0 0 24
9 9 0 0 22
10 10 0 0 48
11 11 0 0 20
12 12 0 0 21
13 13 0 0 16
14 14 0 0 30
15 15 0 0 7
0 85 23 1 28
0 21 52 1 19
0 38 72 1 13
0 102 86 1 27
0 153 114 1 11
0 133 126 1 21
0 247 148 1 44
0 217 193 1 6
0 40 200 1 2
0 162 203 1 24
0 119 228 1 2
0 151 231 1 12
0 159 244 1 13
0 122 258 1 8
0 107 267 1 28
0 135 296 1 18
0 109 315 1 37
0 245 353 1 8
0 166 362 1 16
0 225 379 2 22
0 261 403 1 23
0 304 427 1 23
0 308 451 1 3
0 272 455 1 50
0 237 558 10 37
1 42 34 1 44
1 29 79 1 45
1 104 125 1 40
1 145 166 1 9
1 105 176 1 21
1 117 198 1 20
1 211 219 1 12
1 201 232 1 42
1 188 275 1 47
1 219 323 1 49
1 284 373 2 33
1 41 408 2 3
1 163 413 1 21
1 307 435 1 6
1 175 442 1 16
1 268 471 8 50
1 229 576 21 12
2 90 33 1 17
2 33 51 1 48
2 22 100 1 44
2 86 145 1 30
2 130 176 1 24
2 129 201 1 7
2 207 209 1 16
2 177 226 1 7
2 120 234 1 4
2 140 239 1 28
2 139 268 1 12
2 205 281 1 50
2 251 332 1 25
2 246 358 1 16
2 233 375 1 10
2 295 386 1 50
2 318 437 1 39
2 291 477 1 29
2 303 554 1 32
3 31 12 1 1
3 18 14 1 11
3 144 26 1 20
3 147 47 1 43
3 34 91 1 32
3 32 124 1 27
3 83 152 1 22
3 80 175 1 14
3 60 190 1 42
3 101 233 1 29
3 114 263 1 44
3 306 308 1 21
3 283 330 1 32
3 204 363 1 22
3 255 386 1 22
3 202 414 3 38
3 294 455 1 6
3 134 466 2 47
3 315 564 12 13
4 58 39 1 27
4 24 67 1 5
4 27 73 1 30
4 123 104 1 49
4 161 154 1 30
4 172 185 1 15
4 240 201 1 46
4 67 248 1 30
4 216 280 1 25
4 156 306 1 42
4 244 349 1 23
4 183 373 1 33
4 152 407 1 19
4 178 427 2 45
4 221 474 2 7
4 264 483 1 39
5 47 30 1 40
5 78 71 1 47
5 262 119 1 25
5 160 145 1 6
5 79 152 1 30
5 196 183 1 42
5 227 226 1 43
5 305 270 1 8
5 193 279 1 12
5 197 292 1 37
5 228 330 1 22
5 20 355 1 33
5 260 389 1 6
5 267 396 1 15
5 174 412 1 31
5 293 444 2 32
5 248 479 2 11
5 231 498 4 42
6 53 29 1 41
6 23 71 1 15
6 87 87 1 48
6 19 136 1 30
6 64 167 1 10
6 71 178 1 9
6 242 188 1 29
6 165 218 1 45
6 112 264 1 9
6 220 274 1 50
6 312 325 1 37
6 179 363 1 29
6 286 393 1 17
6 203 411 2 49
6 146 463 5 49
6 279 568 20 19
7 37 6 1 14
7 55 21 1 32
7 25 54 1 27
7 125 82 1 38
7 170 121 1 43
7 73 165 1 34
7 81 200 1 39
7 91 240 1 19
7 195 260 1 32
7 224 293 1 46
7 277 340 1 47
7 209 388 5 1
7 273 394 1 21
7 271 416 2 22
7 258 440 1 2
7 239 443 3 12
7 310 458 5 41
7 289 507 4 10
7 288 521 14 47
8 43 24 1 30
8 115 55 1 39
8 30 95 1 37
8 52 133 1 35
8 113 169 1 27
8 54 197 1 29
8 169 229 2 45
8 212 276 1 29
8 95 306 1 15
8 236 322 2 30
8 210 355 1 15
8 138 371 1 22
8 199 395 2 37
8 198 434 1 1
8 180 436 4 42
8 270 482 1 24
8 181 551 1 34
9 61 22 1 27
9 74 50 1 43
9 108 94 1 28
9 48 123 1 12
9 98 136 1 24
9 191 161 1 46
9 164 208 1 18
9 103 227 1 29
9 82 257 1 8
9 89 266 1 26
9 208 293 1 35
9 17 329 1 17
9 309 347 1 1
9 300 349 1 3
9 184 353 1 50
9 253 404 1 37
9 285 442 1 15
9 149 458 4 44
9 292 506 1 3
9 316 511 20 50
10 16 48 1 23
10 65 72 1 27
10 57 100 1 22
10 155 123 1 11
10 49 135 1 6
10 59 142 1 12
10 63 155 1 7
10 77 163 1 49
10 132 213 1 50
10 182 264 1 14
10 186 279 1 11
10 287 291 1 42
10 218 334 1 18
10 274 354 1 10
10 250 365 1 4
10 259 370 1 38
10 158 413 2 15
10 280 430 1 26
10 235 472 2 2
10 266 476 1 1
10 194 478 1 10
10 290 497 1 12
10 299 555 9 30
11 36 20 1 16
11 84 37 1 48
11 142 86 1 34
11 99 121 1 16
11 39 138 1 20
11 111 159 1 43
11 278 203 1 18
11 128 222 1 46
11 223 269 1 15
11 276 285 1 50
11 137 336 1 14
11 121 351 2 13
11 96 366 1 30
11 68 397 1 47
11 311 446 1 42
11 243 489 2 21
11 319 535 16 44
12 45 21 1 36
12 46 58 1 31
12 118 90 1 22
12 126 113 1 12
12 100 126 1 30
12 75 157 1 49
12 154 207 1 14
12 94 222 1 5
12 269 228 1 26
12 167 255 1 28
12 97 284 1 26
12 93 311 1 1
12 150 313 1 22
12 297 336 1 30
12 256 367 1 42
12 238 410 1 34
12 317 446 2 5
12 313 468 3 50
12 254 552 2 34
13 62 16 1 36
13 35 53 1 25
13 106 79 1 9
13 187 89 1 47
13 171 137 1 33
13 116 171 1 6
13 56 178 1 50
13 234 229 1 1
13 131 231 1 44
13 157 276 1 43
13 136 320 1 20
13 265 341 1 28
13 232 370 1 34
13 263 405 2 40
13 230 447 1 29
13 301 479 2 10
13 302 498 3 39
14 143 30 1 3
14 50 34 1 1
14 26 36 1 15
14 314 52 1 31
14 28 84 1 46
14 110 131 1 23
14 70 155 1 23
14 69 179 1 43
14 66 223 1 11
14 241 235 1 29
14 200 265 1 12
14 173 278 1 16
14 127 295 1 42
14 252 338 3 13
14 88 354 1 39
14 190 394 1 27
14 189 422 2 10
14 214 434 1 15
14 296 450 1 17
14 298 468 4 11
14 185 483 15 48
15 124 7 1 31
15 72 39 1 49
15 44 89 1 19
15 76 109 1 9
15 249 119 1 10
15 148 130 1 5
15 213 137 1 2
15 51 140 1 46
15 257 187 1 3
15 206 191 1 47
15 92 239 1 14
15 168 254 1 12
15 215 267 1 46
15 141 314 1 30
15 222 345 1 28
15 226 374 1 31
15 192 406 1 32
15 176 439 2 24
15 275 465 1 18
15 281 491 6 5
15 282 535 23 43
609 2