Machines, Tasks, Workers
4 16 1
M, T, St, Se, P 
0 14 0 0 10
0 1 10 6 83
0 9 99 6 91
1 0 0 0 44
1 6 44 6 27
1 7 77 5 37
1 4 119 11 17
1 11 147 8 27
1 15 182 7 26
2 12 0 0 65
2 10 65 5 46
2 8 130 12 76
3 2 0 0 20
3 3 20 8 85
3 13 113 5 48
3 5 166 7 38
218 214