Machines, Tasks, Workers
4 28 1
M, T, St, Se, P 
0 26 0 0 99
0 25 99 16 93
0 20 208 12 81
0 3 301 19 83
0 12 406 11 84
0 10 501 5 58
1 23 0 0 59
1 0 61 10 88
1 22 165 5 83
1 4 257 5 80
1 19 342 6 71
1 9 419 7 87
1 18 524 12 39
2 16 0 0 56
2 8 56 5 93
2 13 154 11 67
2 27 232 5 96
2 2 333 6 62
2 24 401 5 99
2 15 506 18 40
3 7 0 0 88
3 6 88 6 79
3 17 173 5 74
3 14 252 5 64
3 5 321 7 91
3 11 426 8 52
3 21 486 11 34
3 1 536 5 28
575 339