Machines, Tasks, Workers
7 21 1
M, T, St, Se, P 
0 9 0 0 44
0 14 52 6 47
0 17 109 8 82
1 18 0 0 62
1 12 93 5 87
1 19 198 16 17
2 5 0 0 27
2 13 27 5 25
2 3 58 5 83
2 20 173 13 40
3 11 0 0 45
3 8 45 7 79
3 15 137 20 78
4 16 0 0 84
4 10 98 5 61
4 2 164 9 60
5 6 0 0 100
5 4 103 6 83
6 7 0 0 62
6 1 66 27 39
6 0 132 5 88
235 319