Machines, Tasks, Workers
7 21 1
M, T, St, Se, P 
0 4 0 0 95
0 2 95 13 99
1 12 0 0 99
1 7 108 12 63
1 16 188 5 17
2 3 0 0 75
2 9 75 6 77
2 15 163 25 45
3 0 0 0 100
3 5 120 7 51
3 10 200 13 19
4 14 0 0 92
4 13 137 21 52
5 8 0 0 88
5 17 88 5 34
5 18 158 5 66
6 20 0 0 28
6 1 28 16 82
6 11 127 10 57
6 6 194 6 12
6 19 213 6 14
233 315