Machines, Tasks, Workers
4 40 1
M, T, St, Se, P 
0 3 0 0 32
0 7 32 5 27
0 19 64 7 50
0 30 121 6 95
0 4 222 5 48
0 34 276 7 95
0 28 378 23 73
0 14 474 6 71
0 37 551 5 26
0 10 582 10 81
1 20 0 0 80
1 5 80 5 95
1 25 180 6 88
1 33 294 8 36
1 31 338 8 100
1 39 446 12 44
1 29 506 10 76
1 24 592 11 12
1 12 615 26 40
2 23 0 0 87
2 38 87 5 12
2 35 104 9 88
2 6 201 5 87
2 36 302 9 91
2 17 402 6 17
2 27 425 5 64
2 0 494 12 100
2 22 609 5 58
3 13 0 0 63
3 9 71 6 37
3 15 114 5 70
3 21 189 7 28
3 16 227 5 14
3 18 246 5 19
3 8 270 6 12
3 26 288 6 70
3 2 364 7 85
3 11 458 6 54
3 1 518 5 75
3 32 603 6 67
681 537