Machines, Tasks, Workers
10 30 1
M, T, St, Se, P 
0 6 0 0 56
1 13 0 0 19
1 0 50 14 61
1 29 127 12 84
2 5 0 0 19
2 18 19 24 89
3 3 0 0 75
3 12 87 18 75
3 23 180 6 23
4 17 0 0 65
4 14 82 5 68
4 27 155 11 24
4 19 200 5 14
5 16 0 0 95
5 25 115 5 74
6 24 0 0 100
6 1 105 5 75
6 10 186 5 23
7 9 0 0 36
7 26 43 7 75
7 7 139 7 43
7 21 191 9 14
8 15 0 0 56
8 8 64 13 33
8 2 110 5 86
9 11 0 0 66
9 20 77 5 34
9 22 120 7 40
9 28 167 12 22
9 4 205 9 15
229 551