Machines, Tasks, Workers
2 20 1
M, T, St, Se, P 
0 15 0 0 67
0 10 70 5 61
0 13 136 8 96
0 4 240 8 40
0 1 288 24 16
0 16 328 10 57
0 0 395 5 65
0 8 465 8 50
0 3 523 6 88
0 18 617 9 40
1 2 0 0 60
1 6 60 10 94
1 19 164 7 98
1 12 269 10 57
1 14 338 6 17
1 11 361 8 78
1 7 447 17 99
1 17 563 16 17
1 9 596 10 32
1 5 638 5 24
667 199