Machines, Tasks, Workers
3 21 1
M, T, St, Se, P 
0 16 0 0 64
0 13 64 8 39
0 3 111 8 100
0 17 219 6 93
0 10 318 14 21
0 11 353 8 96
1 7 0 0 33
1 5 33 9 97
1 2 139 6 34
1 0 179 8 17
1 15 204 6 53
1 6 263 7 75
1 12 345 6 45
1 9 396 21 38
2 20 0 0 81
2 4 81 14 73
2 14 168 5 30
2 8 210 6 64
2 1 280 6 80
2 18 366 6 38
2 19 417 7 42
466 233