Machines, Tasks, Workers
7 49 1
M, T, St, Se, P 
0 44 0 0 74
0 28 74 14 21
0 15 129 5 83
0 25 220 25 38
0 31 299 9 82
0 4 393 11 37
1 47 0 0 91
1 14 118 11 60
1 33 193 7 14
1 7 214 6 52
1 32 276 5 31
1 48 313 16 50
1 19 411 9 31
2 3 0 0 63
2 38 64 5 30
2 35 107 6 41
2 5 156 8 63
2 39 257 7 68
2 41 335 8 75
2 37 426 13 15
3 21 0 0 95
3 13 100 7 66
3 10 173 6 64
3 20 264 5 26
3 1 308 5 83
3 34 404 7 40
4 30 0 0 28
4 27 28 6 22
4 8 58 6 18
4 6 88 7 92
4 26 187 6 43
4 11 245 5 34
4 16 290 9 83
4 2 382 5 60
5 46 0 0 52
5 40 52 6 54
5 17 113 5 33
5 24 151 5 18
5 45 179 5 46
5 36 250 7 26
5 42 283 7 97
5 12 387 6 46
6 9 0 0 94
6 0 95 5 100
6 22 200 5 62
6 43 269 7 53
6 18 329 6 40
6 23 375 5 22
6 29 420 6 16
454 1106