Machines, Tasks, Workers
5 20 1
M, T, St, Se, P 
0 17 0 0 76
0 4 76 10 82
0 5 168 19 67
1 1 0 0 17
1 19 17 9 38
1 0 64 7 80
1 11 151 6 93
2 8 0 0 44
2 12 44 5 56
2 10 105 16 73
2 2 194 11 13
2 16 228 8 14
3 6 0 0 89
3 7 91 12 31
3 18 134 7 30
3 13 187 7 61
4 9 0 0 78
4 3 86 5 69
4 14 160 7 48
4 15 215 13 11
255 271