Machines, Tasks, Workers
5 20 1
M, T, St, Se, P 
0 11 0 0 99
0 1 99 13 83
0 12 195 20 33
1 17 0 0 80
1 4 80 5 76
1 3 161 5 86
2 10 0 0 20
2 0 20 5 61
2 18 86 8 75
2 19 169 8 84
3 9 0 0 56
3 16 56 6 76
3 8 138 6 13
3 15 177 8 23
3 7 215 19 23
4 13 0 0 85
4 2 94 5 11
4 5 112 5 24
4 14 144 8 58
4 6 234 8 15
261 293