Machines, Tasks, Workers
5 50 1
M, T, St, Se, P 
0 26 0 0 83
0 19 83 5 43
0 34 131 7 30
0 38 168 7 49
0 16 224 11 66
0 17 301 19 75
0 23 395 10 25
0 46 438 8 78
0 32 529 11 53
1 36 0 0 93
1 1 95 8 51
1 15 154 9 77
1 7 240 6 73
1 5 320 5 89
1 40 414 11 40
1 12 465 13 15
1 24 495 9 56
1 29 560 9 32
2 8 0 0 44
2 33 44 6 37
2 22 88 7 81
2 30 183 5 16
2 21 204 7 44
2 18 255 9 93
2 25 357 5 35
2 3 405 7 37
2 37 449 11 61
2 2 540 6 23
2 13 569 6 13
3 47 0 0 17
3 6 17 5 73
3 35 103 5 37
3 0 146 5 48
3 20 199 5 69
3 44 273 5 55
3 43 333 5 95
3 31 433 5 49
3 45 487 8 70
3 14 575 16 10
4 28 0 0 73
4 10 73 6 33
4 39 112 5 17
4 27 138 8 15
4 9 175 8 67
4 41 250 5 37
4 4 292 5 80
4 11 377 6 86
4 49 478 5 18
4 42 504 5 15
4 48 524 5 64
601 872