Machines, Tasks, Workers
10 50 1
M, T, St, Se, P 
0 4 0 0 86
0 44 141 13 62
0 41 241 20 67
0 13 328 6 22
1 35 0 0 85
1 10 184 7 96
1 9 287 11 70
2 31 0 0 64
2 7 64 11 16
2 25 91 11 76
2 1 178 6 34
2 30 218 6 37
2 16 261 5 99
3 45 0 0 40
3 17 45 5 37
3 46 124 7 71
3 6 204 6 45
3 39 266 5 93
4 3 0 0 76
4 36 102 15 83
4 11 210 5 87
4 5 302 11 15
5 0 0 0 17
5 42 17 17 77
5 18 117 7 31
5 29 155 5 67
5 38 230 6 41
5 20 277 5 84
6 37 0 0 57
6 48 57 6 36
6 27 136 5 26
6 23 167 7 71
6 24 271 6 55
6 15 334 6 27
7 28 0 0 79
7 14 81 5 58
7 40 160 5 61
7 2 236 5 69
7 8 313 6 39
8 32 0 0 29
8 34 34 5 88
8 26 131 5 57
8 43 198 6 59
8 22 282 5 72
9 47 0 0 40
9 12 40 5 22
9 19 75 6 87
9 21 191 7 24
9 33 224 6 86
9 49 319 7 40
368 1201