Machines, Tasks, Workers
5 15 1
M, T, St, Se, P 
0 4 0 0 78
0 5 78 9 82
1 11 0 0 37
1 9 37 8 21
1 7 66 5 39
1 1 110 19 69
2 8 0 0 49
2 12 61 5 38
2 6 148 11 28
3 10 0 0 37
3 3 51 10 75
3 2 136 6 56
4 13 0 0 39
4 14 45 6 86
4 0 142 6 48
198 201