Machines, Tasks, Workers
10 70 1
M, T, St, Se, P 
0 11 0 0 29
0 37 30 7 49
0 5 104 5 63
0 17 172 5 19
0 35 196 5 38
0 23 239 5 50
0 22 296 6 61
0 36 364 7 83
1 20 0 0 32
1 16 37 7 67
1 68 114 6 73
1 62 211 6 49
1 41 273 5 71
1 31 354 5 30
1 60 423 6 39
2 54 0 0 49
2 19 49 5 38
2 43 120 5 81
2 29 206 5 50
2 38 268 5 51
2 63 324 5 44
2 21 381 8 62
3 24 0 0 43
3 42 44 5 21
3 28 91 5 44
3 51 140 5 20
3 48 165 5 98
3 2 278 6 84
3 53 371 10 74
4 32 0 0 71
4 30 71 5 23
4 13 99 5 42
4 9 146 5 100
4 69 251 7 57
4 66 315 5 38
4 8 359 5 34
4 18 418 5 51
5 45 0 0 25
5 1 25 5 62
5 33 109 5 75
5 25 189 5 75
5 14 284 12 97
5 65 429 21 25
6 50 0 0 65
6 6 65 6 53
6 26 151 6 76
6 34 233 5 84
6 49 347 7 31
6 67 389 5 68
7 52 0 0 59
7 27 59 5 10
7 12 81 5 38
7 0 130 6 44
7 61 180 5 71
7 3 258 5 39
7 57 302 5 96
7 56 411 7 38
8 55 0 0 51
8 15 54 5 23
8 39 86 5 63
8 64 157 5 95
8 59 263 5 61
8 7 329 5 48
8 47 394 7 63
9 58 0 0 74
9 4 76 5 38
9 44 125 5 61
9 40 201 5 89
9 10 334 13 35
9 46 401 10 60
475 1890