Machines, Tasks, Workers
4 20 1
M, T, St, Se, P 
0 5 0 0 21
0 7 21 12 38
0 0 71 14 32
0 10 117 6 99
0 15 222 17 80
1 16 0 0 23
1 6 50 7 95
1 4 152 6 54
1 1 212 7 96
2 8 0 0 25
2 18 42 8 48
2 14 98 10 68
2 13 176 5 10
2 3 191 6 68
2 12 266 9 44
3 2 0 0 34
3 17 34 8 62
3 11 108 5 57
3 19 170 5 77
3 9 252 14 45
319 245