Machines, Tasks, Workers
10 100 1
M, T, St, Se, P 
0 7 0 0 76
1 25 0 0 61
1 88 74 10 67
1 1 181 5 23
1 22 209 7 96
1 35 318 6 38
1 20 378 8 59
1 0 449 5 53
1 65 516 7 34
1 36 561 15 46
1 92 635 6 83
2 34 0 0 93
2 76 96 5 50
2 42 165 5 29
2 85 199 5 34
2 71 238 5 86
2 29 329 5 30
2 97 373 5 100
2 52 494 5 45
2 90 545 5 97
2 9 647 7 23
2 38 686 13 56
3 50 0 0 35
3 11 35 5 79
3 75 130 5 93
3 21 253 15 97
3 77 368 5 84
3 98 466 7 52
3 68 534 6 55
3 91 599 10 69
3 47 678 8 61
4 17 0 0 86
4 72 90 6 67
4 89 175 6 42
4 32 223 5 41
4 57 279 5 68
4 40 353 5 59
4 56 417 5 40
4 81 479 15 23
4 61 523 5 11
4 86 540 5 29
4 73 587 7 62
4 33 659 6 66
4 55 731 7 17
5 2 0 0 29
5 28 29 5 24
5 93 58 6 91
5 80 155 5 100
5 64 268 6 84
5 18 358 5 90
5 44 461 5 58
5 19 528 6 34
5 27 576 5 64
5 24 654 5 95
6 96 0 0 61
6 59 69 5 70
6 4 144 5 69
6 5 218 5 90
6 82 313 5 67
6 48 386 5 99
6 8 510 6 75
6 49 594 5 31
6 74 630 5 21
6 83 665 5 76
7 30 0 0 82
7 46 84 6 27
7 15 117 5 74
7 78 204 5 33
7 87 243 5 40
7 31 288 7 59
7 66 363 5 88
7 94 456 5 86
7 37 555 6 54
7 58 624 5 84
7 10 713 11 21
8 26 0 0 45
8 16 45 5 46
8 62 101 6 62
8 23 170 5 11
8 99 186 5 74
8 14 274 5 23
8 51 302 5 36
8 70 343 5 96
8 45 444 5 38
8 67 504 6 39
8 95 550 5 64
8 6 619 5 82
8 3 706 7 26
9 13 0 0 62
9 79 64 5 34
9 54 107 5 13
9 53 125 5 26
9 12 160 5 82
9 63 248 5 91
9 84 348 5 36
9 41 391 5 63
9 60 473 6 16
9 39 499 5 78
9 69 582 5 82
9 43 670 5 70
755 2352