Machines, Tasks, Workers
2 14 1
M, T, St, Se, P 
0 13 0 0 26
0 2 26 5 28
0 3 59 6 60
0 7 125 5 89
0 6 219 13 83
0 1 315 7 26
0 12 348 9 79
0 0 436 17 88
1 9 0 0 100
1 4 100 6 62
1 8 168 8 80
1 5 256 5 80
1 10 341 5 91
1 11 453 8 79
541 129