Machines, Tasks, Workers
4 12 1
M, T, St, Se, P 
0 3 0 0 54
0 2 54 8 62
0 0 124 19 48
1 7 0 0 89
1 5 89 14 78
1 11 181 11 11
2 1 0 0 84
2 8 84 5 36
2 10 143 8 49
3 6 0 0 72
3 9 72 8 95
3 4 175 6 12
203 148