Machines, Tasks, Workers
7 70 1
M, T, St, Se, P 
0 63 0 0 96
0 59 96 7 68
0 13 178 9 68
0 67 257 10 30
0 43 299 20 53
0 16 381 5 80
0 55 470 8 86
1 52 0 0 56
1 47 56 6 91
1 3 153 6 68
1 53 227 10 72
1 11 341 7 100
1 9 448 7 72
1 51 527 5 46
1 57 586 5 40
2 22 0 0 69
2 54 74 5 26
2 38 105 8 12
2 19 128 9 33
2 40 170 8 93
2 21 273 7 41
2 8 330 11 60
2 31 401 5 84
2 29 491 6 56
2 25 553 6 47
2 26 614 8 16
3 50 0 0 60
3 61 62 5 54
3 34 122 6 55
3 56 187 5 16
3 27 208 5 75
3 7 288 6 65
3 37 368 5 16
3 58 389 7 87
3 44 485 6 20
3 24 520 7 32
3 14 559 8 31
4 36 0 0 64
4 46 67 7 86
4 66 160 5 82
4 20 247 5 28
4 42 280 7 76
4 33 363 5 87
4 41 455 6 11
4 28 478 7 11
4 4 497 8 88
4 32 593 21 26
5 35 0 0 20
5 68 20 5 91
5 60 116 6 12
5 12 142 5 16
5 48 165 5 85
5 69 267 6 81
5 6 354 5 17
5 23 376 5 84
5 17 465 5 36
5 65 506 6 21
5 0 541 5 21
5 39 567 13 14
6 10 0 0 33
6 64 33 5 98
6 30 137 5 68
6 62 213 6 31
6 18 252 5 34
6 5 294 5 26
6 49 325 5 89
6 2 419 5 91
6 45 515 5 16
6 1 536 5 40
6 15 581 5 45
640 1451