Machines, Tasks, Workers
3 12 1
M, T, St, Se, P 
0 11 0 0 70
0 1 71 5 95
0 6 182 8 44
1 5 0 0 86
1 3 86 8 51
1 9 145 5 50
1 2 200 11 25
2 4 0 0 65
2 7 65 6 10
2 8 81 5 65
2 10 151 9 15
2 0 175 7 61
243 149