Machines, Tasks, Workers
4 16 1
M, T, St, Se, P 
0 14 0 0 36
0 12 36 11 77
0 11 124 5 91
1 13 0 0 12
1 5 12 5 29
1 8 47 6 50
1 0 103 19 96
2 7 0 0 90
2 9 90 12 37
2 4 139 5 17
2 10 161 5 11
2 3 179 15 21
3 1 0 0 16
3 15 17 9 63
3 2 129 5 38
3 6 172 7 41
220 200