Machines, Tasks, Workers
5 35 1
M, T, St, Se, P 
0 1 0 0 67
0 13 67 9 78
0 18 157 6 51
0 11 214 10 43
0 8 267 12 47
0 6 326 7 23
0 33 356 6 80
1 31 0 0 75
1 17 76 6 62
1 10 144 5 36
1 28 185 5 93
1 5 283 6 48
1 12 344 12 43
1 24 403 30 12
2 0 0 0 25
2 23 25 5 96
2 20 126 12 98
2 2 236 6 94
2 25 336 8 34
2 30 378 15 65
3 7 0 0 10
3 22 10 5 22
3 21 37 7 48
3 34 92 7 14
3 14 113 5 34
3 15 152 5 63
3 27 224 9 14
3 16 247 8 56
3 4 311 7 76
3 26 394 9 31
4 3 0 0 53
4 19 53 6 93
4 32 163 6 83
4 29 255 9 100
4 9 364 13 61
458 508