Machines, Tasks, Workers
10 30 1
M, T, St, Se, P 
0 3 0 0 87
0 9 93 10 80
1 22 0 0 96
1 25 103 6 81
2 18 0 0 78
2 4 86 7 95
3 6 0 0 45
3 1 45 7 60
3 21 162 12 74
4 7 0 0 81
4 29 81 5 29
4 17 115 15 18
4 24 148 14 86
5 26 0 0 88
5 23 109 5 79
6 0 0 0 32
6 10 32 6 80
6 12 130 10 48
6 11 188 8 51
7 5 0 0 32
7 28 52 8 51
7 16 140 8 20
7 15 179 8 51
8 2 0 0 68
8 27 68 5 68
8 8 174 5 44
8 20 223 5 19
9 19 0 0 69
9 14 73 5 64
9 13 196 12 28
248 540