Machines, Tasks, Workers
5 50 1
M, T, St, Se, P 
0 23 0 0 31
0 26 33 9 98
0 37 140 19 72
0 39 231 16 89
0 16 336 9 80
0 28 425 27 88
0 20 541 8 88
0 24 637 5 95
1 11 0 0 22
1 47 22 5 66
1 21 93 9 74
1 8 176 6 81
1 18 263 8 79
1 33 350 8 97
1 7 455 5 88
1 40 549 7 23
1 1 579 6 83
1 41 668 6 63
2 3 0 0 28
2 35 28 5 71
2 19 104 7 88
2 32 199 5 43
2 48 247 5 65
2 10 317 5 73
2 9 395 5 16
2 49 416 5 79
2 42 500 5 93
2 13 598 25 56
2 17 679 6 33
3 2 0 0 69
3 27 69 5 98
3 38 182 5 72
3 31 271 5 42
3 12 322 5 70
3 45 400 6 83
3 4 489 7 95
3 25 591 6 52
3 15 649 17 30
3 30 696 23 12
4 36 0 0 89
4 14 111 5 18
4 6 134 5 48
4 46 187 6 23
4 29 216 5 34
4 43 255 6 27
4 44 288 5 71
4 5 364 5 83
4 34 460 7 68
4 0 535 6 100
4 22 642 5 77
737 868