Machines, Tasks, Workers
3 12 1
M, T, St, Se, P 
0 9 0 0 79
0 5 79 6 75
0 8 160 6 27
0 10 193 8 61
1 1 0 0 50
1 7 50 6 55
1 2 111 14 45
1 3 170 6 85
2 11 0 0 21
2 4 21 13 85
2 0 125 11 44
2 6 180 6 82
268 140