Machines, Tasks, Workers
7 70 1
M, T, St, Se, P 
0 46 0 0 60
0 52 60 10 59
0 65 129 8 25
0 25 162 15 75
0 29 252 5 50
0 24 307 6 43
0 57 356 6 96
0 16 469 28 67
0 54 564 18 49
1 11 0 0 29
1 37 29 7 49
1 58 110 10 74
1 53 194 5 74
1 9 273 8 100
1 38 381 10 51
1 18 446 6 51
1 41 518 5 71
1 20 599 12 32
2 60 0 0 39
2 10 44 5 35
2 45 84 6 25
2 1 120 5 62
2 33 188 5 75
2 4 268 5 38
2 23 313 9 50
2 22 372 6 61
2 36 439 7 83
2 30 529 18 23
2 13 588 5 42
3 32 0 0 71
3 51 71 5 20
3 21 104 6 62
3 15 182 6 23
3 39 211 5 63
3 0 281 6 44
3 61 333 5 71
3 59 414 7 61
3 7 497 5 48
3 47 550 7 63
3 42 620 6 21
4 17 0 0 19
4 50 19 6 65
4 56 90 9 38
4 64 137 5 95
4 34 237 5 84
4 44 326 7 61
4 55 402 7 51
4 49 464 5 31
4 67 507 5 68
4 28 582 6 44
5 3 0 0 39
5 48 39 5 98
5 2 142 6 84
5 63 232 5 44
5 14 287 5 97
5 27 391 6 10
5 12 409 5 38
5 6 452 5 53
5 26 512 6 76
5 35 594 5 38
6 40 0 0 89
6 5 99 5 63
6 31 177 5 30
6 68 216 5 73
6 62 294 6 49
6 19 349 5 38
6 69 397 5 57
6 66 459 5 38
6 8 502 5 34
6 43 557 5 81
647 1416