Machines, Tasks, Workers
10 100 1
M, T, St, Se, P 
0 60 0 0 92
1 86 0 0 35
1 97 51 9 92
1 5 167 9 96
1 37 278 10 86
1 75 390 10 71
2 76 0 0 70
2 19 70 8 41
2 68 119 5 31
2 6 162 5 22
2 90 191 9 99
2 1 299 5 69
2 8 373 6 99
2 87 489 6 36
2 54 538 11 47
2 81 660 14 36
3 70 0 0 74
3 14 95 8 79
3 15 186 5 37
3 33 228 5 12
3 59 258 5 42
3 23 305 5 71
3 16 384 6 29
3 92 428 6 36
3 10 473 5 84
3 42 562 5 17
3 26 586 5 43
3 27 641 6 49
4 41 0 0 42
4 63 44 7 51
4 20 103 5 61
4 2 181 5 86
4 99 273 5 66
4 40 350 6 94
4 85 450 5 16
4 89 484 5 86
4 31 575 6 30
4 11 613 12 72
5 35 0 0 28
5 44 28 5 53
5 51 88 7 60
5 9 157 5 31
5 29 200 5 79
5 36 288 5 72
5 12 367 6 55
5 52 443 6 95
5 32 554 6 29
5 18 591 5 83
5 67 688 9 14
6 22 0 0 62
6 30 65 5 99
6 62 176 5 59
6 80 247 6 60
6 7 313 5 58
6 72 379 5 54
6 24 438 5 36
6 91 479 5 15
6 39 500 7 96
6 78 603 5 13
6 94 635 6 14
6 96 655 5 50
7 13 0 0 57
7 83 60 5 10
7 38 83 5 22
7 74 110 5 97
7 61 212 5 12
7 66 238 9 20
7 49 268 5 20
7 65 293 5 22
7 34 320 5 74
7 95 400 5 87
7 84 495 5 33
7 55 533 5 10
7 45 549 5 50
7 79 608 5 12
7 3 630 5 45
7 50 680 8 20
8 47 0 0 72
8 58 78 5 47
8 0 130 5 17
8 98 152 5 76
8 88 233 5 25
8 21 263 5 77
8 73 345 5 73
8 46 423 5 40
8 57 468 5 42
8 71 515 5 74
8 17 596 5 88
9 4 0 0 39
9 77 39 5 93
9 64 137 5 78
9 93 220 6 27
9 43 253 5 51
9 56 325 5 32
9 53 362 5 88
9 25 455 6 44
9 82 507 5 66
9 28 581 5 34
9 69 625 5 15
9 48 647 8 53
711 2397