Machines, Tasks, Workers
5 35 1
M, T, St, Se, P 
0 31 0 0 93
0 25 107 24 31
0 20 162 13 35
0 4 210 15 84
0 10 309 6 63
0 17 378 5 45
1 12 0 0 53
1 11 53 5 96
1 32 154 5 67
1 18 226 7 100
1 24 334 27 38
1 34 399 8 19
2 3 0 0 61
2 0 63 8 44
2 27 131 6 46
2 2 183 5 62
2 7 250 10 17
2 22 277 5 29
2 15 315 9 56
2 19 383 11 32
3 13 0 0 75
3 9 75 10 12
3 8 97 5 38
3 23 140 9 37
3 29 188 7 61
3 1 260 6 16
3 26 282 5 42
3 30 329 5 23
3 21 361 9 49
4 33 0 0 56
4 6 58 5 39
4 14 102 5 48
4 5 175 8 77
4 28 266 5 97
4 16 370 8 34
428 483