Machines, Tasks, Workers
5 15 1
M, T, St, Se, P 
0 5 0 0 70
0 6 70 5 73
0 12 148 12 20
1 1 0 0 92
1 8 92 8 84
2 2 0 0 36
2 14 42 27 37
2 10 110 17 56
3 0 0 0 36
3 13 36 6 39
3 7 100 10 15
3 9 127 5 43
4 4 0 0 70
4 3 75 8 49
4 11 132 14 27
184 219