Machines, Tasks, Workers
5 20 1
M, T, St, Se, P 
0 14 0 0 98
0 0 98 7 57
0 15 162 11 70
0 7 243 5 38
1 10 0 0 70
1 17 70 15 51
1 3 136 10 83
1 4 229 8 21
2 16 0 0 94
2 13 129 6 74
2 1 218 8 59
3 9 0 0 81
3 18 85 8 19
3 2 112 17 54
3 19 183 13 70
4 11 0 0 28
4 8 28 6 67
4 12 105 5 100
4 6 210 8 26
4 5 248 14 23
286 295