Machines, Tasks, Workers
5 35 1
M, T, St, Se, P 
0 27 0 0 73
0 29 73 21 81
0 15 175 7 96
0 20 278 8 53
0 16 339 5 89
0 13 433 10 60
1 21 0 0 14
1 1 14 5 87
1 5 106 6 47
1 33 159 9 40
1 19 228 7 86
1 30 321 11 63
1 10 397 12 39
1 8 448 5 48
2 18 0 0 63
2 7 67 5 61
2 3 133 5 72
2 22 210 12 87
2 14 313 8 33
2 26 354 13 88
2 31 455 9 30
3 25 0 0 79
3 28 94 6 77
3 24 182 6 49
3 23 237 7 49
3 9 293 6 70
3 4 369 7 31
3 17 409 7 39
4 32 0 0 61
4 6 61 6 59
4 11 126 7 89
4 0 222 6 80
4 12 308 5 78
4 34 391 6 27
4 2 424 8 63
503 485