Machines, Tasks, Workers
5 25 1
M, T, St, Se, P 
0 0 0 0 96
0 20 96 11 16
0 6 136 6 95
0 15 237 27 94
1 13 0 0 46
1 17 46 7 67
1 19 120 16 52
1 18 195 9 80
1 7 284 15 77
2 14 0 0 78
2 2 78 5 62
2 8 145 5 55
2 3 213 5 69
2 4 299 8 68
3 23 0 0 64
3 12 64 5 95
3 11 164 5 24
3 21 204 9 51
3 10 264 15 26
3 16 307 7 57
4 5 0 0 90
4 24 90 5 94
4 22 189 6 34
4 1 229 5 97
4 9 331 11 27
376 379