Machines, Tasks, Workers
10 70 1
M, T, St, Se, P 
0 15 0 0 35
0 20 35 5 54
0 4 110 6 17
0 31 137 5 38
0 11 183 5 94
0 35 291 6 30
0 45 383 9 99
1 26 0 0 71
1 5 72 5 21
1 29 148 6 80
1 13 234 6 41
1 47 281 5 39
1 53 330 8 97
1 48 487 11 45
2 51 0 0 52
2 19 52 5 33
2 8 90 5 16
2 40 121 5 18
2 49 154 7 92
2 28 253 5 64
2 33 322 8 36
2 6 374 9 94
3 3 0 0 90
3 62 95 5 90
3 27 190 6 86
3 1 286 5 58
3 69 360 7 45
3 54 412 5 12
3 41 473 8 74
4 10 0 0 91
4 30 100 5 73
4 37 178 5 77
4 39 266 5 59
4 67 351 9 50
4 46 445 9 92
5 12 0 0 18
5 56 18 6 76
5 68 105 5 15
5 36 126 5 82
5 55 213 5 25
5 44 243 5 65
5 64 315 7 73
5 65 454 19 88
6 14 0 0 45
6 52 46 5 48
6 16 131 6 79
6 23 218 5 73
6 22 297 6 35
6 60 338 13 14
6 38 417 11 90
6 66 518 13 20
7 18 0 0 52
7 7 57 5 80
7 50 142 6 44
7 2 196 7 99
7 34 303 5 49
7 42 367 7 47
7 63 428 17 25
7 32 481 6 71
8 24 0 0 41
8 0 41 5 65
8 21 116 5 84
8 61 205 5 88
8 59 308 7 76
8 57 404 8 95
9 25 0 0 66
9 9 66 6 83
9 17 161 6 92
9 43 259 7 97
9 58 392 12 78
561 1610