Machines, Tasks, Workers
7 35 1
M, T, St, Se, P 
0 25 0 0 19
0 28 19 9 88
0 26 116 11 50
0 16 177 5 67
0 9 249 9 94
1 3 0 0 29
1 34 29 9 79
1 32 127 9 76
1 22 212 21 74
1 1 307 7 43
2 5 0 0 47
2 21 64 10 97
2 33 195 9 97
2 0 314 31 13
3 6 0 0 65
3 30 87 10 95
3 18 204 7 25
3 8 270 7 78
4 12 0 0 55
4 11 55 9 89
4 19 153 6 30
4 31 189 6 90
4 27 285 9 64
5 29 0 0 33
5 14 38 7 34
5 20 79 8 83
5 10 170 7 97
5 2 277 8 23
6 4 0 0 31
6 17 45 5 54
6 13 104 5 42
6 15 159 5 74
6 23 238 5 20
6 24 263 7 24
6 7 294 6 27
358 575