Machines, Tasks, Workers
5 35 1
M, T, St, Se, P 
0 28 0 0 88
0 31 88 7 90
0 22 187 10 74
0 20 271 14 83
0 9 368 11 94
1 12 0 0 55
1 8 102 21 78
1 32 201 13 76
1 10 290 6 97
1 27 393 6 64
2 5 0 0 47
2 21 47 10 97
2 30 154 6 95
2 18 255 7 25
2 2 296 6 23
2 6 325 12 65
2 25 409 20 19
2 0 448 9 13
3 33 0 0 97
3 34 97 5 79
3 3 181 6 29
3 13 216 6 42
3 15 264 5 74
3 26 343 5 50
3 19 399 5 30
3 4 434 6 31
4 7 0 0 27
4 14 27 5 34
4 17 66 5 54
4 1 125 5 43
4 16 173 6 67
4 11 246 8 89
4 29 348 14 33
4 23 404 5 20
4 24 440 7 24
473 490