Machines, Tasks, Workers
3 12 1
M, T, St, Se, P 
0 1 0 0 39
0 0 39 19 65
0 3 123 13 20
0 7 156 14 45
0 2 215 13 43
1 9 0 0 65
1 6 65 6 35
1 5 106 9 88
1 11 203 6 60
2 8 0 0 74
2 10 74 9 94
2 4 177 9 83
271 144