Machines, Tasks, Workers
7 35 1
M, T, St, Se, P 
0 12 0 0 41
0 19 43 7 95
0 31 149 17 78
0 27 247 11 88
1 29 0 0 37
1 7 37 6 91
1 21 134 15 90
1 6 242 5 88
2 32 0 0 74
2 2 74 6 41
2 0 121 8 57
2 18 186 6 35
2 34 227 9 45
2 20 283 11 50
3 3 0 0 85
3 22 101 9 68
3 14 178 6 49
3 4 236 6 38
3 1 294 10 39
4 10 0 0 93
4 8 93 8 98
4 28 199 5 11
4 33 215 6 39
4 26 260 23 23
5 30 0 0 85
5 17 87 5 53
5 25 166 5 47
5 9 221 6 70
5 24 304 8 26
6 11 0 0 51
6 16 51 5 23
6 15 80 7 45
6 13 171 6 21
6 5 204 5 78
6 23 312 8 22
346 591