Machines, Tasks, Workers
4 12 1
M, T, St, Se, P 
0 4 0 0 94
0 5 96 10 77
1 2 0 0 54
1 0 54 35 92
2 6 0 0 32
2 3 32 10 69
2 10 111 7 55
3 9 0 0 42
3 7 42 10 26
3 8 89 7 31
3 11 127 6 16
3 1 149 5 22
183 149