Machines, Tasks, Workers
4 12 1
M, T, St, Se, P 
0 10 0 0 32
0 5 32 6 82
0 3 123 8 98
1 8 0 0 50
1 7 50 16 95
1 9 161 5 72
2 1 0 0 90
2 6 90 5 13
2 0 108 15 100
3 4 0 0 39
3 2 39 10 89
3 11 138 18 86
242 141