Machines, Tasks, Workers
3 15 1
M, T, St, Se, P 
0 12 0 0 14
0 4 14 13 81
0 5 108 7 56
0 1 171 20 91
1 14 0 0 41
1 2 41 12 32
1 6 85 11 14
1 7 122 5 17
1 10 144 5 61
1 13 210 9 39
2 3 0 0 53
2 0 53 8 53
2 11 115 7 71
2 8 193 6 38
2 9 237 5 43
285 172