Machines, Tasks, Workers
10 100 1
M, T, St, Se, P 
0 67 0 0 98
1 26 0 0 64
1 13 88 15 27
1 25 130 10 83
1 71 223 5 53
1 15 317 17 45
1 83 380 7 53
1 51 509 14 68
2 94 0 0 64
2 34 64 7 43
2 86 119 5 46
2 99 180 5 39
2 39 228 10 38
2 0 278 8 96
2 58 399 5 18
2 9 433 9 58
2 64 503 6 49
2 85 562 9 56
2 1 636 13 68
3 10 0 0 45
3 36 45 6 58
3 63 113 6 81
3 27 200 7 67
3 23 292 7 90
3 41 394 5 30
3 76 455 5 82
3 31 542 5 65
3 6 618 6 94
4 81 0 0 75
4 97 77 6 65
4 11 155 9 80
4 70 244 5 45
4 77 310 7 64
4 37 387 7 48
4 90 442 8 42
4 72 492 5 51
4 46 552 5 98
4 7 655 8 43
5 8 0 0 71
5 45 71 6 72
5 30 164 5 42
5 12 211 5 69
5 66 286 6 83
5 68 375 5 41
5 61 421 7 29
5 59 471 7 57
5 91 535 5 44
5 56 584 5 78
5 73 668 6 23
6 18 0 0 92
6 96 103 5 27
6 40 145 5 15
6 60 169 6 92
6 93 267 6 86
6 47 359 5 95
6 3 466 5 95
6 53 576 5 50
6 17 631 5 13
6 48 649 5 17
6 88 674 9 39
7 98 0 0 48
7 57 51 6 19
7 21 83 5 11
7 50 108 5 74
7 44 187 6 41
7 62 238 5 26
7 19 273 5 87
7 42 369 5 31
7 29 405 6 38
7 43 460 6 20
7 22 486 5 30
7 84 523 8 36
7 95 571 5 23
7 2 599 5 55
7 14 663 5 48
8 55 0 0 55
8 33 57 5 77
8 35 140 5 22
8 49 175 5 70
8 16 250 5 50
8 79 305 5 21
8 82 334 5 85
8 54 428 5 42
8 52 478 5 72
8 89 557 5 51
8 32 613 5 61
8 24 683 6 34
9 28 0 0 40
9 20 40 5 95
9 65 150 5 36
9 5 193 5 16
9 92 216 5 74
9 4 299 6 57
9 38 364 5 45
9 74 414 5 24
9 75 450 5 43
9 87 498 5 40
9 80 547 5 54
9 78 606 5 74
9 69 689 12 22
723 2419