Machines, Tasks, Workers
4 40 1
M, T, St, Se, P 
0 20 0 0 61
0 1 61 12 68
0 13 141 10 94
0 36 245 17 17
0 14 279 21 78
0 26 378 17 40
0 25 435 6 93
0 38 534 10 78
1 39 0 0 94
1 35 94 6 98
1 19 198 11 11
1 23 220 6 44
1 24 300 6 48
1 11 354 5 39
1 22 408 7 43
1 33 458 17 64
1 4 544 17 65
2 6 0 0 38
2 3 38 8 55
2 34 101 5 20
2 37 126 6 53
2 16 185 8 76
2 29 269 7 43
2 32 319 5 25
2 2 349 5 65
2 27 419 6 17
2 15 442 5 27
2 21 475 5 36
2 30 516 5 43
2 7 564 8 17
2 10 589 6 32
3 28 0 0 68
3 8 73 5 50
3 18 132 5 93
3 5 230 5 14
3 12 262 6 57
3 31 325 6 67
3 17 398 10 88
3 0 496 5 92
3 9 595 15 16
627 533