Machines, Tasks, Workers
7 28 1
M, T, St, Se, P 
0 6 0 0 87
0 18 87 18 49
0 1 159 8 84
1 10 0 0 68
1 14 68 5 58
1 5 131 12 38
1 0 181 14 32
1 21 230 9 39
2 23 0 0 77
2 4 77 10 22
2 13 112 6 31
2 7 151 8 39
2 22 198 9 57
3 16 0 0 97
3 3 123 6 42
3 9 173 6 63
3 27 242 12 18
4 19 0 0 49
4 24 49 5 96
4 12 167 6 94
5 2 0 0 96
5 26 105 7 92
5 11 212 18 29
6 17 0 0 31
6 20 31 8 45
6 25 118 5 20
6 8 143 8 49
6 15 207 5 64
278 434