Machines, Tasks, Workers
7 49 1
M, T, St, Se, P 
0 43 0 0 30
0 34 30 7 41
0 15 78 5 90
0 26 173 11 92
0 47 276 8 80
0 24 364 23 89
1 38 0 0 29
1 40 42 7 92
1 6 141 7 99
1 45 250 8 35
1 2 307 10 70
1 28 399 14 56
2 5 0 0 91
2 29 91 6 94
2 19 191 5 42
2 41 241 9 15
2 36 268 5 66
2 31 342 5 71
2 13 419 19 19
2 11 458 11 12
3 37 0 0 73
3 3 73 5 33
3 21 111 7 61
3 39 184 5 90
3 30 284 6 76
3 27 387 12 68
3 35 469 6 14
4 44 0 0 37
4 25 37 5 25
4 48 67 6 95
4 12 168 5 63
4 32 236 5 57
4 4 302 5 29
4 33 336 6 96
4 10 438 6 49
5 23 0 0 95
5 1 97 6 95
5 14 198 6 59
5 8 263 5 55
5 9 323 5 70
5 42 413 6 33
5 17 452 6 13
6 20 0 0 11
6 22 11 5 85
6 7 103 6 94
6 16 204 8 84
6 46 296 6 52
6 0 354 7 57
6 18 444 6 40
493 985