Machines, Tasks, Workers
4 16 1
M, T, St, Se, P 
0 12 0 0 87
0 10 87 7 100
0 13 201 8 72
1 4 0 0 17
1 1 17 7 97
1 5 121 8 74
1 3 209 10 67
2 8 0 0 93
2 15 94 9 93
2 11 196 5 15
2 7 219 11 32
2 6 262 6 17
3 2 0 0 38
3 14 38 6 84
3 9 129 5 97
3 0 231 8 40
286 192