Machines, Tasks, Workers
4 40 1
M, T, St, Se, P 
0 25 0 0 69
0 1 69 5 47
0 8 121 6 40
0 36 167 5 81
0 34 253 12 16
0 24 283 8 17
0 35 308 7 73
0 2 388 8 93
0 0 489 8 48
0 21 551 7 34
0 31 597 6 29
1 26 0 0 48
1 3 48 5 49
1 23 102 5 77
1 4 184 5 83
1 15 291 8 15
1 9 315 6 89
1 30 410 5 56
1 28 471 9 70
1 27 558 7 51
2 7 0 0 88
2 12 88 10 76
2 10 174 5 44
2 33 223 6 11
2 5 240 5 80
2 11 325 6 88
2 37 419 5 91
2 32 515 9 81
2 18 605 10 29
3 16 0 0 38
3 29 38 6 28
3 13 74 5 64
3 19 143 5 44
3 39 192 5 81
3 17 278 5 47
3 20 331 5 66
3 22 402 6 93
3 14 501 12 31
3 38 544 7 39
3 6 590 7 51
648 538