Machines, Tasks, Workers
7 21 1
M, T, St, Se, P 
0 7 0 0 63
0 5 66 7 63
0 16 141 7 29
1 9 0 0 93
1 19 96 22 58
2 8 0 0 47
2 6 50 8 60
2 12 118 15 59
3 10 0 0 43
3 20 43 7 68
3 17 133 8 10
4 15 0 0 28
4 13 28 6 20
4 14 58 8 23
4 1 89 7 58
4 11 154 20 18
5 0 0 0 61
5 18 73 8 68
5 4 174 6 10
6 2 0 0 73
6 3 81 5 71
192 323