2, 20, 
[25, 53, 88, 92, 32, 70, 77, 76, 15, 41,
76, 94, 94, 66, 47, 41, 29, 60, 78, 73]
[[0, 36, 39, 43, 15, 6, 44, 26, 25, 34,
6, 8, 22, 45, 50, 28, 17, 23, 15, 7], [39, 0, 22, 5, 35, 22, 10, 8, 8, 13,
31, 38, 20, 27, 33, 33, 32, 5, 40, 19], [17, 30, 0, 29, 25, 23, 11, 40, 9, 44,
38, 38, 12, 30, 14, 24, 19, 38, 12, 43], [41, 23, 17, 0, 8, 19, 39, 46, 16, 21,
47, 16, 33, 46, 14, 14, 13, 43, 31, 16], [21, 50, 14, 25, 0, 43, 31, 40, 18, 14,
19, 44, 43, 47, 23, 8, 44, 18, 26, 11], [16, 29, 39, 48, 26, 0, 9, 16, 21, 50,
15, 27, 12, 47, 32, 30, 42, 14, 42, 16], [49, 32, 6, 6, 7, 24, 0, 37, 27, 10,
20, 46, 22, 24, 31, 50, 43, 15, 17, 50], [19, 24, 18, 50, 43, 37, 47, 0, 19, 44,
17, 35, 27, 15, 23, 37, 34, 27, 37, 45], [23, 39, 15, 35, 20, 9, 39, 20, 0, 32,
37, 31, 47, 43, 28, 24, 30, 19, 7, 14], [27, 22, 34, 44, 35, 23, 12, 5, 45, 0,
21, 21, 28, 22, 47, 20, 31, 13, 33, 34],
[49, 32, 38, 11, 36, 38, 35, 37, 50, 11,
0, 20, 24, 28, 29, 31, 5, 10, 22, 50], [48, 38, 25, 16, 21, 7, 30, 46, 13, 44,
22, 0, 36, 24, 26, 22, 45, 35, 27, 13], [39, 25, 6, 38, 5, 48, 5, 43, 20, 19,
26, 42, 0, 34, 38, 41, 16, 12, 26, 41], [13, 39, 29, 10, 40, 35, 5, 7, 12, 36,
21, 33, 13, 0, 8, 13, 27, 37, 37, 16], [7, 38, 31, 44, 23, 30, 7, 37, 35, 11,
38, 13, 37, 30, 0, 39, 50, 46, 46, 49], [48, 48, 35, 34, 48, 43, 33, 30, 29, 18,
29, 25, 15, 22, 31, 0, 26, 13, 35, 38], [33, 19, 22, 6, 49, 13, 46, 34, 19, 13,
31, 41, 39, 45, 27, 9, 0, 7, 47, 47], [48, 27, 12, 22, 32, 17, 48, 20, 50, 18,
42, 16, 12, 39, 38, 34, 31, 0, 34, 36], [48, 50, 16, 21, 37, 38, 37, 20, 46, 26,
24, 17, 39, 13, 17, 10, 11, 5, 0, 25], [16, 31, 34, 6, 22, 20, 34, 5, 12, 43,
29, 23, 15, 12, 33, 49, 16, 42, 35, 0]]
