3, 15, 
[25, 57, 61, 47, 92, 28, 38, 53, 77, 100,
33, 40, 41, 40, 23]
[[0, 36, 39, 43, 15, 6, 44, 26, 25, 34,
6, 8, 22, 45, 50], [17, 0, 23, 15, 7, 26, 39, 22, 5, 35,
22, 10, 8, 8, 13], [38, 20, 0, 27, 33, 33, 32, 5, 40, 19,
44, 17, 30, 29, 25], [11, 40, 9, 0, 44, 38, 38, 12, 30, 14,
24, 19, 38, 12, 43], [41, 23, 17, 8, 0, 19, 39, 46, 16, 21,
47, 16, 33, 46, 14], [13, 43, 31, 16, 16, 0, 21, 50, 14, 25,
43, 31, 40, 18, 14], [44, 43, 47, 23, 8, 44, 0, 18, 26, 11,
35, 16, 29, 39, 48], [9, 16, 21, 50, 15, 27, 12, 0, 47, 32,
30, 42, 14, 42, 16], [49, 32, 6, 6, 7, 24, 37, 27, 0, 10,
20, 46, 22, 24, 31], [43, 15, 17, 50, 38, 19, 24, 18, 50, 0,
43, 37, 47, 19, 44],
[35, 27, 15, 23, 37, 34, 27, 37, 45, 7,
0, 23, 39, 15, 35], [9, 39, 20, 32, 37, 31, 47, 43, 28, 24,
30, 0, 19, 7, 14], [27, 22, 34, 44, 35, 23, 12, 5, 45, 21,
21, 28, 0, 22, 47], [31, 13, 33, 34, 38, 49, 32, 38, 11, 36,
38, 35, 37, 0, 50], [20, 24, 28, 29, 31, 5, 10, 22, 50, 47,
48, 38, 25, 16, 0]]
