7, 28, 
[25, 16, 38, 51, 24, 76, 39, 61, 32, 83,
47, 61, 19, 41, 46, 43, 33, 51, 84, 79,
56, 92, 84, 25, 71, 98, 82, 60]
[[0, 36, 39, 43, 15, 6, 44, 26, 25, 34,
6, 8, 22, 45, 50, 28, 17, 23, 15, 7,
26, 39, 22, 5, 35, 22, 10, 8], [13, 0, 31, 38, 20, 27, 33, 33, 32, 5,
40, 19, 44, 17, 30, 29, 25, 23, 11, 40,
9, 44, 38, 38, 12, 30, 14, 24], [38, 12, 0, 43, 46, 41, 23, 17, 8, 19,
39, 46, 16, 21, 47, 16, 33, 46, 14, 14,
13, 43, 31, 16, 16, 21, 50, 14], [43, 31, 40, 0, 18, 14, 19, 44, 43, 47,
23, 8, 44, 18, 26, 11, 35, 16, 29, 39,
48, 26, 9, 16, 21, 50, 15, 27], [47, 32, 30, 42, 0, 14, 42, 16, 38, 49,
32, 6, 6, 7, 24, 37, 27, 10, 20, 46,
22, 24, 31, 50, 43, 15, 17, 50], [19, 24, 18, 50, 43, 0, 37, 47, 19, 44,
17, 35, 27, 15, 23, 37, 34, 27, 37, 45,
7, 23, 39, 15, 35, 20, 9, 39], [32, 37, 31, 47, 43, 28, 0, 24, 30, 19,
7, 14, 20, 27, 22, 34, 44, 35, 23, 12,
5, 45, 21, 21, 28, 22, 47, 20], [13, 33, 34, 38, 49, 32, 38, 0, 11, 36,
38, 35, 37, 50, 11, 20, 24, 28, 29, 31,
5, 10, 22, 50, 47, 48, 38, 25], [21, 7, 30, 46, 13, 44, 22, 36, 0, 24,
26, 22, 45, 35, 27, 13, 47, 39, 25, 6,
38, 5, 48, 5, 43, 20, 19, 26], [34, 38, 41, 16, 12, 26, 41, 33, 13, 0,
39, 29, 10, 40, 35, 5, 7, 12, 36, 21,
33, 13, 8, 13, 27, 37, 37, 16],
[7, 38, 31, 44, 23, 30, 7, 37, 35, 11,
0, 38, 13, 37, 30, 39, 50, 46, 46, 49,
21, 48, 48, 35, 34, 48, 43, 33], [29, 18, 29, 25, 15, 22, 31, 26, 13, 35,
38, 0, 14, 33, 19, 22, 6, 49, 13, 46,
34, 19, 13, 31, 41, 39, 45, 27], [7, 47, 47, 30, 48, 27, 12, 22, 32, 17,
48, 20, 0, 50, 18, 42, 16, 12, 39, 38,
34, 31, 34, 36, 39, 48, 50, 16], [37, 38, 37, 20, 46, 26, 24, 17, 39, 13,
17, 10, 11, 0, 5, 25, 37, 16, 31, 34,
6, 22, 20, 34, 5, 12, 43, 29], [15, 12, 33, 49, 16, 42, 35, 44, 30, 32,
25, 29, 45, 30, 0, 27, 50, 26, 33, 27,
30, 14, 50, 28, 21, 20, 14, 49], [9, 37, 13, 7, 47, 5, 6, 31, 30, 19,
45, 20, 20, 31, 11, 0, 35, 11, 10, 12,
43, 43, 34, 29, 30, 21, 49, 14], [35, 16, 33, 6, 43, 18, 39, 44, 23, 22,
33, 44, 28, 47, 24, 12, 0, 38, 11, 15,
33, 43, 43, 15, 15, 6, 11, 29], [12, 34, 36, 48, 42, 40, 46, 19, 36, 43,
28, 7, 43, 17, 16, 39, 28, 0, 18, 19,
47, 14, 22, 42, 14, 39, 31, 24], [5, 23, 50, 36, 40, 18, 37, 39, 37, 35,
7, 38, 5, 10, 26, 45, 34, 12, 0, 41,
31, 31, 27, 37, 39, 43, 32, 16], [43, 27, 13, 15, 21, 9, 18, 17, 43, 43,
17, 29, 30, 28, 6, 43, 16, 31, 47, 0,
9, 47, 47, 30, 32, 41, 44, 15],
[37, 16, 43, 12, 7, 48, 47, 14, 27, 43,
22, 47, 42, 14, 7, 42, 45, 16, 5, 8,
0, 26, 45, 27, 16, 36, 11, 44], [47, 32, 24, 28, 44, 41, 31, 32, 50, 10,
26, 33, 31, 42, 20, 24, 14, 5, 17, 38,
45, 0, 39, 37, 30, 43, 12, 7], [39, 31, 27, 47, 9, 5, 18, 46, 23, 44,
7, 6, 33, 25, 43, 40, 40, 23, 27, 34,
29, 8, 0, 7, 36, 44, 10, 5], [46, 45, 35, 36, 38, 39, 43, 23, 33, 30,
28, 31, 29, 25, 5, 20, 48, 16, 9, 24,
47, 47, 40, 0, 25, 35, 24, 17], [28, 42, 7, 49, 50, 10, 50, 29, 14, 22,
18, 44, 33, 24, 11, 14, 45, 47, 10, 9,
8, 38, 38, 33, 0, 6, 32, 16], [10, 14, 6, 19, 27, 12, 45, 42, 28, 29,
31, 23, 25, 26, 11, 31, 48, 15, 42, 27,
40, 30, 31, 39, 19, 0, 13, 32], [8, 24, 48, 23, 45, 5, 24, 50, 20, 50,
22, 26, 30, 20, 37, 20, 21, 37, 34, 32,
32, 12, 36, 41, 41, 40, 0, 14], [34, 18, 50, 18, 30, 8, 39, 9, 32, 12,
29, 24, 7, 11, 15, 48, 44, 20, 47, 25,
44, 15, 22, 32, 30, 50, 13, 0]]
