6, 36, 
[47, 46, 50, 53, 52, 49, 48, 55, 46, 52,
45, 47, 48, 55, 52, 52, 48, 51, 52, 52,
55, 46, 46, 49, 53, 46, 53, 48, 54, 54,
0, 0, 0, 0, 0, 0]
[[4503599627370494, 5, 5, 4, 5, 5, 5, 4, 5, 5,
4, 5, 5, 4, 4, 5, 5, 4, 4, 4,
5, 4, 4, 5, 4, 4, 5, 4, 5, 4,
4503599627370494, 4503599627370494, 4503599627370494, 4503599627370494, 4503599627370494, 4503599627370494], [5, 4503599627370494, 5, 4, 5, 5, 5, 4, 5, 5,
4, 5, 5, 4, 4, 5, 5, 4, 4, 4,
5, 4, 4, 5, 4, 4, 5, 4, 5, 4,
4503599627370494, 4503599627370494, 4503599627370494, 4503599627370494, 4503599627370494, 4503599627370494], [5, 5, 4503599627370494, 4, 5, 5, 5, 4, 5, 5,
4, 5, 5, 4, 4, 5, 5, 4, 4, 4,
5, 4, 4, 5, 4, 4, 5, 4, 5, 4,
4503599627370494, 4503599627370494, 4503599627370494, 4503599627370494, 4503599627370494, 4503599627370494], [5, 5, 5, 4503599627370494, 5, 5, 5, 4, 5, 5,
4, 5, 5, 4, 4, 5, 5, 4, 4, 4,
5, 4, 4, 5, 4, 4, 5, 4, 5, 4,
4503599627370494, 4503599627370494, 4503599627370494, 4503599627370494, 4503599627370494, 4503599627370494], [5, 5, 5, 4, 4503599627370494, 5, 5, 4, 5, 5,
4, 5, 5, 4, 4, 5, 5, 4, 4, 4,
5, 4, 4, 5, 4, 4, 5, 4, 5, 4,
4503599627370494, 4503599627370494, 4503599627370494, 4503599627370494, 4503599627370494, 4503599627370494], [5, 5, 5, 4, 5, 4503599627370494, 5, 4, 5, 5,
4, 5, 5, 4, 4, 5, 5, 4, 4, 4,
5, 4, 4, 5, 4, 4, 5, 4, 5, 4,
4503599627370494, 4503599627370494, 4503599627370494, 4503599627370494, 4503599627370494, 4503599627370494], [5, 5, 5, 4, 5, 5, 4503599627370494, 4, 5, 5,
4, 5, 5, 4, 4, 5, 5, 4, 4, 4,
5, 4, 4, 5, 4, 4, 5, 4, 5, 4,
4503599627370494, 4503599627370494, 4503599627370494, 4503599627370494, 4503599627370494, 4503599627370494], [5, 5, 5, 4, 5, 5, 5, 4503599627370494, 5, 5,
4, 5, 5, 4, 4, 5, 5, 4, 4, 4,
5, 4, 4, 5, 4, 4, 5, 4, 5, 4,
4503599627370494, 4503599627370494, 4503599627370494, 4503599627370494, 4503599627370494, 4503599627370494], [5, 5, 5, 4, 5, 5, 5, 4, 4503599627370494, 5,
4, 5, 5, 4, 4, 5, 5, 4, 4, 4,
5, 4, 4, 5, 4, 4, 5, 4, 5, 4,
4503599627370494, 4503599627370494, 4503599627370494, 4503599627370494, 4503599627370494, 4503599627370494], [5, 5, 5, 4, 5, 5, 5, 4, 5, 4503599627370494,
4, 5, 5, 4, 4, 5, 5, 4, 4, 4,
5, 4, 4, 5, 4, 4, 5, 4, 5, 4,
4503599627370494, 4503599627370494, 4503599627370494, 4503599627370494, 4503599627370494, 4503599627370494],
[5, 5, 5, 4, 5, 5, 5, 4, 5, 5,
4503599627370494, 5, 5, 4, 4, 5, 5, 4, 4, 4,
5, 4, 4, 5, 4, 4, 5, 4, 5, 4,
4503599627370494, 4503599627370494, 4503599627370494, 4503599627370494, 4503599627370494, 4503599627370494], [5, 5, 5, 4, 5, 5, 5, 4, 5, 5,
4, 4503599627370494, 5, 4, 4, 5, 5, 4, 4, 4,
5, 4, 4, 5, 4, 4, 5, 4, 5, 4,
4503599627370494, 4503599627370494, 4503599627370494, 4503599627370494, 4503599627370494, 4503599627370494], [5, 5, 5, 4, 5, 5, 5, 4, 5, 5,
4, 5, 4503599627370494, 4, 4, 5, 5, 4, 4, 4,
5, 4, 4, 5, 4, 4, 5, 4, 5, 4,
4503599627370494, 4503599627370494, 4503599627370494, 4503599627370494, 4503599627370494, 4503599627370494], [5, 5, 5, 4, 5, 5, 5, 4, 5, 5,
4, 5, 5, 4503599627370494, 4, 5, 5, 4, 4, 4,
5, 4, 4, 5, 4, 4, 5, 4, 5, 4,
4503599627370494, 4503599627370494, 4503599627370494, 4503599627370494, 4503599627370494, 4503599627370494], [5, 5, 5, 4, 5, 5, 5, 4, 5, 5,
4, 5, 5, 4, 4503599627370494, 5, 5, 4, 4, 4,
5, 4, 4, 5, 4, 4, 5, 4, 5, 4,
4503599627370494, 4503599627370494, 4503599627370494, 4503599627370494, 4503599627370494, 4503599627370494], [5, 5, 5, 4, 5, 5, 5, 4, 5, 5,
4, 5, 5, 4, 4, 4503599627370494, 5, 4, 4, 4,
5, 4, 4, 5, 4, 4, 5, 4, 5, 4,
4503599627370494, 4503599627370494, 4503599627370494, 4503599627370494, 4503599627370494, 4503599627370494], [5, 5, 5, 4, 5, 5, 5, 4, 5, 5,
4, 5, 5, 4, 4, 5, 4503599627370494, 4, 4, 4,
5, 4, 4, 5, 4, 4, 5, 4, 5, 4,
4503599627370494, 4503599627370494, 4503599627370494, 4503599627370494, 4503599627370494, 4503599627370494], [5, 5, 5, 4, 5, 5, 5, 4, 5, 5,
4, 5, 5, 4, 4, 5, 5, 4503599627370494, 4, 4,
5, 4, 4, 5, 4, 4, 5, 4, 5, 4,
4503599627370494, 4503599627370494, 4503599627370494, 4503599627370494, 4503599627370494, 4503599627370494], [5, 5, 5, 4, 5, 5, 5, 4, 5, 5,
4, 5, 5, 4, 4, 5, 5, 4, 4503599627370494, 4,
5, 4, 4, 5, 4, 4, 5, 4, 5, 4,
4503599627370494, 4503599627370494, 4503599627370494, 4503599627370494, 4503599627370494, 4503599627370494], [5, 5, 5, 4, 5, 5, 5, 4, 5, 5,
4, 5, 5, 4, 4, 5, 5, 4, 4, 4503599627370494,
5, 4, 4, 5, 4, 4, 5, 4, 5, 4,
4503599627370494, 4503599627370494, 4503599627370494, 4503599627370494, 4503599627370494, 4503599627370494],
[5, 5, 5, 4, 5, 5, 5, 4, 5, 5,
4, 5, 5, 4, 4, 5, 5, 4, 4, 4,
4503599627370494, 4, 4, 5, 4, 4, 5, 4, 5, 4,
4503599627370494, 4503599627370494, 4503599627370494, 4503599627370494, 4503599627370494, 4503599627370494], [5, 5, 5, 4, 5, 5, 5, 4, 5, 5,
4, 5, 5, 4, 4, 5, 5, 4, 4, 4,
5, 4503599627370494, 4, 5, 4, 4, 5, 4, 5, 4,
4503599627370494, 4503599627370494, 4503599627370494, 4503599627370494, 4503599627370494, 4503599627370494], [5, 5, 5, 4, 5, 5, 5, 4, 5, 5,
4, 5, 5, 4, 4, 5, 5, 4, 4, 4,
5, 4, 4503599627370494, 5, 4, 4, 5, 4, 5, 4,
4503599627370494, 4503599627370494, 4503599627370494, 4503599627370494, 4503599627370494, 4503599627370494], [5, 5, 5, 4, 5, 5, 5, 4, 5, 5,
4, 5, 5, 4, 4, 5, 5, 4, 4, 4,
5, 4, 4, 4503599627370494, 4, 4, 5, 4, 5, 4,
4503599627370494, 4503599627370494, 4503599627370494, 4503599627370494, 4503599627370494, 4503599627370494], [5, 5, 5, 4, 5, 5, 5, 4, 5, 5,
4, 5, 5, 4, 4, 5, 5, 4, 4, 4,
5, 4, 4, 5, 4503599627370494, 4, 5, 4, 5, 4,
4503599627370494, 4503599627370494, 4503599627370494, 4503599627370494, 4503599627370494, 4503599627370494], [5, 5, 5, 4, 5, 5, 5, 4, 5, 5,
4, 5, 5, 4, 4, 5, 5, 4, 4, 4,
5, 4, 4, 5, 4, 4503599627370494, 5, 4, 5, 4,
4503599627370494, 4503599627370494, 4503599627370494, 4503599627370494, 4503599627370494, 4503599627370494], [5, 5, 5, 4, 5, 5, 5, 4, 5, 5,
4, 5, 5, 4, 4, 5, 5, 4, 4, 4,
5, 4, 4, 5, 4, 4, 4503599627370494, 4, 5, 4,
4503599627370494, 4503599627370494, 4503599627370494, 4503599627370494, 4503599627370494, 4503599627370494], [5, 5, 5, 4, 5, 5, 5, 4, 5, 5,
4, 5, 5, 4, 4, 5, 5, 4, 4, 4,
5, 4, 4, 5, 4, 4, 5, 4503599627370494, 5, 4,
4503599627370494, 4503599627370494, 4503599627370494, 4503599627370494, 4503599627370494, 4503599627370494], [5, 5, 5, 4, 5, 5, 5, 4, 5, 5,
4, 5, 5, 4, 4, 5, 5, 4, 4, 4,
5, 4, 4, 5, 4, 4, 5, 4, 4503599627370494, 4,
4503599627370494, 4503599627370494, 4503599627370494, 4503599627370494, 4503599627370494, 4503599627370494], [5, 5, 5, 4, 5, 5, 5, 4, 5, 5,
4, 5, 5, 4, 4, 5, 5, 4, 4, 4,
5, 4, 4, 5, 4, 4, 5, 4, 5, 4503599627370494,
4503599627370494, 4503599627370494, 4503599627370494, 4503599627370494, 4503599627370494, 4503599627370494],
[5, 5, 5, 4, 5, 5, 5, 4, 5, 5,
4, 5, 5, 4, 4, 5, 5, 4, 4, 4,
5, 4, 4, 5, 4, 4, 5, 4, 5, 4,
4503599627370494, 4503599627370494, 4503599627370494, 4503599627370494, 4503599627370494, 4503599627370494], [5, 5, 5, 4, 5, 5, 5, 4, 5, 5,
4, 5, 5, 4, 4, 5, 5, 4, 4, 4,
5, 4, 4, 5, 4, 4, 5, 4, 5, 4,
4503599627370494, 4503599627370494, 4503599627370494, 4503599627370494, 4503599627370494, 4503599627370494], [5, 5, 5, 4, 5, 5, 5, 4, 5, 5,
4, 5, 5, 4, 4, 5, 5, 4, 4, 4,
5, 4, 4, 5, 4, 4, 5, 4, 5, 4,
4503599627370494, 4503599627370494, 4503599627370494, 4503599627370494, 4503599627370494, 4503599627370494], [5, 5, 5, 4, 5, 5, 5, 4, 5, 5,
4, 5, 5, 4, 4, 5, 5, 4, 4, 4,
5, 4, 4, 5, 4, 4, 5, 4, 5, 4,
4503599627370494, 4503599627370494, 4503599627370494, 4503599627370494, 4503599627370494, 4503599627370494], [5, 5, 5, 4, 5, 5, 5, 4, 5, 5,
4, 5, 5, 4, 4, 5, 5, 4, 4, 4,
5, 4, 4, 5, 4, 4, 5, 4, 5, 4,
4503599627370494, 4503599627370494, 4503599627370494, 4503599627370494, 4503599627370494, 4503599627370494], [5, 5, 5, 4, 5, 5, 5, 4, 5, 5,
4, 5, 5, 4, 4, 5, 5, 4, 4, 4,
5, 4, 4, 5, 4, 4, 5, 4, 5, 4,
4503599627370494, 4503599627370494, 4503599627370494, 4503599627370494, 4503599627370494, 4503599627370494]]
