6, 36, 
[37, 30, 48, 64, 58, 47, 43, 73, 30, 57,
26, 37, 41, 75, 59, 58, 39, 56, 60, 60,
73, 29, 33, 44, 65, 33, 65, 40, 66, 70,
0, 0, 0, 0, 0, 0]
[[4503599627370494, 10, 10, 4, 12, 11, 11, 4, 8, 8,
6, 12, 10, 7, 7, 10, 10, 8, 6, 7,
8, 5, 7, 10, 7, 5, 12, 4, 12, 8,
4503599627370494, 4503599627370494, 4503599627370494, 4503599627370494, 4503599627370494, 4503599627370494], [9, 4503599627370494, 10, 4, 12, 11, 11, 4, 8, 8,
6, 12, 10, 7, 7, 10, 10, 8, 6, 7,
8, 5, 7, 10, 7, 5, 12, 4, 12, 8,
4503599627370494, 4503599627370494, 4503599627370494, 4503599627370494, 4503599627370494, 4503599627370494], [9, 10, 4503599627370494, 4, 12, 11, 11, 4, 8, 8,
6, 12, 10, 7, 7, 10, 10, 8, 6, 7,
8, 5, 7, 10, 7, 5, 12, 4, 12, 8,
4503599627370494, 4503599627370494, 4503599627370494, 4503599627370494, 4503599627370494, 4503599627370494], [9, 10, 10, 4503599627370494, 12, 11, 11, 4, 8, 8,
6, 12, 10, 7, 7, 10, 10, 8, 6, 7,
8, 5, 7, 10, 7, 5, 12, 4, 12, 8,
4503599627370494, 4503599627370494, 4503599627370494, 4503599627370494, 4503599627370494, 4503599627370494], [9, 10, 10, 4, 4503599627370494, 11, 11, 4, 8, 8,
6, 12, 10, 7, 7, 10, 10, 8, 6, 7,
8, 5, 7, 10, 7, 5, 12, 4, 12, 8,
4503599627370494, 4503599627370494, 4503599627370494, 4503599627370494, 4503599627370494, 4503599627370494], [9, 10, 10, 4, 12, 4503599627370494, 11, 4, 8, 8,
6, 12, 10, 7, 7, 10, 10, 8, 6, 7,
8, 5, 7, 10, 7, 5, 12, 4, 12, 8,
4503599627370494, 4503599627370494, 4503599627370494, 4503599627370494, 4503599627370494, 4503599627370494], [9, 10, 10, 4, 12, 11, 4503599627370494, 4, 8, 8,
6, 12, 10, 7, 7, 10, 10, 8, 6, 7,
8, 5, 7, 10, 7, 5, 12, 4, 12, 8,
4503599627370494, 4503599627370494, 4503599627370494, 4503599627370494, 4503599627370494, 4503599627370494], [9, 10, 10, 4, 12, 11, 11, 4503599627370494, 8, 8,
6, 12, 10, 7, 7, 10, 10, 8, 6, 7,
8, 5, 7, 10, 7, 5, 12, 4, 12, 8,
4503599627370494, 4503599627370494, 4503599627370494, 4503599627370494, 4503599627370494, 4503599627370494], [9, 10, 10, 4, 12, 11, 11, 4, 4503599627370494, 8,
6, 12, 10, 7, 7, 10, 10, 8, 6, 7,
8, 5, 7, 10, 7, 5, 12, 4, 12, 8,
4503599627370494, 4503599627370494, 4503599627370494, 4503599627370494, 4503599627370494, 4503599627370494], [9, 10, 10, 4, 12, 11, 11, 4, 8, 4503599627370494,
6, 12, 10, 7, 7, 10, 10, 8, 6, 7,
8, 5, 7, 10, 7, 5, 12, 4, 12, 8,
4503599627370494, 4503599627370494, 4503599627370494, 4503599627370494, 4503599627370494, 4503599627370494],
[9, 10, 10, 4, 12, 11, 11, 4, 8, 8,
4503599627370494, 12, 10, 7, 7, 10, 10, 8, 6, 7,
8, 5, 7, 10, 7, 5, 12, 4, 12, 8,
4503599627370494, 4503599627370494, 4503599627370494, 4503599627370494, 4503599627370494, 4503599627370494], [9, 10, 10, 4, 12, 11, 11, 4, 8, 8,
6, 4503599627370494, 10, 7, 7, 10, 10, 8, 6, 7,
8, 5, 7, 10, 7, 5, 12, 4, 12, 8,
4503599627370494, 4503599627370494, 4503599627370494, 4503599627370494, 4503599627370494, 4503599627370494], [9, 10, 10, 4, 12, 11, 11, 4, 8, 8,
6, 12, 4503599627370494, 7, 7, 10, 10, 8, 6, 7,
8, 5, 7, 10, 7, 5, 12, 4, 12, 8,
4503599627370494, 4503599627370494, 4503599627370494, 4503599627370494, 4503599627370494, 4503599627370494], [9, 10, 10, 4, 12, 11, 11, 4, 8, 8,
6, 12, 10, 4503599627370494, 7, 10, 10, 8, 6, 7,
8, 5, 7, 10, 7, 5, 12, 4, 12, 8,
4503599627370494, 4503599627370494, 4503599627370494, 4503599627370494, 4503599627370494, 4503599627370494], [9, 10, 10, 4, 12, 11, 11, 4, 8, 8,
6, 12, 10, 7, 4503599627370494, 10, 10, 8, 6, 7,
8, 5, 7, 10, 7, 5, 12, 4, 12, 8,
4503599627370494, 4503599627370494, 4503599627370494, 4503599627370494, 4503599627370494, 4503599627370494], [9, 10, 10, 4, 12, 11, 11, 4, 8, 8,
6, 12, 10, 7, 7, 4503599627370494, 10, 8, 6, 7,
8, 5, 7, 10, 7, 5, 12, 4, 12, 8,
4503599627370494, 4503599627370494, 4503599627370494, 4503599627370494, 4503599627370494, 4503599627370494], [9, 10, 10, 4, 12, 11, 11, 4, 8, 8,
6, 12, 10, 7, 7, 10, 4503599627370494, 8, 6, 7,
8, 5, 7, 10, 7, 5, 12, 4, 12, 8,
4503599627370494, 4503599627370494, 4503599627370494, 4503599627370494, 4503599627370494, 4503599627370494], [9, 10, 10, 4, 12, 11, 11, 4, 8, 8,
6, 12, 10, 7, 7, 10, 10, 4503599627370494, 6, 7,
8, 5, 7, 10, 7, 5, 12, 4, 12, 8,
4503599627370494, 4503599627370494, 4503599627370494, 4503599627370494, 4503599627370494, 4503599627370494], [9, 10, 10, 4, 12, 11, 11, 4, 8, 8,
6, 12, 10, 7, 7, 10, 10, 8, 4503599627370494, 7,
8, 5, 7, 10, 7, 5, 12, 4, 12, 8,
4503599627370494, 4503599627370494, 4503599627370494, 4503599627370494, 4503599627370494, 4503599627370494], [9, 10, 10, 4, 12, 11, 11, 4, 8, 8,
6, 12, 10, 7, 7, 10, 10, 8, 6, 4503599627370494,
8, 5, 7, 10, 7, 5, 12, 4, 12, 8,
4503599627370494, 4503599627370494, 4503599627370494, 4503599627370494, 4503599627370494, 4503599627370494],
[9, 10, 10, 4, 12, 11, 11, 4, 8, 8,
6, 12, 10, 7, 7, 10, 10, 8, 6, 7,
4503599627370494, 5, 7, 10, 7, 5, 12, 4, 12, 8,
4503599627370494, 4503599627370494, 4503599627370494, 4503599627370494, 4503599627370494, 4503599627370494], [9, 10, 10, 4, 12, 11, 11, 4, 8, 8,
6, 12, 10, 7, 7, 10, 10, 8, 6, 7,
8, 4503599627370494, 7, 10, 7, 5, 12, 4, 12, 8,
4503599627370494, 4503599627370494, 4503599627370494, 4503599627370494, 4503599627370494, 4503599627370494], [9, 10, 10, 4, 12, 11, 11, 4, 8, 8,
6, 12, 10, 7, 7, 10, 10, 8, 6, 7,
8, 5, 4503599627370494, 10, 7, 5, 12, 4, 12, 8,
4503599627370494, 4503599627370494, 4503599627370494, 4503599627370494, 4503599627370494, 4503599627370494], [9, 10, 10, 4, 12, 11, 11, 4, 8, 8,
6, 12, 10, 7, 7, 10, 10, 8, 6, 7,
8, 5, 7, 4503599627370494, 7, 5, 12, 4, 12, 8,
4503599627370494, 4503599627370494, 4503599627370494, 4503599627370494, 4503599627370494, 4503599627370494], [9, 10, 10, 4, 12, 11, 11, 4, 8, 8,
6, 12, 10, 7, 7, 10, 10, 8, 6, 7,
8, 5, 7, 10, 4503599627370494, 5, 12, 4, 12, 8,
4503599627370494, 4503599627370494, 4503599627370494, 4503599627370494, 4503599627370494, 4503599627370494], [9, 10, 10, 4, 12, 11, 11, 4, 8, 8,
6, 12, 10, 7, 7, 10, 10, 8, 6, 7,
8, 5, 7, 10, 7, 4503599627370494, 12, 4, 12, 8,
4503599627370494, 4503599627370494, 4503599627370494, 4503599627370494, 4503599627370494, 4503599627370494], [9, 10, 10, 4, 12, 11, 11, 4, 8, 8,
6, 12, 10, 7, 7, 10, 10, 8, 6, 7,
8, 5, 7, 10, 7, 5, 4503599627370494, 4, 12, 8,
4503599627370494, 4503599627370494, 4503599627370494, 4503599627370494, 4503599627370494, 4503599627370494], [9, 10, 10, 4, 12, 11, 11, 4, 8, 8,
6, 12, 10, 7, 7, 10, 10, 8, 6, 7,
8, 5, 7, 10, 7, 5, 12, 4503599627370494, 12, 8,
4503599627370494, 4503599627370494, 4503599627370494, 4503599627370494, 4503599627370494, 4503599627370494], [9, 10, 10, 4, 12, 11, 11, 4, 8, 8,
6, 12, 10, 7, 7, 10, 10, 8, 6, 7,
8, 5, 7, 10, 7, 5, 12, 4, 4503599627370494, 8,
4503599627370494, 4503599627370494, 4503599627370494, 4503599627370494, 4503599627370494, 4503599627370494], [9, 10, 10, 4, 12, 11, 11, 4, 8, 8,
6, 12, 10, 7, 7, 10, 10, 8, 6, 7,
8, 5, 7, 10, 7, 5, 12, 4, 12, 4503599627370494,
4503599627370494, 4503599627370494, 4503599627370494, 4503599627370494, 4503599627370494, 4503599627370494],
[9, 10, 10, 4, 12, 11, 11, 4, 8, 8,
6, 12, 10, 7, 7, 10, 10, 8, 6, 7,
8, 5, 7, 10, 7, 5, 12, 4, 12, 8,
4503599627370494, 4503599627370494, 4503599627370494, 4503599627370494, 4503599627370494, 4503599627370494], [9, 10, 10, 4, 12, 11, 11, 4, 8, 8,
6, 12, 10, 7, 7, 10, 10, 8, 6, 7,
8, 5, 7, 10, 7, 5, 12, 4, 12, 8,
4503599627370494, 4503599627370494, 4503599627370494, 4503599627370494, 4503599627370494, 4503599627370494], [9, 10, 10, 4, 12, 11, 11, 4, 8, 8,
6, 12, 10, 7, 7, 10, 10, 8, 6, 7,
8, 5, 7, 10, 7, 5, 12, 4, 12, 8,
4503599627370494, 4503599627370494, 4503599627370494, 4503599627370494, 4503599627370494, 4503599627370494], [9, 10, 10, 4, 12, 11, 11, 4, 8, 8,
6, 12, 10, 7, 7, 10, 10, 8, 6, 7,
8, 5, 7, 10, 7, 5, 12, 4, 12, 8,
4503599627370494, 4503599627370494, 4503599627370494, 4503599627370494, 4503599627370494, 4503599627370494], [9, 10, 10, 4, 12, 11, 11, 4, 8, 8,
6, 12, 10, 7, 7, 10, 10, 8, 6, 7,
8, 5, 7, 10, 7, 5, 12, 4, 12, 8,
4503599627370494, 4503599627370494, 4503599627370494, 4503599627370494, 4503599627370494, 4503599627370494], [9, 10, 10, 4, 12, 11, 11, 4, 8, 8,
6, 12, 10, 7, 7, 10, 10, 8, 6, 7,
8, 5, 7, 10, 7, 5, 12, 4, 12, 8,
4503599627370494, 4503599627370494, 4503599627370494, 4503599627370494, 4503599627370494, 4503599627370494]]
