3, 30, 
[32, 60, 68, 87, 95, 32, 45, 81, 44, 80,
80, 51, 48, 28, 64, 51, 20, 18, 78, 69,
19, 74, 96, 79, 86, 81, 88, 68, 51, 29]
[[0, 10, 26, 40, 35, 24, 21, 48, 9, 34,
6, 16, 19, 50, 36, 35, 18, 33, 37, 37,
48, 9, 12, 22, 41, 12, 41, 19, 42, 45], [37, 0, 37, 5, 50, 42, 44, 7, 28, 29,
17, 50, 36, 22, 24, 36, 36, 26, 16, 21,
29, 12, 20, 36, 23, 12, 48, 8, 49, 27], [7, 10, 0, 14, 8, 19, 30, 19, 50, 45,
41, 15, 9, 13, 24, 48, 23, 40, 48, 10,
27, 19, 7, 26, 21, 22, 22, 5, 33, 43], [40, 9, 6, 0, 45, 15, 45, 26, 18, 10,
10, 22, 26, 21, 30, 19, 8, 12, 17, 25,
39, 13, 11, 44, 50, 19, 50, 34, 44, 37], [29, 36, 12, 5, 0, 6, 11, 8, 18, 14,
8, 47, 26, 42, 50, 10, 43, 36, 46, 7,
19, 14, 39, 13, 8, 36, 34, 15, 6, 31], [15, 33, 32, 13, 31, 0, 36, 19, 21, 29,
13, 50, 45, 7, 21, 43, 37, 19, 44, 45,
26, 18, 38, 41, 22, 39, 41, 28, 8, 20], [46, 7, 38, 49, 44, 18, 0, 45, 34, 23,
25, 29, 20, 22, 45, 19, 20, 36, 42, 16,
50, 19, 22, 12, 9, 48, 27, 42, 15, 25], [13, 15, 5, 11, 17, 48, 11, 0, 9, 27,
29, 43, 35, 25, 25, 48, 48, 21, 47, 7,
23, 10, 36, 42, 21, 7, 28, 45, 33, 5], [27, 35, 14, 33, 17, 18, 20, 15, 0, 32,
22, 13, 31, 20, 38, 11, 35, 48, 38, 12,
5, 10, 46, 12, 6, 36, 27, 24, 34, 8], [7, 28, 9, 10, 6, 13, 26, 42, 12, 0,
34, 33, 11, 19, 36, 15, 29, 21, 9, 14,
23, 31, 12, 26, 5, 16, 31, 27, 12, 48],
[45, 36, 11, 43, 19, 35, 27, 14, 36, 49,
0, 13, 10, 30, 28, 23, 50, 31, 27, 41,
12, 11, 20, 25, 36, 14, 46, 7, 8, 44], [36, 18, 45, 23, 40, 47, 50, 27, 21, 31,
6, 0, 11, 23, 15, 14, 26, 33, 49, 33,
17, 5, 5, 22, 41, 34, 30, 16, 26, 34], [32, 23, 21, 15, 18, 46, 15, 11, 39, 26,
50, 8, 0, 10, 14, 10, 50, 47, 14, 26,
38, 17, 9, 26, 32, 25, 36, 47, 9, 39], [36, 29, 44, 48, 49, 33, 41, 12, 48, 19,
15, 26, 14, 0, 11, 17, 47, 45, 12, 35,
35, 33, 6, 50, 46, 12, 28, 47, 40, 41], [50, 11, 23, 29, 40, 26, 15, 12, 16, 28,
14, 40, 16, 12, 0, 28, 41, 45, 20, 19,
29, 41, 39, 24, 9, 32, 35, 29, 49, 41], [36, 6, 22, 21, 20, 8, 8, 35, 21, 42,
37, 38, 47, 11, 26, 0, 43, 40, 43, 22,
21, 34, 32, 25, 16, 42, 15, 37, 18, 48], [47, 16, 22, 41, 43, 12, 23, 46, 43, 24,
38, 14, 49, 28, 43, 8, 0, 43, 17, 34,
39, 45, 37, 31, 25, 42, 8, 31, 10, 29], [22, 40, 37, 16, 45, 25, 20, 10, 19, 18,
25, 44, 5, 49, 34, 24, 34, 0, 48, 23,
39, 23, 24, 35, 14, 15, 15, 36, 48, 49], [32, 17, 22, 38, 7, 48, 27, 37, 33, 23,
38, 37, 49, 20, 19, 5, 36, 33, 0, 41,
22, 25, 33, 37, 41, 37, 48, 9, 28, 5], [39, 23, 11, 31, 36, 12, 27, 17, 47, 36,
47, 47, 19, 5, 5, 36, 26, 19, 46, 0,
15, 30, 8, 11, 31, 19, 50, 31, 31, 6],
[44, 50, 37, 49, 34, 20, 31, 23, 35, 11,
28, 23, 37, 10, 26, 28, 18, 37, 41, 6,
0, 26, 40, 33, 41, 9, 36, 16, 31, 16], [32, 47, 16, 42, 43, 48, 15, 21, 22, 36,
10, 8, 35, 39, 37, 11, 21, 6, 10, 41,
36, 0, 45, 41, 5, 34, 8, 22, 46, 44], [8, 50, 11, 48, 30, 32, 11, 45, 18, 28,
18, 48, 20, 9, 47, 22, 9, 44, 8, 49,
19, 15, 0, 25, 26, 6, 38, 11, 16, 12], [31, 19, 27, 24, 33, 10, 48, 38, 13, 10,
50, 27, 38, 33, 28, 38, 30, 36, 8, 16,
49, 28, 42, 0, 46, 33, 43, 30, 35, 47], [26, 46, 37, 29, 47, 49, 26, 46, 27, 42,
25, 22, 36, 49, 49, 43, 27, 42, 49, 18,
13, 25, 12, 47, 0, 41, 8, 27, 31, 41], [30, 17, 42, 20, 35, 9, 40, 14, 36, 29,
17, 34, 14, 17, 42, 31, 43, 44, 47, 40,
20, 39, 37, 33, 35, 0, 5, 38, 41, 38], [26, 45, 9, 36, 16, 12, 31, 20, 19, 45,
8, 17, 11, 25, 6, 29, 15, 46, 10, 14,
16, 34, 35, 5, 25, 41, 0, 31, 13, 36], [21, 49, 27, 42, 7, 23, 29, 28, 5, 35,
5, 27, 30, 7, 37, 7, 33, 17, 32, 11,
40, 43, 36, 28, 33, 43, 15, 0, 9, 15], [31, 22, 35, 35, 28, 9, 41, 19, 22, 33,
50, 37, 45, 25, 14, 39, 8, 33, 19, 23,
13, 19, 32, 29, 44, 29, 18, 49, 0, 14], [13, 25, 17, 31, 8, 34, 43, 45, 29, 32,
16, 19, 45, 49, 11, 8, 49, 15, 19, 45,
39, 32, 40, 43, 17, 17, 41, 10, 41, 0]]
