4, 12, 
[32, 39, 82, 88, 32, 68, 19, 42, 89, 33,
95, 53]
[[0, 10, 26, 40, 35, 24, 21, 48, 9, 34,
6, 16], [50, 0, 36, 35, 18, 33, 37, 37, 48, 9,
12, 22], [12, 41, 0, 19, 42, 45, 30, 37, 37, 5,
50, 42], [7, 28, 29, 0, 17, 50, 36, 22, 24, 36,
36, 26], [21, 29, 12, 20, 0, 36, 23, 12, 48, 8,
49, 27], [7, 10, 14, 8, 19, 0, 30, 19, 50, 45,
41, 15], [13, 24, 48, 23, 40, 48, 0, 10, 27, 19,
7, 26], [22, 22, 5, 33, 43, 44, 40, 0, 9, 6,
45, 15], [26, 18, 10, 10, 22, 26, 21, 30, 0, 19,
8, 12], [25, 39, 13, 11, 44, 50, 19, 50, 34, 0,
44, 37],
[29, 36, 12, 5, 6, 11, 8, 18, 14, 8,
0, 47], [42, 50, 10, 43, 36, 46, 7, 19, 14, 39,
13, 0]]
