5, 50, 
[32, 57, 21, 32, 99, 44, 80, 34, 38, 51,
77, 46, 19, 82, 20, 81, 29, 67, 98, 44,
78, 53, 92, 37, 45, 79, 73, 68, 92, 57,
56, 97, 80, 60, 82, 99, 13, 92, 19, 98,
55, 27, 48, 32, 73, 66, 74, 68, 30, 97]
[[0, 10, 26, 40, 35, 24, 21, 48, 9, 34,
6, 16, 19, 50, 36, 35, 18, 33, 37, 37,
48, 9, 12, 22, 41, 12, 41, 19, 42, 45,
30, 37, 37, 5, 50, 42, 44, 7, 28, 29,
17, 50, 36, 22, 24, 36, 36, 26, 16, 21], [12, 0, 20, 36, 23, 12, 48, 8, 49, 27,
34, 7, 10, 14, 8, 19, 30, 19, 50, 45,
41, 15, 9, 13, 24, 48, 23, 40, 48, 10,
27, 19, 7, 26, 21, 22, 22, 5, 33, 43,
44, 40, 9, 6, 45, 15, 45, 26, 18, 10], [22, 26, 0, 21, 30, 19, 8, 12, 17, 25,
39, 13, 11, 44, 50, 19, 50, 34, 44, 37,
48, 29, 36, 12, 5, 6, 11, 8, 18, 14,
8, 47, 26, 42, 50, 10, 43, 36, 46, 7,
19, 14, 39, 13, 8, 36, 34, 15, 6, 31], [15, 33, 32, 0, 13, 31, 36, 19, 21, 29,
13, 50, 45, 7, 21, 43, 37, 19, 44, 45,
26, 18, 38, 41, 22, 39, 41, 28, 8, 20,
22, 46, 7, 38, 49, 44, 18, 45, 34, 23,
25, 29, 20, 22, 45, 19, 20, 36, 42, 16], [19, 22, 12, 9, 0, 48, 27, 42, 15, 25,
41, 13, 15, 5, 11, 17, 48, 11, 9, 27,
29, 43, 35, 25, 25, 48, 48, 21, 47, 7,
23, 10, 36, 42, 21, 7, 28, 45, 33, 5,
22, 27, 35, 14, 33, 17, 18, 20, 15, 32], [13, 31, 20, 38, 11, 0, 35, 48, 38, 12,
5, 10, 46, 12, 6, 36, 27, 24, 34, 8,
40, 7, 28, 9, 10, 6, 13, 26, 42, 12,
34, 33, 11, 19, 36, 15, 29, 21, 9, 14,
23, 31, 12, 26, 5, 16, 31, 27, 12, 48], [45, 36, 11, 43, 19, 35, 0, 27, 14, 36,
49, 13, 10, 30, 28, 23, 50, 31, 27, 41,
12, 11, 20, 25, 36, 14, 46, 7, 8, 44,
26, 36, 18, 45, 23, 40, 47, 50, 27, 21,
31, 6, 11, 23, 15, 14, 26, 33, 49, 33], [5, 5, 22, 41, 34, 30, 16, 0, 26, 34,
24, 32, 23, 21, 15, 18, 46, 15, 11, 39,
26, 50, 8, 10, 14, 10, 50, 47, 14, 26,
38, 17, 9, 26, 32, 25, 36, 47, 9, 39,
14, 36, 29, 44, 48, 49, 33, 41, 12, 48], [15, 26, 14, 11, 17, 47, 45, 12, 0, 35,
35, 33, 6, 50, 46, 12, 28, 47, 40, 41,
32, 50, 11, 23, 29, 40, 26, 15, 12, 16,
28, 14, 40, 16, 12, 28, 41, 45, 20, 19,
29, 41, 39, 24, 9, 32, 35, 29, 49, 41], [36, 6, 22, 21, 20, 8, 8, 35, 21, 0,
42, 37, 38, 47, 11, 26, 43, 40, 43, 22,
21, 34, 32, 25, 16, 42, 15, 37, 18, 48,
10, 47, 16, 22, 41, 43, 12, 23, 46, 43,
24, 38, 14, 49, 28, 43, 8, 43, 17, 34],
[45, 37, 31, 25, 42, 8, 31, 10, 29, 9,
0, 22, 40, 37, 16, 45, 25, 20, 10, 19,
18, 25, 44, 5, 49, 34, 24, 34, 48, 23,
39, 23, 24, 35, 14, 15, 15, 36, 48, 49,
39, 32, 17, 22, 38, 7, 48, 27, 37, 33], [38, 37, 49, 20, 19, 5, 36, 33, 41, 22,
25, 0, 33, 37, 41, 37, 48, 9, 28, 5,
34, 39, 23, 11, 31, 36, 12, 27, 17, 47,
36, 47, 47, 19, 5, 5, 36, 26, 19, 46,
15, 30, 8, 11, 31, 19, 50, 31, 31, 6], [44, 50, 37, 49, 34, 20, 31, 23, 35, 11,
28, 23, 0, 37, 10, 26, 28, 18, 37, 41,
6, 26, 40, 33, 41, 9, 36, 16, 31, 16,
37, 32, 47, 16, 42, 43, 48, 15, 21, 22,
36, 10, 8, 35, 39, 37, 11, 21, 6, 10], [36, 45, 41, 5, 34, 8, 22, 46, 44, 48,
8, 50, 11, 0, 48, 30, 32, 11, 45, 18,
28, 18, 48, 20, 9, 47, 22, 9, 44, 8,
49, 19, 15, 25, 26, 6, 38, 11, 16, 12,
40, 31, 19, 27, 24, 33, 10, 48, 38, 13], [50, 27, 38, 33, 28, 38, 30, 36, 8, 16,
49, 28, 42, 46, 0, 33, 43, 30, 35, 47,
43, 26, 46, 37, 29, 47, 49, 26, 46, 27,
42, 25, 22, 36, 49, 49, 43, 27, 42, 49,
18, 13, 25, 12, 47, 41, 8, 27, 31, 41], [30, 17, 42, 20, 35, 9, 40, 14, 36, 29,
17, 34, 14, 17, 42, 0, 31, 43, 44, 47,
40, 20, 39, 37, 33, 35, 5, 38, 41, 38,
44, 26, 45, 9, 36, 16, 12, 31, 20, 19,
45, 8, 17, 11, 25, 6, 29, 15, 46, 10], [16, 34, 35, 5, 25, 41, 31, 13, 36, 34,
21, 49, 27, 42, 7, 23, 0, 29, 28, 5,
35, 5, 27, 30, 7, 37, 7, 33, 17, 32,
11, 40, 43, 36, 28, 33, 43, 15, 9, 15,
25, 31, 22, 35, 35, 28, 9, 41, 19, 22], [50, 37, 45, 25, 14, 39, 8, 33, 19, 23,
13, 19, 32, 29, 44, 29, 18, 0, 49, 14,
14, 13, 25, 17, 31, 8, 34, 43, 45, 29,
32, 16, 19, 45, 49, 11, 8, 49, 15, 19,
45, 39, 32, 40, 43, 17, 17, 41, 10, 41], [42, 42, 9, 12, 25, 30, 24, 19, 22, 30,
47, 13, 8, 38, 11, 45, 24, 33, 0, 23,
41, 31, 7, 35, 20, 26, 31, 36, 25, 18,
41, 43, 37, 9, 30, 40, 25, 14, 38, 28,
31, 34, 35, 43, 39, 48, 30, 29, 6, 36], [44, 12, 37, 50, 23, 39, 12, 40, 37, 45,
45, 50, 5, 32, 37, 14, 9, 29, 48, 0,
37, 36, 37, 9, 42, 12, 47, 14, 46, 22,
46, 7, 34, 39, 47, 48, 36, 5, 9, 11,
5, 17, 24, 5, 34, 37, 34, 35, 16, 6],
[26, 5, 9, 50, 36, 12, 7, 46, 43, 27,
29, 17, 23, 41, 43, 15, 15, 8, 35, 6,
0, 14, 5, 22, 47, 24, 16, 36, 26, 9,
28, 16, 49, 44, 33, 25, 7, 29, 40, 15,
40, 33, 10, 16, 35, 27, 5, 6, 14, 42], [24, 31, 32, 5, 30, 25, 33, 12, 30, 25,
26, 32, 41, 19, 15, 31, 24, 40, 21, 41,
36, 0, 25, 43, 45, 23, 8, 39, 37, 25,
24, 15, 26, 35, 33, 9, 36, 21, 43, 7,
50, 24, 22, 14, 41, 18, 6, 19, 48, 24], [32, 16, 44, 5, 41, 49, 38, 38, 32, 26,
37, 46, 37, 11, 15, 5, 48, 12, 15, 30,
14, 31, 0, 37, 21, 21, 19, 15, 7, 31,
22, 40, 42, 18, 30, 43, 49, 33, 34, 43,
10, 48, 34, 16, 32, 18, 28, 35, 8, 30], [9, 11, 37, 45, 36, 5, 30, 27, 34, 26,
39, 36, 11, 14, 37, 46, 33, 12, 19, 17,
22, 18, 20, 0, 10, 33, 30, 19, 10, 8,
44, 34, 11, 27, 17, 18, 33, 10, 24, 44,
42, 23, 10, 50, 21, 21, 17, 28, 6, 45], [45, 28, 40, 18, 47, 41, 42, 31, 17, 11,
37, 24, 24, 41, 43, 32, 13, 45, 47, 8,
41, 14, 19, 27, 0, 44, 17, 19, 49, 39,
21, 7, 18, 16, 36, 50, 11, 22, 14, 21,
27, 41, 29, 11, 38, 10, 50, 37, 13, 29], [8, 33, 9, 41, 32, 35, 13, 18, 25, 34,
27, 44, 42, 47, 8, 24, 13, 38, 42, 37,
15, 50, 28, 25, 18, 0, 16, 7, 32, 22,
44, 30, 10, 24, 50, 17, 25, 13, 25, 9,
19, 48, 9, 39, 37, 5, 48, 37, 15, 35], [42, 50, 22, 43, 30, 8, 9, 35, 28, 20,
33, 32, 47, 31, 9, 21, 24, 42, 34, 33,
15, 38, 34, 28, 39, 10, 0, 15, 42, 25,
20, 29, 42, 48, 35, 7, 31, 38, 32, 25,
13, 20, 28, 47, 39, 37, 20, 13, 13, 33], [28, 46, 32, 6, 26, 8, 20, 45, 8, 24,
44, 18, 15, 12, 42, 41, 35, 16, 28, 28,
33, 43, 22, 25, 18, 38, 42, 0, 46, 42,
24, 48, 7, 14, 41, 43, 34, 15, 47, 14,
50, 15, 44, 28, 6, 20, 6, 18, 39, 47], [36, 47, 35, 9, 6, 35, 28, 11, 38, 39,
17, 25, 8, 35, 26, 42, 8, 24, 20, 12,
30, 38, 7, 29, 17, 40, 20, 21, 0, 10,
17, 24, 7, 49, 46, 38, 6, 22, 9, 40,
12, 11, 9, 14, 25, 38, 41, 40, 43, 30], [48, 44, 24, 40, 21, 48, 45, 11, 42, 16,
20, 12, 5, 25, 19, 14, 27, 13, 47, 25,
24, 50, 35, 12, 6, 26, 29, 32, 42, 0,
27, 50, 27, 41, 32, 19, 30, 33, 14, 29,
41, 11, 15, 17, 28, 42, 49, 8, 39, 10],
[19, 32, 46, 10, 9, 49, 13, 16, 39, 45,
23, 18, 20, 20, 17, 44, 21, 24, 11, 40,
32, 18, 34, 11, 18, 14, 37, 12, 21, 7,
0, 22, 41, 26, 18, 12, 23, 31, 35, 28,
20, 21, 21, 26, 35, 22, 44, 45, 48, 16], [32, 35, 32, 21, 47, 6, 49, 40, 43, 45,
17, 6, 46, 36, 27, 32, 42, 7, 12, 45,
18, 37, 47, 41, 23, 15, 42, 50, 39, 25,
19, 0, 39, 47, 22, 25, 38, 13, 9, 22,
11, 24, 42, 42, 33, 8, 20, 26, 40, 12], [6, 43, 40, 21, 36, 46, 39, 41, 49, 36,
14, 49, 5, 23, 31, 28, 10, 28, 16, 40,
24, 38, 35, 6, 25, 26, 45, 18, 38, 7,
39, 7, 0, 43, 50, 23, 26, 50, 30, 37,
30, 50, 22, 11, 36, 48, 25, 41, 24, 7], [15, 48, 29, 22, 21, 18, 13, 38, 47, 14,
5, 25, 8, 46, 48, 11, 11, 6, 50, 9,
29, 30, 41, 36, 40, 6, 32, 50, 9, 50,
36, 26, 16, 0, 13, 43, 42, 29, 25, 33,
9, 18, 16, 34, 28, 29, 30, 19, 15, 39], [19, 39, 24, 48, 6, 35, 11, 43, 33, 20,
37, 13, 34, 47, 28, 30, 13, 45, 7, 11,
33, 37, 24, 45, 41, 17, 47, 18, 12, 14,
37, 21, 16, 18, 0, 36, 47, 6, 18, 12,
13, 35, 37, 42, 17, 22, 9, 32, 37, 50], [21, 25, 13, 33, 13, 32, 20, 29, 11, 39,
39, 44, 35, 23, 34, 21, 48, 21, 16, 32,
28, 46, 38, 45, 26, 47, 45, 11, 28, 36,
35, 14, 19, 13, 44, 0, 17, 13, 33, 10,
8, 32, 27, 11, 23, 25, 42, 6, 23, 34], [12, 16, 25, 23, 26, 26, 37, 18, 11, 17,
38, 14, 6, 25, 9, 29, 30, 27, 30, 22,
13, 19, 16, 13, 5, 5, 39, 19, 25, 35,
45, 26, 27, 26, 29, 24, 0, 40, 46, 37,
22, 30, 45, 27, 43, 21, 22, 26, 37, 19], [16, 29, 44, 17, 44, 43, 5, 17, 23, 25,
38, 22, 44, 26, 22, 16, 37, 31, 47, 36,
40, 34, 41, 12, 42, 18, 43, 23, 43, 33,
30, 6, 5, 29, 23, 21, 33, 0, 15, 32,
37, 23, 27, 28, 16, 35, 12, 5, 6, 26], [36, 45, 40, 34, 11, 33, 39, 37, 25, 30,
5, 32, 25, 40, 46, 36, 21, 20, 7, 6,
34, 26, 49, 14, 17, 17, 10, 29, 28, 34,
17, 41, 48, 38, 47, 35, 17, 22, 0, 23,
41, 32, 47, 40, 6, 37, 42, 7, 38, 21], [42, 36, 49, 24, 26, 14, 47, 31, 22, 44,
27, 14, 13, 42, 18, 14, 35, 37, 44, 15,
24, 50, 47, 17, 24, 38, 37, 47, 28, 25,
15, 23, 13, 29, 43, 32, 43, 28, 16, 0,
37, 39, 36, 5, 29, 18, 22, 38, 49, 39],
[11, 21, 45, 10, 30, 42, 39, 37, 50, 39,
28, 5, 7, 47, 34, 9, 6, 35, 49, 37,
22, 12, 25, 11, 27, 38, 50, 23, 49, 6,
50, 39, 12, 5, 19, 45, 28, 7, 49, 6,
0, 43, 10, 28, 28, 13, 38, 33, 9, 46], [21, 7, 50, 7, 11, 50, 46, 38, 34, 42,
43, 21, 39, 49, 39, 40, 43, 7, 32, 40,
31, 49, 37, 48, 44, 16, 34, 48, 48, 39,
9, 45, 27, 40, 36, 48, 40, 10, 45, 19,
49, 0, 40, 24, 11, 13, 27, 22, 30, 39], [46, 31, 27, 11, 33, 22, 21, 6, 14, 45,
21, 48, 41, 45, 38, 48, 45, 49, 17, 41,
5, 38, 13, 18, 41, 41, 30, 30, 40, 22,
44, 9, 13, 29, 44, 29, 23, 21, 12, 18,
32, 38, 0, 46, 50, 49, 6, 50, 30, 24], [32, 23, 17, 48, 23, 12, 23, 13, 21, 42,
43, 41, 16, 42, 5, 16, 39, 16, 5, 13,
30, 28, 42, 50, 14, 17, 42, 13, 20, 40,
42, 5, 10, 29, 40, 25, 42, 15, 10, 36,
11, 14, 5, 0, 20, 25, 41, 26, 9, 49], [17, 38, 29, 16, 37, 9, 32, 17, 39, 11,
21, 14, 44, 31, 5, 43, 35, 38, 7, 30,
24, 29, 11, 20, 6, 20, 28, 26, 29, 23,
41, 38, 14, 33, 27, 8, 27, 45, 42, 36,
44, 30, 27, 50, 0, 20, 48, 20, 24, 20], [11, 39, 6, 24, 17, 39, 32, 13, 14, 21,
31, 11, 38, 20, 20, 33, 50, 15, 8, 48,
21, 41, 46, 21, 37, 45, 6, 12, 5, 9,
50, 9, 10, 47, 17, 7, 36, 41, 21, 39,
26, 18, 36, 26, 10, 0, 38, 42, 11, 34], [48, 10, 20, 23, 17, 21, 43, 35, 37, 22,
37, 25, 13, 9, 21, 26, 5, 42, 8, 17,
48, 14, 45, 20, 26, 7, 9, 25, 16, 50,
8, 45, 28, 18, 12, 45, 40, 38, 35, 47,
15, 5, 9, 49, 7, 6, 0, 10, 31, 9], [37, 50, 8, 21, 40, 38, 15, 50, 47, 14,
16, 22, 24, 38, 19, 42, 47, 45, 47, 27,
36, 18, 12, 12, 7, 47, 10, 46, 18, 25,
48, 29, 21, 33, 17, 8, 42, 11, 29, 24,
34, 40, 41, 25, 36, 44, 32, 0, 21, 35], [9, 16, 34, 33, 48, 24, 43, 46, 19, 43,
33, 20, 37, 27, 16, 37, 6, 42, 25, 15,
5, 40, 20, 28, 43, 47, 27, 37, 27, 14,
19, 39, 15, 7, 20, 37, 45, 38, 35, 44,
16, 47, 43, 36, 42, 19, 7, 19, 0, 14], [42, 41, 47, 25, 14, 20, 46, 11, 40, 6,
48, 10, 24, 10, 29, 45, 9, 34, 11, 29,
43, 18, 11, 32, 49, 9, 48, 34, 36, 29,
44, 12, 28, 29, 22, 28, 43, 41, 43, 5,
42, 38, 49, 33, 46, 11, 27, 37, 12, 0]]
