Machines, Tasks, Workers
6 46 1
M, T, St, Se, P 
0 43 0 0 0
0 7 15 3 55
0 19 73 3 52
0 34 129 3 55
0 20 187 4 55
0 26 246 4 53
0 28 303 4 54
1 40 0 0 0
1 36 12 3 54
1 24 69 3 53
1 29 125 4 54
1 18 183 4 52
1 13 239 4 55
1 35 298 4 53
2 42 0 0 0
2 14 6 3 52
2 0 61 3 47
2 12 111 3 48
2 30 162 4 51
2 22 217 3 46
2 8 266 3 46
2 4 315 3 52
3 41 0 0 0
3 9 3 3 52
3 11 58 3 47
3 21 108 3 46
3 17 157 3 51
3 6 211 4 48
3 32 263 3 52
3 23 318 3 49
4 44 0 0 0
4 25 0 3 46
4 27 49 3 48
4 39 100 3 50
4 5 153 4 49
4 16 206 4 48
4 38 258 4 50
4 15 312 3 52
5 45 0 0 0
5 31 9 3 52
5 3 64 3 53
5 33 120 3 45
5 2 168 4 50
5 1 222 4 46
5 10 272 4 45
5 37 321 4 45
370 3600024