Machines, Tasks, Workers
6 46 1
M, T, St, Se, P 
0 41 0 0 0
0 24 11 2 65
0 37 78 6 28
0 18 112 7 60
0 19 179 4 60
0 35 243 7 66
0 9 316 4 57
1 45 0 0 0
1 32 6 2 60
1 4 68 4 58
1 20 130 5 73
1 29 208 7 70
1 5 286 6 47
1 1 340 7 30
2 42 0 0 0
2 23 8 3 44
2 27 55 3 40
2 12 98 4 41
2 30 143 6 53
2 7 202 4 73
2 38 279 7 51
2 0 337 3 37
3 43 0 0 0
3 21 0 2 29
3 36 31 4 68
3 3 103 4 64
3 16 171 7 39
3 13 217 6 75
3 34 298 4 75
4 44 0 0 0
4 39 4 2 51
4 31 58 3 61
4 14 122 4 59
4 26 185 5 65
4 6 255 6 43
4 28 304 7 66
5 40 0 0 0
5 22 2 2 33
5 17 37 2 56
5 15 95 2 58
5 11 155 3 37
5 8 195 3 30
5 25 228 3 33
5 33 264 3 25
5 10 292 5 26
5 2 323 6 48
377 3600017