Machines, Tasks, Workers
6 26 1
M, T, St, Se, P 
0 20 0 0 0
0 15 31 9 55
0 6 98 9 45
0 17 153 5 54
1 22 0 0 0
1 2 0 5 49
1 12 54 9 44
1 0 107 10 42
1 16 159 10 43
2 24 0 0 0
2 19 16 8 56
2 18 80 8 56
2 4 144 9 55
3 23 0 0 0
3 3 24 7 58
3 8 89 9 38
3 13 138 5 65
4 21 0 0 0
4 1 5 5 38
4 7 48 6 64
4 11 118 9 42
4 10 169 8 35
5 25 0 0 0
5 5 10 6 48
5 9 64 10 54
5 14 128 10 56
212 3600005