Machines, Tasks, Workers
2 20 1
M, T, St, Se, P 
0 4 0 0 78
0 2 78 5 46
0 6 129 5 29
0 8 163 5 93
0 5 261 12 36
0 1 309 8 31
0 7 348 5 49
0 9 402 5 58
0 0 465 13 70
0 3 548 15 73
1 14 0 0 91
1 18 91 9 46
1 12 146 7 41
1 11 194 5 56
1 19 255 5 66
1 13 326 10 100
1 17 436 5 52
1 15 493 5 26
1 10 524 5 74
1 16 603 8 60
671 997