Machines, Tasks, Workers
7 70 1
M, T, St, Se, P 
0 54 0 0 13
0 51 13 25 20
0 55 598 27 13
0 53 713 26 25
0 52 849 28 53
0 59 998 32 31
0 58 1197 35 92
0 57 1485 26 90
0 56 1652 32 17
0 50 1775 28 20
1 18 0 0 46
1 12 64 28 41
1 11 200 25 56
1 19 359 25 66
1 14 625 33 91
1 13 792 32 100
1 17 946 25 52
1 15 1142 25 26
1 10 1283 25 74
1 16 1457 28 60
2 67 0 0 58
2 66 149 25 56
2 64 332 27 46
2 62 548 25 14
2 61 658 25 26
2 63 739 25 86
2 60 1057 26 76
2 69 1333 26 96
2 68 1554 44 79
2 65 1748 27 27
3 47 0 0 32
3 41 121 28 74
3 46 250 30 31
3 43 438 26 22
3 44 497 25 77
3 40 764 28 82
3 45 1030 27 53
3 42 1257 26 62
3 48 1430 27 43
3 49 1623 29 67
4 5 0 0 36
4 6 38 26 29
4 0 225 25 70
4 8 384 29 93
4 4 522 26 78
4 2 824 25 46
4 1 971 27 31
4 3 1109 33 73
4 7 1232 25 49
4 9 1308 25 58
5 33 0 0 51
5 34 174 26 10
5 37 280 27 22
5 32 413 25 98
5 31 683 30 65
5 30 911 35 68
5 35 1167 30 52
5 38 1389 41 46
5 36 1598 25 55
5 39 1684 34 58
6 21 0 0 80
6 26 92 29 93
6 25 307 25 26
6 29 464 33 22
6 24 573 25 90
6 27 877 34 69
6 28 1083 26 57
6 22 1359 30 55
6 20 1511 43 70
6 23 1718 30 62
1823 10256