Machines, Tasks, Workers
5 25 1
M, T, St, Se, P 
0 5 0 0 59
0 6 59 7 73
0 8 139 6 78
0 9 223 7 81
0 7 311 16 63
1 3 0 0 33
1 1 33 6 33
1 2 104 28 31
1 0 180 16 70
1 4 266 12 46
2 11 0 0 56
2 10 66 7 36
2 13 132 7 75
2 12 236 5 29
2 14 284 8 49
3 20 0 0 74
3 22 74 9 56
3 23 145 35 36
3 24 230 6 41
3 21 278 6 80
4 19 0 0 76
4 15 83 5 11
4 16 99 5 93
4 18 197 22 58
4 17 327 46 14
390 3730