Machines, Tasks globally, Workers, Criterium value, Runtime ms
12 180 2 406 120022
12 180 5 399 120003
12 240 2 1798 119999
12 240 5 564 119997
12 300 2 7741 120016
12 300 5 5492 120010
14 210 2 1464 120000
14 210 5 407 120016
14 280 2 6406 120009
14 280 5 6501 120011
14 350 2 2950 120002
14 350 5 3623 120010
16 240 2 4823 120007
16 240 5 1068 120006
16 320 2 7775 120009
16 320 5 8261 120014
16 400 2 9769 120030
16 400 5 6824 120010
18 270 2 1717 120006
18 270 5 5758 120008
18 360 2 7260 120015
18 360 5 8522 120014
18 450 2 7681 120012
18 450 5 8514 120014
20 300 2 5630 120014
20 300 5 7550 120008
20 400 2 9822 120016
20 400 5 8943 120011
20 500 2 12811 120031
20 500 5 11874 120032
Global opt value: 172353; global runtime in ms: 3600352
